Value;Designator;Manufacturer Part Number ;Qty;Link
1µF;C1,C2,C3,C4,C8;CM05X5R105M16AH ;5;https://www.mouser.it/ProductDetail/Kyocera-Electronic-Components/CM05X5R105M16AH?qs=sGAEpiMZZMsG1k5vdNM%2Fc62HxpYsYx%252BhBV8RL3Hya%252Bk%3D
100nF;C5,C6;CM05X5R104M25AH ;2;https://www.mouser.it/ProductDetail/Kyocera-Electronic-Components/CM05X5R104M25AH?qs=sGAEpiMZZMukHu%252BjC5l7YVcK8nR54NRf%252B%2FCwG4ny9h4%3D
2.2µF;C9;GRM155D80J225KE95D;1;https://eu.mouser.com/ProductDetail/Murata-Electronics/GRM155D80J225KE95D?qs=sGAEpiMZZMukHu%252BjC5l7YbA1Uz8mFEbw84Tc7RFEpyk%3D
10nF;C10;C0402C103J3RACAUTO;1;https://www.mouser.it/ProductDetail/KEMET/C0402C103J3RACAUTO?qs=sGAEpiMZZMve4%2FbfQkoj%252BCWWpKGC3MQ%252BwgfuJpV5gCA%3D
6pF;C11,C12;CM02CG6R0C25AH;2;https://www.mouser.it/ProductDetail/Kyocera-Electronic-Components/CM02CG6R0C25AH?qs=sGAEpiMZZMsG1k5vdNM%2FcwGynhgql%252BwqrjoY%252BtX2Gl4%3D
ATA6561;IC1;ATA6561-GBQW-N;1;https://www.mouser.it/ProductDetail/Microchip-Technology/ATA6561-GBQW-N?qs=sGAEpiMZZMve4%2FbfQkoj%252BI%2F7t6KV9V5GttbTFJRO2QE%3D
DRV8833;IC2;DRV8833RTYR;1;https://eu.mouser.com/ProductDetail/Texas-Instruments/DRV8833RTYR?qs=sGAEpiMZZMtz%252B0sEXfDDUASdefVSgDvl
X4SMD_COM;INPUT;;1;
X2SMD;M1;;1;
STM32F042G6;MCU1;STM32F042G6U6 ;1;https://www.mouser.it/ProductDetail/STMicroelectronics/STM32F042G6U6?qs=sGAEpiMZZMuoKKEcg8mMKNc9fYNb0pwdq4rqFaZOONp42qL8qoOBeg%3D%3D
X3THTSMALL;POT;;1;
10k;R1;RR0510P-103-D;1;https://www.mouser.it/ProductDetail/Susumu/RR0510P-103-D?qs=sGAEpiMZZMu61qfTUdNhG%2FDhcyQpRg8MB7P%2FfnNlJ9M%3D
0.075;R2,R4;ERJ-2BWFR075X ;2;https://eu.mouser.com/ProductDetail/Panasonic/ERJ-2BWFR075X?qs=sGAEpiMZZMvdGkrng054t%252BCSV7RqsZYanf4L0ZPtkAA%3D
330k;R3;MCS04020C3303FE000;1;https://www.mouser.it/ProductDetail/Vishay-Beyschlag/MCS04020C3303FE000?qs=wTZ%2FFzl837bYr6QLjKqnrw%3D%3D
SWD;SWD1;;1;
5V;UREG1;TPS76950DBVR;1;https://www.mouser.it/ProductDetail/Texas-Instruments/TPS76950DBVR?qs=sGAEpiMZZMsGz1a6aV8DcAfX9iOHBOeIyQpQEiditR4%3D
3V3;UREG2;MCP1802T-3002I/OT;1;https://www.mouser.it/ProductDetail/Microchip-Technology/MCP1802T-3002I-OT?qs=sGAEpiMZZMsGz1a6aV8DcHtY22241HYI5svncn6gMRE%3D
32MHz;Y1;XRCGB32M000F0Z00R0 ;1;https://www.mouser.it/ProductDetail/81-XRCGB32M000F0Z0R0
