G04 EAGLE Gerber RS-274X export*
G75*
%MOMM*%
%FSLAX34Y34*%
%LPD*%
%IN*%
%IPPOS*%
%AMOC8*
5,1,8,0,0,1.08239X$1,22.5*%
G01*
%ADD10C,0.254000*%


D10*
X0Y0D02*
X144263Y0D01*
X144263Y168150D01*
X0Y168150D01*
X0Y0D01*
X31000Y19568D02*
X30932Y18706D01*
X30797Y17852D01*
X30595Y17012D01*
X30328Y16190D01*
X29997Y15391D01*
X29605Y14621D01*
X29153Y13884D01*
X28645Y13185D01*
X28084Y12527D01*
X27473Y11916D01*
X26815Y11355D01*
X26116Y10847D01*
X25379Y10395D01*
X24609Y10003D01*
X23810Y9672D01*
X22988Y9405D01*
X22148Y9203D01*
X21294Y9068D01*
X20432Y9000D01*
X19568Y9000D01*
X18706Y9068D01*
X17852Y9203D01*
X17012Y9405D01*
X16190Y9672D01*
X15391Y10003D01*
X14621Y10395D01*
X13884Y10847D01*
X13185Y11355D01*
X12527Y11916D01*
X11916Y12527D01*
X11355Y13185D01*
X10847Y13884D01*
X10395Y14621D01*
X10003Y15391D01*
X9672Y16190D01*
X9405Y17012D01*
X9203Y17852D01*
X9068Y18706D01*
X9000Y19568D01*
X9000Y20432D01*
X9068Y21294D01*
X9203Y22148D01*
X9405Y22988D01*
X9672Y23810D01*
X10003Y24609D01*
X10395Y25379D01*
X10847Y26116D01*
X11355Y26815D01*
X11916Y27473D01*
X12527Y28084D01*
X13185Y28645D01*
X13884Y29153D01*
X14621Y29605D01*
X15391Y29997D01*
X16190Y30328D01*
X17012Y30595D01*
X17852Y30797D01*
X18706Y30932D01*
X19568Y31000D01*
X20432Y31000D01*
X21294Y30932D01*
X22148Y30797D01*
X22988Y30595D01*
X23810Y30328D01*
X24609Y29997D01*
X25379Y29605D01*
X26116Y29153D01*
X26815Y28645D01*
X27473Y28084D01*
X28084Y27473D01*
X28645Y26815D01*
X29153Y26116D01*
X29605Y25379D01*
X29997Y24609D01*
X30328Y23810D01*
X30595Y22988D01*
X30797Y22148D01*
X30932Y21294D01*
X31000Y20432D01*
X31000Y19568D01*
X132500Y19568D02*
X132432Y18706D01*
X132297Y17852D01*
X132095Y17012D01*
X131828Y16190D01*
X131497Y15391D01*
X131105Y14621D01*
X130653Y13884D01*
X130145Y13185D01*
X129584Y12527D01*
X128973Y11916D01*
X128315Y11355D01*
X127616Y10847D01*
X126879Y10395D01*
X126109Y10003D01*
X125310Y9672D01*
X124488Y9405D01*
X123648Y9203D01*
X122794Y9068D01*
X121932Y9000D01*
X121068Y9000D01*
X120206Y9068D01*
X119352Y9203D01*
X118512Y9405D01*
X117690Y9672D01*
X116891Y10003D01*
X116121Y10395D01*
X115384Y10847D01*
X114685Y11355D01*
X114027Y11916D01*
X113416Y12527D01*
X112855Y13185D01*
X112347Y13884D01*
X111895Y14621D01*
X111503Y15391D01*
X111172Y16190D01*
X110905Y17012D01*
X110703Y17852D01*
X110568Y18706D01*
X110500Y19568D01*
X110500Y20432D01*
X110568Y21294D01*
X110703Y22148D01*
X110905Y22988D01*
X111172Y23810D01*
X111503Y24609D01*
X111895Y25379D01*
X112347Y26116D01*
X112855Y26815D01*
X113416Y27473D01*
X114027Y28084D01*
X114685Y28645D01*
X115384Y29153D01*
X116121Y29605D01*
X116891Y29997D01*
X117690Y30328D01*
X118512Y30595D01*
X119352Y30797D01*
X120206Y30932D01*
X121068Y31000D01*
X121932Y31000D01*
X122794Y30932D01*
X123648Y30797D01*
X124488Y30595D01*
X125310Y30328D01*
X126109Y29997D01*
X126879Y29605D01*
X127616Y29153D01*
X128315Y28645D01*
X128973Y28084D01*
X129584Y27473D01*
X130145Y26815D01*
X130653Y26116D01*
X131105Y25379D01*
X131497Y24609D01*
X131828Y23810D01*
X132095Y22988D01*
X132297Y22148D01*
X132432Y21294D01*
X132500Y20432D01*
X132500Y19568D01*
X132500Y147568D02*
X132432Y146706D01*
X132297Y145852D01*
X132095Y145012D01*
X131828Y144190D01*
X131497Y143391D01*
X131105Y142621D01*
X130653Y141884D01*
X130145Y141185D01*
X129584Y140527D01*
X128973Y139916D01*
X128315Y139355D01*
X127616Y138847D01*
X126879Y138395D01*
X126109Y138003D01*
X125310Y137672D01*
X124488Y137405D01*
X123648Y137203D01*
X122794Y137068D01*
X121932Y137000D01*
X121068Y137000D01*
X120206Y137068D01*
X119352Y137203D01*
X118512Y137405D01*
X117690Y137672D01*
X116891Y138003D01*
X116121Y138395D01*
X115384Y138847D01*
X114685Y139355D01*
X114027Y139916D01*
X113416Y140527D01*
X112855Y141185D01*
X112347Y141884D01*
X111895Y142621D01*
X111503Y143391D01*
X111172Y144190D01*
X110905Y145012D01*
X110703Y145852D01*
X110568Y146706D01*
X110500Y147568D01*
X110500Y148432D01*
X110568Y149294D01*
X110703Y150148D01*
X110905Y150988D01*
X111172Y151810D01*
X111503Y152609D01*
X111895Y153379D01*
X112347Y154116D01*
X112855Y154815D01*
X113416Y155473D01*
X114027Y156084D01*
X114685Y156645D01*
X115384Y157153D01*
X116121Y157605D01*
X116891Y157997D01*
X117690Y158328D01*
X118512Y158595D01*
X119352Y158797D01*
X120206Y158932D01*
X121068Y159000D01*
X121932Y159000D01*
X122794Y158932D01*
X123648Y158797D01*
X124488Y158595D01*
X125310Y158328D01*
X126109Y157997D01*
X126879Y157605D01*
X127616Y157153D01*
X128315Y156645D01*
X128973Y156084D01*
X129584Y155473D01*
X130145Y154815D01*
X130653Y154116D01*
X131105Y153379D01*
X131497Y152609D01*
X131828Y151810D01*
X132095Y150988D01*
X132297Y150148D01*
X132432Y149294D01*
X132500Y148432D01*
X132500Y147568D01*
X31000Y147568D02*
X30932Y146706D01*
X30797Y145852D01*
X30595Y145012D01*
X30328Y144190D01*
X29997Y143391D01*
X29605Y142621D01*
X29153Y141884D01*
X28645Y141185D01*
X28084Y140527D01*
X27473Y139916D01*
X26815Y139355D01*
X26116Y138847D01*
X25379Y138395D01*
X24609Y138003D01*
X23810Y137672D01*
X22988Y137405D01*
X22148Y137203D01*
X21294Y137068D01*
X20432Y137000D01*
X19568Y137000D01*
X18706Y137068D01*
X17852Y137203D01*
X17012Y137405D01*
X16190Y137672D01*
X15391Y138003D01*
X14621Y138395D01*
X13884Y138847D01*
X13185Y139355D01*
X12527Y139916D01*
X11916Y140527D01*
X11355Y141185D01*
X10847Y141884D01*
X10395Y142621D01*
X10003Y143391D01*
X9672Y144190D01*
X9405Y145012D01*
X9203Y145852D01*
X9068Y146706D01*
X9000Y147568D01*
X9000Y148432D01*
X9068Y149294D01*
X9203Y150148D01*
X9405Y150988D01*
X9672Y151810D01*
X10003Y152609D01*
X10395Y153379D01*
X10847Y154116D01*
X11355Y154815D01*
X11916Y155473D01*
X12527Y156084D01*
X13185Y156645D01*
X13884Y157153D01*
X14621Y157605D01*
X15391Y157997D01*
X16190Y158328D01*
X17012Y158595D01*
X17852Y158797D01*
X18706Y158932D01*
X19568Y159000D01*
X20432Y159000D01*
X21294Y158932D01*
X22148Y158797D01*
X22988Y158595D01*
X23810Y158328D01*
X24609Y157997D01*
X25379Y157605D01*
X26116Y157153D01*
X26815Y156645D01*
X27473Y156084D01*
X28084Y155473D01*
X28645Y154815D01*
X29153Y154116D01*
X29605Y153379D01*
X29997Y152609D01*
X30328Y151810D01*
X30595Y150988D01*
X30797Y150148D01*
X30932Y149294D01*
X31000Y148432D01*
X31000Y147568D01*
M02*
