G04 EAGLE Gerber RS-274X export*
G75*
%MOMM*%
%FSLAX34Y34*%
%LPD*%
%INSilkscreen Bottom*%
%IPPOS*%
%AMOC8*
5,1,8,0,0,1.08239X$1,22.5*%
G01*
%ADD10C,0.500000*%
%ADD11C,0.120000*%
%ADD12C,0.050800*%

G36*
X113238Y120123D02*
X113238Y120123D01*
X113289Y120125D01*
X113322Y120142D01*
X113357Y120150D01*
X113397Y120183D01*
X113442Y120207D01*
X113463Y120237D01*
X113491Y120261D01*
X113512Y120307D01*
X113541Y120349D01*
X113550Y120391D01*
X113562Y120419D01*
X113561Y120449D01*
X113569Y120491D01*
X113569Y125571D01*
X113557Y125621D01*
X113555Y125672D01*
X113538Y125704D01*
X113530Y125740D01*
X113497Y125779D01*
X113473Y125824D01*
X113443Y125845D01*
X113419Y125874D01*
X113373Y125895D01*
X113331Y125924D01*
X113289Y125932D01*
X113261Y125945D01*
X113231Y125943D01*
X113189Y125952D01*
X110649Y125952D01*
X110599Y125940D01*
X110548Y125938D01*
X110516Y125920D01*
X110480Y125912D01*
X110441Y125880D01*
X110396Y125855D01*
X110375Y125825D01*
X110346Y125802D01*
X110325Y125755D01*
X110296Y125714D01*
X110288Y125672D01*
X110275Y125644D01*
X110277Y125613D01*
X110269Y125571D01*
X110269Y120491D01*
X110280Y120442D01*
X110282Y120391D01*
X110300Y120358D01*
X110308Y120323D01*
X110340Y120283D01*
X110365Y120238D01*
X110395Y120217D01*
X110418Y120189D01*
X110465Y120168D01*
X110507Y120139D01*
X110548Y120131D01*
X110576Y120118D01*
X110607Y120119D01*
X110649Y120111D01*
X113189Y120111D01*
X113238Y120123D01*
G37*
G36*
X27513Y116948D02*
X27513Y116948D01*
X27564Y116950D01*
X27597Y116967D01*
X27632Y116975D01*
X27672Y117008D01*
X27717Y117032D01*
X27738Y117062D01*
X27766Y117086D01*
X27787Y117132D01*
X27816Y117174D01*
X27825Y117216D01*
X27837Y117244D01*
X27836Y117274D01*
X27844Y117316D01*
X27844Y122396D01*
X27832Y122446D01*
X27830Y122497D01*
X27813Y122529D01*
X27805Y122565D01*
X27772Y122604D01*
X27748Y122649D01*
X27718Y122670D01*
X27694Y122699D01*
X27648Y122720D01*
X27606Y122749D01*
X27564Y122757D01*
X27536Y122770D01*
X27506Y122768D01*
X27464Y122777D01*
X24924Y122777D01*
X24874Y122765D01*
X24823Y122763D01*
X24791Y122745D01*
X24755Y122737D01*
X24716Y122705D01*
X24671Y122680D01*
X24650Y122650D01*
X24621Y122627D01*
X24600Y122580D01*
X24571Y122539D01*
X24563Y122497D01*
X24550Y122469D01*
X24552Y122438D01*
X24544Y122396D01*
X24544Y117316D01*
X24555Y117267D01*
X24557Y117216D01*
X24575Y117183D01*
X24583Y117148D01*
X24615Y117108D01*
X24640Y117063D01*
X24670Y117042D01*
X24693Y117014D01*
X24740Y116993D01*
X24782Y116964D01*
X24823Y116956D01*
X24851Y116943D01*
X24882Y116944D01*
X24924Y116936D01*
X27464Y116936D01*
X27513Y116948D01*
G37*
G36*
X76726Y101866D02*
X76726Y101866D01*
X76777Y101868D01*
X76809Y101886D01*
X76845Y101894D01*
X76884Y101927D01*
X76929Y101951D01*
X76950Y101981D01*
X76979Y102004D01*
X77000Y102051D01*
X77029Y102093D01*
X77037Y102135D01*
X77050Y102163D01*
X77048Y102193D01*
X77057Y102235D01*
X77057Y107315D01*
X77045Y107365D01*
X77043Y107416D01*
X77025Y107448D01*
X77017Y107484D01*
X76985Y107523D01*
X76960Y107568D01*
X76930Y107589D01*
X76907Y107617D01*
X76860Y107638D01*
X76819Y107668D01*
X76777Y107676D01*
X76749Y107688D01*
X76718Y107687D01*
X76676Y107695D01*
X74136Y107695D01*
X74087Y107684D01*
X74036Y107682D01*
X74003Y107664D01*
X73968Y107656D01*
X73928Y107623D01*
X73883Y107599D01*
X73862Y107569D01*
X73834Y107546D01*
X73813Y107499D01*
X73784Y107457D01*
X73776Y107415D01*
X73763Y107387D01*
X73764Y107357D01*
X73756Y107315D01*
X73756Y102235D01*
X73768Y102185D01*
X73770Y102134D01*
X73787Y102102D01*
X73795Y102066D01*
X73828Y102027D01*
X73852Y101982D01*
X73882Y101961D01*
X73906Y101933D01*
X73952Y101912D01*
X73994Y101882D01*
X74036Y101874D01*
X74064Y101862D01*
X74094Y101863D01*
X74136Y101855D01*
X76676Y101855D01*
X76726Y101866D01*
G37*
G36*
X63232Y93929D02*
X63232Y93929D01*
X63283Y93931D01*
X63315Y93948D01*
X63351Y93957D01*
X63391Y93989D01*
X63435Y94014D01*
X63457Y94044D01*
X63485Y94067D01*
X63506Y94114D01*
X63535Y94155D01*
X63543Y94197D01*
X63556Y94225D01*
X63555Y94256D01*
X63563Y94298D01*
X63563Y99378D01*
X63551Y99427D01*
X63549Y99478D01*
X63532Y99510D01*
X63523Y99546D01*
X63491Y99586D01*
X63466Y99630D01*
X63436Y99652D01*
X63413Y99680D01*
X63366Y99701D01*
X63325Y99730D01*
X63283Y99738D01*
X63255Y99751D01*
X63224Y99750D01*
X63183Y99758D01*
X60643Y99758D01*
X60593Y99746D01*
X60542Y99744D01*
X60510Y99727D01*
X60474Y99718D01*
X60434Y99686D01*
X60390Y99661D01*
X60369Y99631D01*
X60340Y99608D01*
X60319Y99561D01*
X60290Y99520D01*
X60282Y99478D01*
X60269Y99450D01*
X60270Y99419D01*
X60262Y99378D01*
X60262Y94298D01*
X60274Y94248D01*
X60276Y94197D01*
X60293Y94165D01*
X60302Y94129D01*
X60334Y94089D01*
X60359Y94045D01*
X60389Y94024D01*
X60412Y93995D01*
X60459Y93974D01*
X60500Y93945D01*
X60542Y93937D01*
X60570Y93924D01*
X60601Y93925D01*
X60643Y93917D01*
X63183Y93917D01*
X63232Y93929D01*
G37*
G36*
X29101Y69323D02*
X29101Y69323D01*
X29152Y69325D01*
X29184Y69342D01*
X29220Y69350D01*
X29259Y69383D01*
X29304Y69407D01*
X29325Y69437D01*
X29354Y69461D01*
X29375Y69507D01*
X29404Y69549D01*
X29412Y69591D01*
X29425Y69619D01*
X29423Y69649D01*
X29432Y69691D01*
X29432Y74771D01*
X29420Y74821D01*
X29418Y74872D01*
X29400Y74904D01*
X29392Y74940D01*
X29360Y74979D01*
X29335Y75024D01*
X29305Y75045D01*
X29282Y75074D01*
X29235Y75095D01*
X29194Y75124D01*
X29152Y75132D01*
X29124Y75145D01*
X29093Y75143D01*
X29051Y75152D01*
X26511Y75152D01*
X26462Y75140D01*
X26411Y75138D01*
X26378Y75120D01*
X26343Y75112D01*
X26303Y75080D01*
X26258Y75055D01*
X26237Y75025D01*
X26209Y75002D01*
X26188Y74955D01*
X26159Y74914D01*
X26151Y74872D01*
X26138Y74844D01*
X26139Y74813D01*
X26131Y74771D01*
X26131Y69691D01*
X26143Y69642D01*
X26145Y69591D01*
X26162Y69558D01*
X26170Y69523D01*
X26203Y69483D01*
X26227Y69438D01*
X26257Y69417D01*
X26281Y69389D01*
X26327Y69368D01*
X26369Y69339D01*
X26411Y69331D01*
X26439Y69318D01*
X26469Y69319D01*
X26511Y69311D01*
X29051Y69311D01*
X29101Y69323D01*
G37*
G36*
X72440Y47971D02*
X72440Y47971D01*
X72491Y47973D01*
X72523Y47990D01*
X72559Y47999D01*
X72598Y48031D01*
X72643Y48055D01*
X72664Y48085D01*
X72692Y48109D01*
X72713Y48155D01*
X72743Y48197D01*
X72751Y48239D01*
X72763Y48267D01*
X72762Y48298D01*
X72770Y48339D01*
X72770Y50879D01*
X72759Y50929D01*
X72757Y50980D01*
X72739Y51012D01*
X72731Y51048D01*
X72698Y51088D01*
X72674Y51132D01*
X72644Y51153D01*
X72621Y51182D01*
X72574Y51203D01*
X72532Y51232D01*
X72490Y51240D01*
X72462Y51253D01*
X72432Y51252D01*
X72390Y51260D01*
X67310Y51260D01*
X67260Y51248D01*
X67209Y51246D01*
X67177Y51229D01*
X67141Y51220D01*
X67102Y51188D01*
X67057Y51163D01*
X67036Y51133D01*
X67008Y51110D01*
X66987Y51063D01*
X66957Y51022D01*
X66949Y50980D01*
X66937Y50952D01*
X66938Y50921D01*
X66930Y50879D01*
X66930Y48339D01*
X66941Y48290D01*
X66943Y48239D01*
X66961Y48206D01*
X66969Y48171D01*
X67002Y48131D01*
X67026Y48086D01*
X67056Y48065D01*
X67079Y48037D01*
X67126Y48016D01*
X67168Y47987D01*
X67210Y47979D01*
X67238Y47966D01*
X67268Y47967D01*
X67310Y47959D01*
X72390Y47959D01*
X72440Y47971D01*
G37*
D10*
X99415Y141803D03*
D11*
X94375Y141053D02*
X94375Y139303D01*
X94375Y141053D02*
X64375Y141053D01*
X64375Y139303D01*
X94375Y111523D02*
X94375Y109773D01*
X64375Y109773D01*
X64375Y111523D01*
D12*
X43829Y137837D02*
X43829Y141563D01*
X41966Y139700D02*
X45692Y139700D01*
X54483Y129764D02*
X54485Y129834D01*
X54491Y129903D01*
X54501Y129972D01*
X54514Y130040D01*
X54532Y130108D01*
X54553Y130174D01*
X54578Y130239D01*
X54606Y130303D01*
X54638Y130365D01*
X54673Y130425D01*
X54712Y130483D01*
X54754Y130538D01*
X54799Y130592D01*
X54847Y130642D01*
X54897Y130690D01*
X54951Y130735D01*
X55006Y130777D01*
X55064Y130816D01*
X55124Y130851D01*
X55186Y130883D01*
X55250Y130911D01*
X55315Y130936D01*
X55381Y130957D01*
X55449Y130975D01*
X55517Y130988D01*
X55586Y130998D01*
X55655Y131004D01*
X55725Y131006D01*
X54483Y129764D02*
X54485Y129665D01*
X54490Y129567D01*
X54500Y129469D01*
X54513Y129371D01*
X54529Y129274D01*
X54549Y129177D01*
X54573Y129082D01*
X54601Y128987D01*
X54632Y128893D01*
X54666Y128801D01*
X54704Y128710D01*
X54745Y128620D01*
X54790Y128532D01*
X54838Y128446D01*
X54889Y128362D01*
X54943Y128280D01*
X55001Y128199D01*
X55061Y128121D01*
X55124Y128046D01*
X55190Y127972D01*
X55259Y127902D01*
X58829Y128056D02*
X58899Y128058D01*
X58968Y128064D01*
X59037Y128074D01*
X59105Y128087D01*
X59173Y128105D01*
X59239Y128126D01*
X59304Y128151D01*
X59368Y128179D01*
X59430Y128211D01*
X59490Y128246D01*
X59548Y128285D01*
X59603Y128327D01*
X59657Y128372D01*
X59707Y128420D01*
X59755Y128470D01*
X59800Y128524D01*
X59842Y128579D01*
X59881Y128637D01*
X59916Y128697D01*
X59948Y128759D01*
X59976Y128823D01*
X60001Y128888D01*
X60022Y128954D01*
X60040Y129022D01*
X60053Y129090D01*
X60063Y129159D01*
X60069Y129228D01*
X60071Y129298D01*
X60069Y129392D01*
X60063Y129485D01*
X60054Y129578D01*
X60041Y129671D01*
X60024Y129763D01*
X60004Y129854D01*
X59979Y129945D01*
X59952Y130034D01*
X59920Y130122D01*
X59885Y130209D01*
X59847Y130295D01*
X59805Y130378D01*
X59760Y130460D01*
X59712Y130541D01*
X59660Y130619D01*
X59605Y130695D01*
X57743Y128677D02*
X57779Y128618D01*
X57819Y128562D01*
X57862Y128508D01*
X57907Y128456D01*
X57956Y128407D01*
X58007Y128361D01*
X58060Y128318D01*
X58116Y128277D01*
X58174Y128240D01*
X58234Y128205D01*
X58295Y128175D01*
X58358Y128147D01*
X58423Y128123D01*
X58489Y128103D01*
X58556Y128086D01*
X58623Y128073D01*
X58691Y128064D01*
X58760Y128058D01*
X58829Y128056D01*
X56811Y130384D02*
X56775Y130443D01*
X56735Y130499D01*
X56692Y130553D01*
X56647Y130605D01*
X56598Y130654D01*
X56547Y130700D01*
X56494Y130743D01*
X56438Y130784D01*
X56380Y130821D01*
X56320Y130856D01*
X56259Y130886D01*
X56196Y130914D01*
X56131Y130938D01*
X56065Y130958D01*
X55998Y130975D01*
X55931Y130988D01*
X55863Y130997D01*
X55794Y131003D01*
X55725Y131005D01*
X56811Y130384D02*
X57743Y128677D01*
X60071Y133005D02*
X54483Y134246D01*
X58208Y135488D01*
X54483Y136730D01*
X60071Y137972D01*
X54483Y141379D02*
X54483Y142621D01*
X54483Y141379D02*
X54485Y141309D01*
X54491Y141240D01*
X54501Y141171D01*
X54514Y141103D01*
X54532Y141035D01*
X54553Y140969D01*
X54578Y140904D01*
X54606Y140840D01*
X54638Y140778D01*
X54673Y140718D01*
X54712Y140660D01*
X54754Y140605D01*
X54799Y140551D01*
X54847Y140501D01*
X54897Y140453D01*
X54951Y140408D01*
X55006Y140366D01*
X55064Y140327D01*
X55124Y140292D01*
X55186Y140260D01*
X55250Y140232D01*
X55315Y140207D01*
X55381Y140186D01*
X55449Y140168D01*
X55517Y140155D01*
X55586Y140145D01*
X55655Y140139D01*
X55725Y140137D01*
X58829Y140137D01*
X58899Y140139D01*
X58968Y140145D01*
X59037Y140155D01*
X59105Y140168D01*
X59173Y140186D01*
X59239Y140207D01*
X59304Y140232D01*
X59368Y140260D01*
X59430Y140292D01*
X59490Y140327D01*
X59548Y140366D01*
X59603Y140408D01*
X59657Y140453D01*
X59707Y140501D01*
X59755Y140551D01*
X59800Y140605D01*
X59842Y140660D01*
X59881Y140718D01*
X59916Y140778D01*
X59948Y140840D01*
X59976Y140904D01*
X60001Y140969D01*
X60022Y141035D01*
X60040Y141103D01*
X60053Y141171D01*
X60063Y141240D01*
X60069Y141309D01*
X60071Y141379D01*
X60071Y142621D01*
X68425Y130185D02*
X68355Y130183D01*
X68286Y130177D01*
X68217Y130167D01*
X68149Y130154D01*
X68081Y130136D01*
X68015Y130115D01*
X67950Y130090D01*
X67886Y130062D01*
X67824Y130030D01*
X67764Y129995D01*
X67706Y129956D01*
X67651Y129914D01*
X67597Y129869D01*
X67547Y129821D01*
X67499Y129771D01*
X67454Y129717D01*
X67412Y129662D01*
X67373Y129604D01*
X67338Y129544D01*
X67306Y129482D01*
X67278Y129418D01*
X67253Y129353D01*
X67232Y129287D01*
X67214Y129219D01*
X67201Y129151D01*
X67191Y129082D01*
X67185Y129013D01*
X67183Y128943D01*
X67185Y128844D01*
X67190Y128746D01*
X67200Y128648D01*
X67213Y128550D01*
X67229Y128453D01*
X67249Y128356D01*
X67273Y128261D01*
X67301Y128166D01*
X67332Y128072D01*
X67366Y127980D01*
X67404Y127889D01*
X67445Y127799D01*
X67490Y127711D01*
X67538Y127625D01*
X67589Y127541D01*
X67643Y127459D01*
X67701Y127378D01*
X67761Y127300D01*
X67824Y127225D01*
X67890Y127151D01*
X67959Y127081D01*
X71529Y127236D02*
X71599Y127238D01*
X71668Y127244D01*
X71737Y127254D01*
X71805Y127267D01*
X71873Y127285D01*
X71939Y127306D01*
X72004Y127331D01*
X72068Y127359D01*
X72130Y127391D01*
X72190Y127426D01*
X72248Y127465D01*
X72303Y127507D01*
X72357Y127552D01*
X72407Y127600D01*
X72455Y127650D01*
X72500Y127704D01*
X72542Y127759D01*
X72581Y127817D01*
X72616Y127877D01*
X72648Y127939D01*
X72676Y128003D01*
X72701Y128068D01*
X72722Y128134D01*
X72740Y128202D01*
X72753Y128270D01*
X72763Y128339D01*
X72769Y128408D01*
X72771Y128478D01*
X72769Y128572D01*
X72763Y128665D01*
X72754Y128758D01*
X72741Y128851D01*
X72724Y128943D01*
X72704Y129034D01*
X72679Y129125D01*
X72652Y129214D01*
X72620Y129302D01*
X72585Y129389D01*
X72547Y129475D01*
X72505Y129558D01*
X72460Y129640D01*
X72412Y129721D01*
X72360Y129799D01*
X72305Y129875D01*
X70443Y127857D02*
X70479Y127798D01*
X70519Y127742D01*
X70562Y127688D01*
X70607Y127636D01*
X70656Y127587D01*
X70707Y127541D01*
X70760Y127498D01*
X70816Y127457D01*
X70874Y127420D01*
X70934Y127385D01*
X70995Y127355D01*
X71058Y127327D01*
X71123Y127303D01*
X71189Y127283D01*
X71256Y127266D01*
X71323Y127253D01*
X71391Y127244D01*
X71460Y127238D01*
X71529Y127236D01*
X69511Y129564D02*
X69475Y129623D01*
X69435Y129679D01*
X69392Y129733D01*
X69347Y129785D01*
X69298Y129834D01*
X69247Y129880D01*
X69194Y129923D01*
X69138Y129964D01*
X69080Y130001D01*
X69020Y130036D01*
X68959Y130066D01*
X68896Y130094D01*
X68831Y130118D01*
X68765Y130138D01*
X68698Y130155D01*
X68631Y130168D01*
X68563Y130177D01*
X68494Y130183D01*
X68425Y130185D01*
X69511Y129564D02*
X70443Y127857D01*
X72771Y132184D02*
X67183Y133426D01*
X70908Y134668D01*
X67183Y135910D01*
X72771Y137152D01*
X72771Y139517D02*
X67183Y139517D01*
X72771Y139517D02*
X72771Y141069D01*
X72769Y141145D01*
X72764Y141221D01*
X72754Y141297D01*
X72741Y141372D01*
X72724Y141446D01*
X72704Y141520D01*
X72680Y141592D01*
X72653Y141663D01*
X72622Y141733D01*
X72588Y141801D01*
X72550Y141867D01*
X72509Y141931D01*
X72466Y141994D01*
X72419Y142054D01*
X72369Y142111D01*
X72316Y142166D01*
X72261Y142219D01*
X72204Y142269D01*
X72144Y142316D01*
X72081Y142359D01*
X72017Y142400D01*
X71951Y142438D01*
X71883Y142472D01*
X71813Y142503D01*
X71742Y142530D01*
X71669Y142554D01*
X71596Y142574D01*
X71522Y142591D01*
X71447Y142604D01*
X71371Y142614D01*
X71295Y142619D01*
X71219Y142621D01*
X68735Y142621D01*
X68656Y142619D01*
X68578Y142613D01*
X68500Y142603D01*
X68423Y142589D01*
X68346Y142571D01*
X68270Y142550D01*
X68196Y142524D01*
X68123Y142495D01*
X68052Y142462D01*
X67982Y142426D01*
X67914Y142386D01*
X67848Y142343D01*
X67785Y142296D01*
X67724Y142247D01*
X67666Y142194D01*
X67610Y142138D01*
X67557Y142080D01*
X67508Y142019D01*
X67461Y141956D01*
X67418Y141890D01*
X67378Y141822D01*
X67342Y141753D01*
X67309Y141681D01*
X67280Y141608D01*
X67254Y141534D01*
X67233Y141458D01*
X67215Y141381D01*
X67201Y141304D01*
X67191Y141226D01*
X67185Y141148D01*
X67183Y141069D01*
X67183Y139517D01*
X81929Y137837D02*
X81929Y141563D01*
X99060Y143434D02*
X99060Y129616D01*
X98044Y129870D02*
X92456Y129870D01*
X98044Y129870D02*
X98044Y131422D01*
X98042Y131499D01*
X98036Y131577D01*
X98027Y131653D01*
X98013Y131730D01*
X97996Y131805D01*
X97975Y131879D01*
X97950Y131953D01*
X97922Y132025D01*
X97890Y132095D01*
X97855Y132164D01*
X97816Y132231D01*
X97774Y132296D01*
X97729Y132359D01*
X97681Y132420D01*
X97630Y132478D01*
X97576Y132533D01*
X97519Y132586D01*
X97460Y132635D01*
X97398Y132682D01*
X97334Y132726D01*
X97268Y132766D01*
X97200Y132803D01*
X97130Y132837D01*
X97059Y132867D01*
X96986Y132893D01*
X96912Y132916D01*
X96837Y132935D01*
X96762Y132950D01*
X96685Y132962D01*
X96608Y132970D01*
X96531Y132974D01*
X96453Y132974D01*
X96376Y132970D01*
X96299Y132962D01*
X96222Y132950D01*
X96147Y132935D01*
X96072Y132916D01*
X95998Y132893D01*
X95925Y132867D01*
X95854Y132837D01*
X95784Y132803D01*
X95716Y132766D01*
X95650Y132726D01*
X95586Y132682D01*
X95524Y132635D01*
X95465Y132586D01*
X95408Y132533D01*
X95354Y132478D01*
X95303Y132420D01*
X95255Y132359D01*
X95210Y132296D01*
X95168Y132231D01*
X95129Y132164D01*
X95094Y132095D01*
X95062Y132025D01*
X95034Y131953D01*
X95009Y131879D01*
X94988Y131805D01*
X94971Y131730D01*
X94957Y131653D01*
X94948Y131577D01*
X94942Y131499D01*
X94940Y131422D01*
X94940Y129870D01*
X94940Y131733D02*
X92456Y132975D01*
X92456Y137000D02*
X92458Y137070D01*
X92464Y137139D01*
X92474Y137208D01*
X92487Y137276D01*
X92505Y137344D01*
X92526Y137410D01*
X92551Y137475D01*
X92579Y137539D01*
X92611Y137601D01*
X92646Y137661D01*
X92685Y137719D01*
X92727Y137774D01*
X92772Y137828D01*
X92820Y137878D01*
X92870Y137926D01*
X92924Y137971D01*
X92979Y138013D01*
X93037Y138052D01*
X93097Y138087D01*
X93159Y138119D01*
X93223Y138147D01*
X93288Y138172D01*
X93354Y138193D01*
X93422Y138211D01*
X93490Y138224D01*
X93559Y138234D01*
X93628Y138240D01*
X93698Y138242D01*
X92456Y137000D02*
X92458Y136901D01*
X92463Y136803D01*
X92473Y136705D01*
X92486Y136607D01*
X92502Y136510D01*
X92522Y136413D01*
X92546Y136318D01*
X92574Y136223D01*
X92605Y136129D01*
X92639Y136037D01*
X92677Y135946D01*
X92718Y135856D01*
X92763Y135768D01*
X92811Y135682D01*
X92862Y135598D01*
X92916Y135516D01*
X92974Y135435D01*
X93034Y135357D01*
X93097Y135282D01*
X93163Y135208D01*
X93232Y135138D01*
X96802Y135293D02*
X96872Y135295D01*
X96941Y135301D01*
X97010Y135311D01*
X97078Y135324D01*
X97146Y135342D01*
X97212Y135363D01*
X97277Y135388D01*
X97341Y135416D01*
X97403Y135448D01*
X97463Y135483D01*
X97521Y135522D01*
X97576Y135564D01*
X97630Y135609D01*
X97680Y135657D01*
X97728Y135707D01*
X97773Y135761D01*
X97815Y135816D01*
X97854Y135874D01*
X97889Y135934D01*
X97921Y135996D01*
X97949Y136060D01*
X97974Y136125D01*
X97995Y136191D01*
X98013Y136259D01*
X98026Y136327D01*
X98036Y136396D01*
X98042Y136465D01*
X98044Y136535D01*
X98042Y136629D01*
X98036Y136722D01*
X98027Y136815D01*
X98014Y136908D01*
X97997Y137000D01*
X97977Y137091D01*
X97952Y137182D01*
X97925Y137271D01*
X97893Y137359D01*
X97858Y137446D01*
X97820Y137532D01*
X97778Y137615D01*
X97733Y137697D01*
X97685Y137778D01*
X97633Y137856D01*
X97578Y137932D01*
X95716Y135914D02*
X95752Y135855D01*
X95792Y135799D01*
X95835Y135745D01*
X95880Y135693D01*
X95929Y135644D01*
X95980Y135598D01*
X96033Y135555D01*
X96089Y135514D01*
X96147Y135477D01*
X96207Y135442D01*
X96268Y135412D01*
X96331Y135384D01*
X96396Y135360D01*
X96462Y135340D01*
X96529Y135323D01*
X96596Y135310D01*
X96664Y135301D01*
X96733Y135295D01*
X96802Y135293D01*
X94784Y137621D02*
X94748Y137680D01*
X94708Y137736D01*
X94665Y137790D01*
X94620Y137842D01*
X94571Y137891D01*
X94520Y137937D01*
X94467Y137980D01*
X94411Y138021D01*
X94353Y138058D01*
X94293Y138093D01*
X94232Y138123D01*
X94169Y138151D01*
X94104Y138175D01*
X94038Y138195D01*
X93971Y138212D01*
X93904Y138225D01*
X93836Y138234D01*
X93767Y138240D01*
X93698Y138242D01*
X94784Y137621D02*
X95716Y135914D01*
X98044Y141628D02*
X92456Y141628D01*
X98044Y140075D02*
X98044Y143180D01*
D10*
X62410Y58259D03*
D11*
X67450Y60159D02*
X84950Y60159D01*
X84950Y92241D02*
X67450Y92241D01*
D10*
X40960Y82254D03*
D11*
X39060Y87294D02*
X39060Y104794D01*
X6978Y104794D02*
X6978Y87294D01*
M02*
