G04 EAGLE Gerber RS-274X export*
G75*
%MOMM*%
%FSLAX34Y34*%
%LPD*%
%INSoldermask Bottom*%
%IPPOS*%
%AMOC8*
5,1,8,0,0,1.08239X$1,22.5*%
G01*
%ADD10C,2.403200*%
%ADD11R,0.715000X0.815000*%
%ADD12R,0.815000X0.715000*%
%ADD13C,0.523200*%
%ADD14R,1.903200X2.703200*%
%ADD15C,1.211200*%
%ADD16R,1.412000X0.883400*%
%ADD17R,0.883400X1.412000*%
%ADD18C,0.909600*%
%ADD19C,0.959600*%


D10*
X20000Y20000D03*
X121500Y20000D03*
X121500Y148000D03*
X20000Y148000D03*
D11*
X56913Y96838D03*
X66913Y96838D03*
D12*
X69850Y44609D03*
X69850Y54609D03*
D11*
X106919Y123031D03*
X116919Y123031D03*
X70406Y104775D03*
X80406Y104775D03*
D13*
X91428Y135163D02*
X96334Y135163D01*
X96334Y128663D02*
X91428Y128663D01*
X91428Y122163D02*
X96334Y122163D01*
X96334Y115663D02*
X91428Y115663D01*
X67322Y115663D02*
X62416Y115663D01*
X62416Y122163D02*
X67322Y122163D01*
X67322Y128663D02*
X62416Y128663D01*
X62416Y135163D02*
X67322Y135163D01*
D14*
X79375Y125413D03*
D15*
X44450Y152400D03*
X95250Y152400D03*
X57150Y152400D03*
X69850Y152400D03*
X82550Y152400D03*
D16*
X63667Y66700D03*
X63667Y76200D03*
X63667Y85700D03*
X88733Y85700D03*
X88733Y66700D03*
D15*
X47625Y76300D03*
X47625Y88800D03*
X47625Y101300D03*
X47625Y113800D03*
X47625Y63800D03*
X47625Y51300D03*
D17*
X32519Y83511D03*
X23019Y83511D03*
X13519Y83511D03*
X13519Y108577D03*
X32519Y108577D03*
D11*
X32781Y72231D03*
X22781Y72231D03*
X31194Y119856D03*
X21194Y119856D03*
D18*
X121444Y114300D03*
X104775Y8731D03*
X133350Y41275D03*
X51197Y39688D03*
X133350Y130175D03*
X32544Y95250D03*
X60325Y105966D03*
X77788Y122634D03*
X38100Y8731D03*
X45641Y8731D03*
X13891Y66675D03*
X13891Y59134D03*
D19*
X103188Y66675D03*
D18*
X102548Y112463D03*
D19*
X111919Y114300D03*
X55278Y132047D03*
X39688Y134938D03*
D18*
X85725Y30163D03*
X118345Y106286D03*
D19*
X96044Y106363D03*
D18*
X79772Y23019D03*
D19*
X128588Y50800D03*
D18*
X82132Y39269D03*
D19*
X121368Y56432D03*
X105899Y49213D03*
D18*
X68681Y29152D03*
D19*
X57150Y57944D03*
D18*
X81519Y56460D03*
X116907Y97631D03*
D19*
X32544Y63500D03*
M02*
