Designator;MPN;Qty;Link
C1,C2,C3,C4,C8,C11,C13,C14,C15,C19,C21,C23,C24,C25,C29,C31,C33,C34,C35,C39,C41,C42,C46,C47,C48,C49,C50,C51,C52,C53,C55,C56,C63,C64,C67,C69,C70,C71,C72,C73,C74,C78,C80,C81,C82,C83,C84,C85,C89,C91,C92,C93,C94,C95,C96,C100;CL05A105KP5NNNC;56;
C5,C6,C7,C9,C10,C12,C16,C17,C18,C20,C22,C26,C27,C28,C30,C32,C36,C37,C38,C40,C43,C44,C45,C54,C57,C59,C60,C61,C62,C65,C66,C75,C76,C77,C86,C87,C88,C97,C98,C99;GRM155R61C104KA88D;40;
C58;GRM155R61A103KA01D;1;
C68,C79,C90,C101;GRM155R71E473KA88D;4;
IC1,IC3,IC5,IC7,IC9,IC10,IC11,IC14,IC16,IC18;ATA6561-GBQW-N ;10;https://eu.mouser.com/ProductDetail/Microchip-Technology/ATA6561-GBQW-N?qs=sGAEpiMZZMsGqoCZrYwANhlyDFeKuno99i4xb5nPzsM%3D
IC2,IC4,IC6,IC8;MP6522GU-P ;4;https://eu.mouser.com/ProductDetail/Monolithic-Power-Systems-MPS/MP6522GU-P?qs=sGAEpiMZZMtKB4wrjsn3lXG5UQOFa%252B76dMCiht0Y3Pc%3D
IC12;MPU-9250;1;https://eu.mouser.com/ProductDetail/Wurth-Electronics/885012105016?qs=sGAEpiMZZMuMW9TJLBQkXkyessX41tyEycaWQMPGcqI%3D
IC13,IC15,IC17,IC19;DRV8873HPWPR ;4;https://www.mouser.it/ProductDetail/Texas-Instruments/DRV8873HPWPR?qs=sGAEpiMZZMvYc73DDAmzVpXT%252Bh8UXhtKIaRrhXFniZxc18KeaoTnjg%3D%3D
MCU1,MCU2,MCU3,MCU4,MCU5,MCU6,MCU7,MCU8,MCU9,MCU10;STM32F042G6U6 ;10;https://eu.mouser.com/ProductDetail/STMicroelectronics/STM32F042G6U6?qs=sGAEpiMZZMuoKKEcg8mMKNc9fYNb0pwdq4rqFaZOONp42qL8qoOBeg%3D%3D
R1,R2,R3,R4,R5,R6,R7,R8,R9,R10,R11,R12,R15,R16,R19,R20,R23,R24;AC0402FR-0710KL;18;
R13,R14,R17,R18,R21,R22,R25,R26;WR04X331JTL;8;
UREG1,UREG3,UREG5,UREG7,UREG10,UREG11,UREG14,UREG15,UREG17,UREG19;TPS76950DBVR;10;https://www.mouser.it/ProductDetail/Texas-Instruments/TPS76950DBVR?qs=sGAEpiMZZMsGz1a6aV8DcAfX9iOHBOeIyQpQEiditR4%3D
UREG2,UREG4,UREG6,UREG8,UREG9,UREG12,UREG13,UREG16,UREG18,UREG20;MCP1802T-3002I/OT ;10;https://www.mouser.it/ProductDetail/Microchip-Technology/MCP1802T-3002I-OT?qs=sGAEpiMZZMsGz1a6aV8DcHtY22241HYI5svncn6gMRE%3D
