Value;Designator;Manufacturer Part Number ;Qty;Link
1µF;C1,C2,C6,C7;CM05X5R105M16AH ;4;https://www.mouser.it/ProductDetail/Kyocera-Electronic-Components/CM05X5R105M16AH?qs=sGAEpiMZZMsG1k5vdNM%2Fc62HxpYsYx%252BhBV8RL3Hya%252Bk%3D
100nF;C3,C4,C5;CM05X5R104M25AH ;3;https://www.mouser.it/ProductDetail/Kyocera-Electronic-Components/CM05X5R104M25AH?qs=sGAEpiMZZMukHu%252BjC5l7YVcK8nR54NRf%252B%2FCwG4ny9h4%3D
ATA6561;IC1;ATA6561-GBQW-N;1;https://www.mouser.it/ProductDetail/Microchip-Technology/ATA6561-GBQW-N?qs=sGAEpiMZZMve4%2FbfQkoj%252BI%2F7t6KV9V5GttbTFJRO2QE%3D
STM32F042G6;MCU1;STM32F042G6U6 ;1;https://www.mouser.it/ProductDetail/STMicroelectronics/STM32F042G6U6?qs=sGAEpiMZZMuoKKEcg8mMKNc9fYNb0pwdq4rqFaZOONp42qL8qoOBeg%3D%3D
JST6;PWM[0-1],PWM[2-3],PWM[4-5],VCC/CAN;;4;
10k;R1;RR0510P-103-D;1;https://www.mouser.it/ProductDetail/Susumu/RR0510P-103-D?qs=sGAEpiMZZMu61qfTUdNhG%2FDhcyQpRg8MB7P%2FfnNlJ9M%3D
SWD;SWD1;;1;
5V;UREG1;TPS76950DBVR;1;https://www.mouser.it/ProductDetail/Texas-Instruments/TPS76950DBVR?qs=sGAEpiMZZMsGz1a6aV8DcAfX9iOHBOeIyQpQEiditR4%3D
3V3;UREG2;MCP1802T-3002I/OT;1;https://www.mouser.it/ProductDetail/Microchip-Technology/MCP1802T-3002I-OT?qs=sGAEpiMZZMsGz1a6aV8DcHtY22241HYI5svncn6gMRE%3D
