** Profile: "SCHEMATIC1-bias"  [ C:\Users\mogei\Projects\Robot\PCBs\BMS_PD\Simulations\constant current source-pspicefiles\schematic1\bias.sim ] 

** Creating circuit file "bias.cir" 
** WARNING: THIS AUTOMATICALLY GENERATED FILE MAY BE OVERWRITTEN BY SUBSEQUENT SIMULATIONS

*Libraries: 
* Profile Libraries :
* Local Libraries :
* From [PSPICE NETLIST] section of C:\Users\mogei\AppData\Roaming\SPB_Data\cdssetup\OrCAD_PSpice\17.2.0\PSpice.ini file:
.lib "C:\Users\mogei\Projects\Robot\PCBs\BMS_PD\Simulations\CSD87350Q5D\CSD87350Q5D.lib" 
.lib "C:\Users\mogei\Projects\Robot\PCBs\BMS_PD\Simulations\TPS53819A\tps53819A_trans.lib" 
.lib "nomd.lib" 

*Analysis directives: 
.OP
.OPTIONS ADVCONV
.PROBE64 V(alias(*)) I(alias(*)) W(alias(*)) D(alias(*)) NOISE(alias(*)) 
.INC "..\SCHEMATIC1.net" 


.END
