Value;Designator;Manufacturer Part Number ;Qty;Link
1µF;C1,C2,C3,C4,C8;;5;
100nF;C5,C6,C7,C9,C10;;5;
6pF;C11,C12;;2;
ATA6561SOIC;IC1;;1;
MP6522;IC2;;1;
X4SMD_COM;INPUT;;1;
X2SMD;M1;;1;
STM32F042G6LQFP32;MCU1;;1;
10k;R1,R2;;2;
SWD;SWD1;;1;
5V;UREG1;TPS76950DBVR;1;https://www.mouser.it/ProductDetail/Texas-Instruments/TPS76950DBVR?qs=sGAEpiMZZMsGz1a6aV8DcAfX9iOHBOeIyQpQEiditR4%3D
3V3;UREG2;MCP1802T-3002I/OT;1;https://www.mouser.it/ProductDetail/Microchip-Technology/MCP1802T-3002I-OT?qs=sGAEpiMZZMsGz1a6aV8DcHtY22241HYI5svncn6gMRE%3D
X3THTSMALL;X1;;1;
32MHz;Y1;XRCGB32M000F0Z00R0 ;1;https://www.mouser.it/ProductDetail/81-XRCGB32M000F0Z0R0
