<?xml version="1.0" encoding="utf-8"?>
<!DOCTYPE eagle SYSTEM "eagle.dtd">
<eagle version="9.5.0">
<drawing>
<settings>
<setting alwaysvectorfont="no"/>
<setting verticaltext="up"/>
</settings>
<grid distance="12.5" unitdist="mil" unit="mm" style="dots" multiple="1" display="yes" altdistance="5" altunitdist="mil" altunit="mil"/>
<layers>
<layer number="1" name="Top" color="4" fill="1" visible="yes" active="yes"/>
<layer number="2" name="Route2" color="16" fill="1" visible="no" active="no"/>
<layer number="3" name="Route3" color="17" fill="1" visible="no" active="no"/>
<layer number="4" name="Route4" color="18" fill="1" visible="no" active="no"/>
<layer number="5" name="Route5" color="19" fill="1" visible="no" active="no"/>
<layer number="6" name="Route6" color="25" fill="1" visible="no" active="no"/>
<layer number="7" name="Route7" color="26" fill="1" visible="no" active="no"/>
<layer number="8" name="Route8" color="27" fill="1" visible="no" active="no"/>
<layer number="9" name="Route9" color="28" fill="1" visible="no" active="no"/>
<layer number="10" name="Route10" color="29" fill="1" visible="no" active="no"/>
<layer number="11" name="Route11" color="30" fill="1" visible="no" active="no"/>
<layer number="12" name="Route12" color="20" fill="1" visible="no" active="no"/>
<layer number="13" name="Route13" color="21" fill="1" visible="no" active="no"/>
<layer number="14" name="Route14" color="22" fill="1" visible="no" active="no"/>
<layer number="15" name="Route15" color="23" fill="1" visible="no" active="no"/>
<layer number="16" name="Bottom" color="1" fill="1" visible="yes" active="yes"/>
<layer number="17" name="Pads" color="2" fill="1" visible="yes" active="yes"/>
<layer number="18" name="Vias" color="2" fill="1" visible="yes" active="yes"/>
<layer number="19" name="Unrouted" color="6" fill="1" visible="no" active="yes"/>
<layer number="20" name="Dimension" color="24" fill="1" visible="yes" active="yes"/>
<layer number="21" name="tPlace" color="7" fill="1" visible="yes" active="yes"/>
<layer number="22" name="bPlace" color="7" fill="1" visible="yes" active="yes"/>
<layer number="23" name="tOrigins" color="15" fill="1" visible="no" active="yes"/>
<layer number="24" name="bOrigins" color="15" fill="1" visible="no" active="yes"/>
<layer number="25" name="tNames" color="7" fill="1" visible="no" active="yes"/>
<layer number="26" name="bNames" color="7" fill="1" visible="no" active="yes"/>
<layer number="27" name="tValues" color="7" fill="1" visible="no" active="yes"/>
<layer number="28" name="bValues" color="7" fill="1" visible="no" active="yes"/>
<layer number="29" name="tStop" color="7" fill="3" visible="no" active="yes"/>
<layer number="30" name="bStop" color="7" fill="6" visible="no" active="yes"/>
<layer number="31" name="tCream" color="7" fill="4" visible="no" active="yes"/>
<layer number="32" name="bCream" color="7" fill="5" visible="no" active="yes"/>
<layer number="33" name="tFinish" color="6" fill="3" visible="no" active="yes"/>
<layer number="34" name="bFinish" color="6" fill="6" visible="no" active="yes"/>
<layer number="35" name="tGlue" color="7" fill="4" visible="no" active="yes"/>
<layer number="36" name="bGlue" color="7" fill="5" visible="no" active="yes"/>
<layer number="37" name="tTest" color="7" fill="1" visible="no" active="yes"/>
<layer number="38" name="bTest" color="7" fill="1" visible="no" active="yes"/>
<layer number="39" name="tKeepout" color="4" fill="11" visible="no" active="yes"/>
<layer number="40" name="bKeepout" color="1" fill="11" visible="no" active="yes"/>
<layer number="41" name="tRestrict" color="4" fill="10" visible="no" active="yes"/>
<layer number="42" name="bRestrict" color="1" fill="10" visible="no" active="yes"/>
<layer number="43" name="vRestrict" color="2" fill="10" visible="no" active="yes"/>
<layer number="44" name="Drills" color="7" fill="1" visible="no" active="yes"/>
<layer number="45" name="Holes" color="7" fill="1" visible="yes" active="yes"/>
<layer number="46" name="Milling" color="3" fill="1" visible="yes" active="yes"/>
<layer number="47" name="Measures" color="7" fill="1" visible="no" active="yes"/>
<layer number="48" name="Document" color="7" fill="1" visible="no" active="yes"/>
<layer number="49" name="Reference" color="7" fill="1" visible="no" active="yes"/>
<layer number="51" name="tDocu" color="7" fill="1" visible="no" active="yes"/>
<layer number="52" name="bDocu" color="7" fill="1" visible="no" active="yes"/>
<layer number="88" name="SimResults" color="9" fill="1" visible="no" active="no"/>
<layer number="89" name="SimProbes" color="9" fill="1" visible="no" active="no"/>
<layer number="90" name="Modules" color="5" fill="1" visible="no" active="no"/>
<layer number="91" name="Nets" color="2" fill="1" visible="no" active="no"/>
<layer number="92" name="Busses" color="1" fill="1" visible="no" active="no"/>
<layer number="93" name="Pins" color="2" fill="1" visible="no" active="no"/>
<layer number="94" name="Symbols" color="4" fill="1" visible="no" active="no"/>
<layer number="95" name="Names" color="7" fill="1" visible="no" active="no"/>
<layer number="96" name="Values" color="7" fill="1" visible="no" active="no"/>
<layer number="97" name="Info" color="7" fill="1" visible="no" active="no"/>
<layer number="98" name="Guide" color="6" fill="1" visible="no" active="no"/>
<layer number="99" name="SpiceOrder" color="5" fill="1" visible="no" active="no"/>
</layers>
<board>
<plain>
<wire x1="0" y1="0" x2="17.76" y2="0" width="0" layer="20"/>
<wire x1="17.76" y1="0" x2="17.76" y2="20.9425" width="0" layer="20"/>
<wire x1="17.76" y1="20.9425" x2="0" y2="20.9425" width="0" layer="20"/>
<wire x1="0" y1="20.9425" x2="0" y2="0" width="0" layer="20"/>
<hole x="2.3175" y="2.3175" drill="3.2"/>
<hole x="15.3175" y="2.3175" drill="3.2"/>
<hole x="15.3175" y="18.5075" drill="3.2"/>
<hole x="2.3175" y="18.5075" drill="3.2"/>
<text x="5.3975" y="4.445" size="0.6096" layer="21" align="top-left">Moritz Geier
Protoplast
2019/20
Gyro V1</text>
</plain>
<libraries>
<library name="Standard">
<packages>
<package name="CAPC1005X30" urn="urn:adsk.eagle:footprint:11214500/2" locally_modified="yes">
<description>Chip, 1.00 X 0.50 X 0.30 mm body
&lt;p&gt;Chip package with body size 1.00 X 0.50 X 0.30 mm&lt;/p&gt;</description>
<smd name="1" x="-0.5" y="0" dx="0.5118" dy="0.6118" layer="1"/>
<smd name="2" x="0.5" y="0" dx="0.5118" dy="0.6118" layer="1"/>
<text x="0" y="0.4929" size="0.6096" layer="25" align="bottom-center">&gt;NAME</text>
<text x="0" y="-0.4929" size="0.6096" layer="27" align="top-center">&gt;VALUE</text>
<polygon width="0.0762" layer="21">
<vertex x="-0.127" y="0.254"/>
<vertex x="-0.127" y="-0.254"/>
<vertex x="0.127" y="-0.254"/>
<vertex x="0.127" y="0.254"/>
</polygon>
<wire x1="-0.8001" y1="0.3429" x2="0.8001" y2="0.3429" width="0.1524" layer="51"/>
<wire x1="0.8001" y1="0.3429" x2="0.8001" y2="-0.3429" width="0.1524" layer="51"/>
<wire x1="0.8001" y1="-0.3429" x2="-0.8001" y2="-0.3429" width="0.1524" layer="51"/>
<wire x1="-0.8001" y1="-0.3429" x2="-0.8001" y2="0.3429" width="0.1524" layer="51"/>
</package>
<package name="SON65P300X300X90-9T170X250" urn="urn:adsk.eagle:footprint:11209461/2" locally_modified="yes">
<description>8-SON, 0.65 mm pitch, 3.00 X 3.00 X 0.90 mm body, 2.50 X 1.70 mm thermal pad
&lt;p&gt;8-pin SON package with 0.65 mm pitch with body size 3.00 X 3.00 X 0.90 mm and thermal pad size 2.50 X 1.70 mm&lt;/p&gt;</description>
<circle x="-2.004" y="1.639" radius="0.25" width="0" layer="21"/>
<wire x1="-1.5" y1="1.389" x2="-1.5" y2="1.564" width="0.12" layer="21"/>
<wire x1="-1.5" y1="1.564" x2="1.5" y2="1.564" width="0.12" layer="21"/>
<wire x1="1.5" y1="1.564" x2="1.5" y2="1.389" width="0.12" layer="21"/>
<wire x1="-1.5" y1="-1.389" x2="-1.5" y2="-1.564" width="0.12" layer="21"/>
<wire x1="-1.5" y1="-1.564" x2="1.5" y2="-1.564" width="0.12" layer="21"/>
<wire x1="1.5" y1="-1.564" x2="1.5" y2="-1.389" width="0.12" layer="21"/>
<smd name="1" x="-1.4506" y="0.975" dx="0.8107" dy="0.32" layer="1" roundness="100"/>
<smd name="2" x="-1.4506" y="0.325" dx="0.8107" dy="0.32" layer="1" roundness="100"/>
<smd name="3" x="-1.4506" y="-0.325" dx="0.8107" dy="0.32" layer="1" roundness="100"/>
<smd name="4" x="-1.4506" y="-0.975" dx="0.8107" dy="0.32" layer="1" roundness="100"/>
<smd name="5" x="1.4506" y="-0.975" dx="0.8107" dy="0.32" layer="1" roundness="100"/>
<smd name="6" x="1.4506" y="-0.325" dx="0.8107" dy="0.32" layer="1" roundness="100"/>
<smd name="7" x="1.4506" y="0.325" dx="0.8107" dy="0.32" layer="1" roundness="100"/>
<smd name="8" x="1.4506" y="0.975" dx="0.8107" dy="0.32" layer="1" roundness="100"/>
<smd name="9" x="0" y="0" dx="1.7" dy="2.5" layer="1" thermals="no"/>
<text x="0" y="1.889" size="0.6096" layer="25" font="vector" align="bottom-center">&gt;NAME</text>
<wire x1="-1.5875" y1="1.5875" x2="1.5875" y2="1.5875" width="0.1524" layer="51"/>
<wire x1="1.5875" y1="1.5875" x2="1.5875" y2="-1.5875" width="0.1524" layer="51"/>
<wire x1="1.5875" y1="-1.5875" x2="-1.5875" y2="-1.5875" width="0.1524" layer="51"/>
<wire x1="-1.5875" y1="-1.5875" x2="-1.5875" y2="1.5875" width="0.1524" layer="51"/>
<circle x="-0.9525" y="0.9525" radius="0.354975" width="0.1524" layer="51"/>
</package>
<package name="QFN40P300X300X105-25T159X175" urn="urn:adsk.eagle:footprint:11557555/2" locally_modified="yes">
<description>24-QFN, 0.40 mm pitch, 3.00 X 3.00 X 1.05 mm body, 1.75 X 1.59 mm thermal pad
&lt;p&gt;24-pin QFN package with 0.40 mm pitch with body size 3.00 X 3.00 X 1.05 mm and thermal pad size 1.75 X 1.59 mm&lt;/p&gt;</description>
<circle x="-2.054" y="1.614" radius="0.25" width="0" layer="21"/>
<wire x1="-1.55" y1="1.364" x2="-1.55" y2="1.55" width="0.12" layer="21"/>
<wire x1="-1.55" y1="1.55" x2="-1.364" y2="1.55" width="0.12" layer="21"/>
<wire x1="1.55" y1="1.364" x2="1.55" y2="1.55" width="0.12" layer="21"/>
<wire x1="1.55" y1="1.55" x2="1.364" y2="1.55" width="0.12" layer="21"/>
<wire x1="1.55" y1="-1.364" x2="1.55" y2="-1.55" width="0.12" layer="21"/>
<wire x1="1.55" y1="-1.55" x2="1.364" y2="-1.55" width="0.12" layer="21"/>
<wire x1="-1.55" y1="-1.364" x2="-1.55" y2="-1.55" width="0.12" layer="21"/>
<wire x1="-1.55" y1="-1.55" x2="-1.364" y2="-1.55" width="0.12" layer="21"/>
<smd name="1" x="-1.4956" y="1" dx="0.6858" dy="0.22" layer="1" roundness="100"/>
<smd name="2" x="-1.4956" y="0.6" dx="0.738" dy="0.22" layer="1" roundness="100"/>
<smd name="3" x="-1.4956" y="0.2" dx="0.738" dy="0.22" layer="1" roundness="100"/>
<smd name="4" x="-1.4956" y="-0.2" dx="0.738" dy="0.22" layer="1" roundness="100"/>
<smd name="5" x="-1.4956" y="-0.6" dx="0.738" dy="0.22" layer="1" roundness="100"/>
<smd name="6" x="-1.4956" y="-1" dx="0.6858" dy="0.22" layer="1" roundness="100"/>
<smd name="7" x="-1" y="-1.4956" dx="0.6858" dy="0.22" layer="1" roundness="100" rot="R90"/>
<smd name="8" x="-0.6" y="-1.4956" dx="0.738" dy="0.22" layer="1" roundness="100" rot="R90"/>
<smd name="9" x="-0.2" y="-1.4956" dx="0.738" dy="0.22" layer="1" roundness="100" rot="R90"/>
<smd name="10" x="0.2" y="-1.4956" dx="0.738" dy="0.22" layer="1" roundness="100" rot="R90"/>
<smd name="11" x="0.6" y="-1.4956" dx="0.738" dy="0.22" layer="1" roundness="100" rot="R90"/>
<smd name="12" x="1" y="-1.4956" dx="0.6858" dy="0.22" layer="1" roundness="100" rot="R90"/>
<smd name="13" x="1.4956" y="-1" dx="0.6858" dy="0.22" layer="1" roundness="100"/>
<smd name="14" x="1.4956" y="-0.6" dx="0.738" dy="0.22" layer="1" roundness="100"/>
<smd name="15" x="1.4956" y="-0.2" dx="0.738" dy="0.22" layer="1" roundness="100"/>
<smd name="16" x="1.4956" y="0.2" dx="0.738" dy="0.22" layer="1" roundness="100"/>
<smd name="17" x="1.4956" y="0.6" dx="0.738" dy="0.22" layer="1" roundness="100"/>
<smd name="18" x="1.4956" y="1" dx="0.6858" dy="0.22" layer="1" roundness="100"/>
<smd name="19" x="1" y="1.4956" dx="0.6858" dy="0.22" layer="1" roundness="100" rot="R90"/>
<smd name="20" x="0.6" y="1.4956" dx="0.738" dy="0.22" layer="1" roundness="100" rot="R90"/>
<smd name="21" x="0.2" y="1.4956" dx="0.738" dy="0.22" layer="1" roundness="100" rot="R90"/>
<smd name="22" x="-0.2" y="1.4956" dx="0.738" dy="0.22" layer="1" roundness="100" rot="R90"/>
<smd name="23" x="-0.6" y="1.4956" dx="0.738" dy="0.22" layer="1" roundness="100" rot="R90"/>
<smd name="24" x="-1" y="1.4956" dx="0.6858" dy="0.22" layer="1" roundness="100" rot="R90"/>
<smd name="25" x="0" y="0" dx="1.59" dy="1.75" layer="1" thermals="no"/>
<text x="0" y="2.4996" size="0.6096" layer="25" font="vector" align="bottom-center">&gt;NAME</text>
<text x="0" y="-2.4996" size="1.27" layer="27" align="top-center">&gt;VALUE</text>
<wire x1="-1.5875" y1="1.5875" x2="-1.5875" y2="-1.5875" width="0.1524" layer="51"/>
<wire x1="-1.5875" y1="-1.5875" x2="1.5875" y2="-1.5875" width="0.1524" layer="51"/>
<wire x1="1.5875" y1="-1.5875" x2="1.5875" y2="1.5875" width="0.1524" layer="51"/>
<wire x1="1.5875" y1="1.5875" x2="-1.5875" y2="1.5875" width="0.1524" layer="51"/>
<circle x="-1.11125" y="1.11125" radius="0.22450625" width="0.1524" layer="51"/>
</package>
<package name="JST6" urn="urn:adsk.eagle:footprint:12077856/1" locally_modified="yes">
<pad name="4" x="0.625" y="0" drill="0.4"/>
<pad name="3" x="-0.625" y="0" drill="0.4"/>
<pad name="2" x="-1.875" y="0" drill="0.4"/>
<pad name="1" x="-3.125" y="0" drill="0.4"/>
<pad name="5" x="1.875" y="0" drill="0.4"/>
<pad name="6" x="3.125" y="0" drill="0.4"/>
<wire x1="-4.625" y1="0.625" x2="-4.0625" y2="0.625" width="0.127" layer="21"/>
<wire x1="-4.0625" y1="0.625" x2="4.0625" y2="0.625" width="0.127" layer="21"/>
<wire x1="4.0625" y1="0.625" x2="4.625" y2="0.625" width="0.127" layer="21"/>
<wire x1="4.625" y1="0.625" x2="4.625" y2="-4.65" width="0.127" layer="21"/>
<wire x1="4.625" y1="-4.65" x2="4.0625" y2="-4.65" width="0.127" layer="21"/>
<wire x1="4.0625" y1="-4.65" x2="-4.0625" y2="-4.65" width="0.127" layer="21"/>
<wire x1="-4.0625" y1="-4.65" x2="-4.625" y2="-4.65" width="0.127" layer="21"/>
<wire x1="-4.625" y1="-4.65" x2="-4.625" y2="0.625" width="0.127" layer="21"/>
<wire x1="-3.4375" y1="-0.625" x2="-3.4375" y2="-3.75" width="0.127" layer="21"/>
<wire x1="-3.4375" y1="-3.75" x2="-3.125" y2="-4.0625" width="0.127" layer="21"/>
<wire x1="-3.125" y1="-4.0625" x2="-2.8125" y2="-3.75" width="0.127" layer="21"/>
<wire x1="-2.8125" y1="-3.75" x2="-2.8125" y2="-0.625" width="0.127" layer="21"/>
<wire x1="-2.1875" y1="-0.625" x2="-2.1875" y2="-3.75" width="0.127" layer="21"/>
<wire x1="-2.1875" y1="-3.75" x2="-1.875" y2="-4.0625" width="0.127" layer="21"/>
<wire x1="-1.875" y1="-4.0625" x2="-1.5625" y2="-3.75" width="0.127" layer="21"/>
<wire x1="-1.5625" y1="-3.75" x2="-1.5625" y2="-0.625" width="0.127" layer="21"/>
<wire x1="-0.9375" y1="-0.625" x2="-0.9375" y2="-3.75" width="0.127" layer="21"/>
<wire x1="-0.9375" y1="-3.75" x2="-0.625" y2="-4.0625" width="0.127" layer="21"/>
<wire x1="-0.625" y1="-4.0625" x2="-0.3125" y2="-3.75" width="0.127" layer="21"/>
<wire x1="-0.3125" y1="-3.75" x2="-0.3125" y2="-0.625" width="0.127" layer="21"/>
<wire x1="0.3125" y1="-0.625" x2="0.3125" y2="-3.75" width="0.127" layer="21"/>
<wire x1="0.3125" y1="-3.75" x2="0.625" y2="-4.0625" width="0.127" layer="21"/>
<wire x1="0.625" y1="-4.0625" x2="0.9375" y2="-3.75" width="0.127" layer="21"/>
<wire x1="0.9375" y1="-3.75" x2="0.9375" y2="-0.625" width="0.127" layer="21"/>
<wire x1="1.5625" y1="-0.625" x2="1.5625" y2="-3.75" width="0.127" layer="21"/>
<wire x1="1.5625" y1="-3.75" x2="1.875" y2="-4.0625" width="0.127" layer="21"/>
<wire x1="1.875" y1="-4.0625" x2="2.1875" y2="-3.75" width="0.127" layer="21"/>
<wire x1="2.1875" y1="-3.75" x2="2.1875" y2="-0.625" width="0.127" layer="21"/>
<wire x1="2.8125" y1="-0.625" x2="2.8125" y2="-3.75" width="0.127" layer="21"/>
<wire x1="2.8125" y1="-3.75" x2="3.125" y2="-4.0625" width="0.127" layer="21"/>
<wire x1="3.125" y1="-4.0625" x2="3.4375" y2="-3.75" width="0.127" layer="21"/>
<wire x1="3.4375" y1="-3.75" x2="3.4375" y2="-0.625" width="0.127" layer="21"/>
<wire x1="-4.0625" y1="-4.65" x2="-4.0625" y2="-2.8125" width="0.127" layer="21"/>
<wire x1="-4.0625" y1="-2.8125" x2="-4.375" y2="-2.5" width="0.127" layer="21"/>
<wire x1="-4.375" y1="-2.5" x2="-4.375" y2="-1.25" width="0.127" layer="21"/>
<wire x1="-4.375" y1="-1.25" x2="-4.0625" y2="-0.9375" width="0.127" layer="21"/>
<wire x1="-4.0625" y1="-0.9375" x2="-4.0625" y2="0.625" width="0.127" layer="21"/>
<wire x1="4.0625" y1="-4.65" x2="4.0625" y2="-2.8125" width="0.127" layer="21"/>
<wire x1="4.0625" y1="-2.8125" x2="4.375" y2="-2.5" width="0.127" layer="21"/>
<wire x1="4.375" y1="-2.5" x2="4.375" y2="-1.25" width="0.127" layer="21"/>
<wire x1="4.375" y1="-1.25" x2="4.0625" y2="-0.9375" width="0.127" layer="21"/>
<wire x1="4.0625" y1="-0.9375" x2="4.0625" y2="0.625" width="0.127" layer="21"/>
<polygon width="0" layer="21">
<vertex x="-4.6875" y="0.625"/>
<vertex x="-4.0625" y="0.625"/>
<vertex x="-4.0625" y="-0.9375"/>
<vertex x="-4.375" y="-1.25"/>
<vertex x="-4.375" y="-2.5"/>
<vertex x="-4.0625" y="-2.8125"/>
<vertex x="-4.0625" y="-4.65"/>
<vertex x="-4.6875" y="-4.6875"/>
</polygon>
<polygon width="0" layer="21">
<vertex x="4.6875" y="-4.6875"/>
<vertex x="4.6875" y="0.625"/>
<vertex x="4.0625" y="0.625"/>
<vertex x="4.0625" y="-0.9375"/>
<vertex x="4.375" y="-1.25"/>
<vertex x="4.375" y="-2.5"/>
<vertex x="4.0625" y="-2.8125"/>
<vertex x="4.0625" y="-4.65"/>
</polygon>
<text x="-5.08" y="1.27" size="0.6096" layer="21" font="vector">&gt;NAME</text>
<wire x1="-4.7625" y1="0.635" x2="-4.7625" y2="-4.7625" width="0.1524" layer="51"/>
<wire x1="-4.7625" y1="-4.7625" x2="4.7625" y2="-4.7625" width="0.1524" layer="51"/>
<wire x1="4.7625" y1="-4.7625" x2="4.7625" y2="0.635" width="0.1524" layer="51"/>
<wire x1="4.7625" y1="0.635" x2="-4.7625" y2="0.635" width="0.1524" layer="51"/>
<wire x1="-3.4925" y1="-0.635" x2="-3.4925" y2="-3.81" width="0.1524" layer="51"/>
<wire x1="-3.4925" y1="-3.81" x2="-3.175" y2="-4.1275" width="0.1524" layer="51"/>
<wire x1="-3.175" y1="-4.1275" x2="-2.8575" y2="-3.81" width="0.1524" layer="51"/>
<wire x1="-2.8575" y1="-3.81" x2="-2.8575" y2="-0.635" width="0.1524" layer="51"/>
<wire x1="-2.2225" y1="-0.635" x2="-2.2225" y2="-3.81" width="0.1524" layer="51"/>
<wire x1="-2.2225" y1="-3.81" x2="-1.905" y2="-4.1275" width="0.1524" layer="51"/>
<wire x1="-1.905" y1="-4.1275" x2="-1.5875" y2="-3.81" width="0.1524" layer="51"/>
<wire x1="-1.5875" y1="-3.81" x2="-1.5875" y2="-0.635" width="0.1524" layer="51"/>
<wire x1="-0.9525" y1="-0.635" x2="-0.9525" y2="-3.81" width="0.1524" layer="51"/>
<wire x1="-0.9525" y1="-3.81" x2="-0.635" y2="-4.1275" width="0.1524" layer="51"/>
<wire x1="-0.635" y1="-4.1275" x2="-0.3175" y2="-3.81" width="0.1524" layer="51"/>
<wire x1="-0.3175" y1="-3.81" x2="-0.3175" y2="-0.635" width="0.1524" layer="51"/>
<wire x1="0.3175" y1="-0.635" x2="0.3175" y2="-3.81" width="0.1524" layer="51"/>
<wire x1="0.3175" y1="-3.81" x2="0.635" y2="-4.1275" width="0.1524" layer="51"/>
<wire x1="0.635" y1="-4.1275" x2="0.9525" y2="-3.81" width="0.1524" layer="51"/>
<wire x1="0.9525" y1="-3.81" x2="0.9525" y2="-0.635" width="0.1524" layer="51"/>
<wire x1="1.5875" y1="-0.635" x2="1.5875" y2="-3.81" width="0.1524" layer="51"/>
<wire x1="1.5875" y1="-3.81" x2="1.905" y2="-4.1275" width="0.1524" layer="51"/>
<wire x1="1.905" y1="-4.1275" x2="2.2225" y2="-3.81" width="0.1524" layer="51"/>
<wire x1="2.2225" y1="-3.81" x2="2.2225" y2="-0.635" width="0.1524" layer="51"/>
<wire x1="2.8575" y1="-0.635" x2="2.8575" y2="-3.81" width="0.1524" layer="51"/>
<wire x1="2.8575" y1="-3.81" x2="3.175" y2="-4.1275" width="0.1524" layer="51"/>
<wire x1="3.175" y1="-4.1275" x2="3.4925" y2="-3.81" width="0.1524" layer="51"/>
<wire x1="3.4925" y1="-3.81" x2="3.4925" y2="-0.635" width="0.1524" layer="51"/>
</package>
<package name="UFQFPN28" urn="urn:adsk.eagle:footprint:12074858/1" locally_modified="yes">
<smd name="PA5" x="0" y="-1.875" dx="0.55" dy="0.3" layer="1" rot="R90"/>
<smd name="PA4" x="-0.5" y="-1.875" dx="0.55" dy="0.3" layer="1" rot="R90"/>
<smd name="PA3" x="-1" y="-1.875" dx="0.55" dy="0.3" layer="1" rot="R90"/>
<smd name="PA6" x="0.5" y="-1.875" dx="0.55" dy="0.3" layer="1" rot="R90"/>
<smd name="PA7" x="1" y="-1.875" dx="0.55" dy="0.3" layer="1" rot="R90"/>
<smd name="PA2" x="-1.5" y="-1.975" dx="0.35" dy="0.3" layer="1" rot="R90"/>
<smd name="PB0" x="1.5" y="-1.975" dx="0.35" dy="0.3" layer="1" rot="R90"/>
<smd name="PA1" x="-1.975" y="-1.5" dx="0.35" dy="0.3" layer="1"/>
<smd name="PA0" x="-1.875" y="-1" dx="0.55" dy="0.3" layer="1"/>
<smd name="VDDA" x="-1.875" y="-0.5" dx="0.55" dy="0.3" layer="1"/>
<smd name="!RST" x="-1.875" y="0" dx="0.55" dy="0.3" layer="1"/>
<smd name="OSC_OUT" x="-1.875" y="0.5" dx="0.55" dy="0.3" layer="1"/>
<smd name="OSC_IN" x="-1.875" y="1" dx="0.55" dy="0.3" layer="1"/>
<smd name="BOOT0" x="-1.975" y="1.5" dx="0.35" dy="0.3" layer="1"/>
<smd name="PB7" x="-1.5" y="1.975" dx="0.35" dy="0.3" layer="1" rot="R90"/>
<smd name="PB6" x="-1" y="1.875" dx="0.55" dy="0.3" layer="1" rot="R90"/>
<smd name="PB5" x="-0.5" y="1.875" dx="0.55" dy="0.3" layer="1" rot="R90"/>
<smd name="PB4" x="0" y="1.875" dx="0.55" dy="0.3" layer="1" rot="R90"/>
<smd name="PB3" x="0.5" y="1.875" dx="0.55" dy="0.3" layer="1" rot="R90"/>
<smd name="PA15" x="1" y="1.875" dx="0.55" dy="0.3" layer="1" rot="R90"/>
<smd name="PA14" x="1.5" y="1.975" dx="0.35" dy="0.3" layer="1" rot="R90"/>
<smd name="PA13" x="1.975" y="1.5" dx="0.35" dy="0.3" layer="1" rot="R180"/>
<smd name="PA10" x="1.875" y="1" dx="0.55" dy="0.3" layer="1" rot="R180"/>
<smd name="PA9" x="1.875" y="0.5" dx="0.55" dy="0.3" layer="1" rot="R180"/>
<smd name="VDDIO2" x="1.875" y="0" dx="0.55" dy="0.3" layer="1" rot="R180"/>
<smd name="VDD" x="1.875" y="-0.5" dx="0.55" dy="0.3" layer="1" rot="R180"/>
<smd name="VSS" x="1.875" y="-1" dx="0.55" dy="0.3" layer="1" rot="R180"/>
<smd name="PB1" x="1.975" y="-1.5" dx="0.35" dy="0.3" layer="1" rot="R180"/>
<wire x1="-2.05" y1="2.05" x2="-2.05" y2="1.8" width="0.0762" layer="21"/>
<wire x1="-2.05" y1="2.05" x2="-1.8" y2="2.05" width="0.0762" layer="21"/>
<wire x1="-2.05" y1="-2.05" x2="-2.05" y2="-1.8" width="0.0762" layer="21"/>
<wire x1="-2.05" y1="-2.05" x2="-1.8" y2="-2.05" width="0.0762" layer="21"/>
<wire x1="2.05" y1="-2.05" x2="1.8" y2="-2.05" width="0.0762" layer="21"/>
<wire x1="2.05" y1="-2.05" x2="2.05" y2="-1.8" width="0.0762" layer="21"/>
<wire x1="2.05" y1="2.05" x2="2.05" y2="1.8" width="0.0762" layer="21"/>
<wire x1="2.05" y1="2.05" x2="1.8" y2="2.05" width="0.0762" layer="21"/>
<circle x="-1.15" y="1.05" radius="0.2" width="0.0762" layer="21"/>
<text x="-1.4" y="-1.35" size="0.6096" layer="21" font="vector">&gt;NAME</text>
<polygon width="0" layer="31">
<vertex x="-1.8" y="1.65"/>
<vertex x="-1.65" y="1.5"/>
<vertex x="-1.65" y="1.35"/>
<vertex x="-1.8" y="1.35"/>
</polygon>
<polygon width="0" layer="31">
<vertex x="-1.65" y="1.8"/>
<vertex x="-1.5" y="1.65"/>
<vertex x="-1.35" y="1.65"/>
<vertex x="-1.35" y="1.8"/>
</polygon>
<polygon width="0" layer="31">
<vertex x="1.65" y="1.8"/>
<vertex x="1.5" y="1.65"/>
<vertex x="1.35" y="1.65"/>
<vertex x="1.35" y="1.8"/>
</polygon>
<polygon width="0" layer="31">
<vertex x="1.8" y="1.65"/>
<vertex x="1.65" y="1.5"/>
<vertex x="1.65" y="1.35"/>
<vertex x="1.8" y="1.35"/>
</polygon>
<polygon width="0" layer="31">
<vertex x="-1.65" y="-1.8"/>
<vertex x="-1.5" y="-1.65"/>
<vertex x="-1.35" y="-1.65"/>
<vertex x="-1.35" y="-1.8"/>
</polygon>
<polygon width="0" layer="31">
<vertex x="-1.8" y="-1.65"/>
<vertex x="-1.65" y="-1.5"/>
<vertex x="-1.65" y="-1.35"/>
<vertex x="-1.8" y="-1.35"/>
</polygon>
<polygon width="0" layer="31">
<vertex x="1.8" y="-1.65"/>
<vertex x="1.65" y="-1.5"/>
<vertex x="1.65" y="-1.35"/>
<vertex x="1.8" y="-1.35"/>
</polygon>
<polygon width="0" layer="31">
<vertex x="1.65" y="-1.8"/>
<vertex x="1.5" y="-1.65"/>
<vertex x="1.35" y="-1.65"/>
<vertex x="1.35" y="-1.8"/>
</polygon>
<polygon width="0" layer="29">
<vertex x="-1.8381" y="1.7262"/>
<vertex x="-1.6246" y="1.5127"/>
<vertex x="-1.6246" y="1.3119"/>
<vertex x="-1.8381" y="1.3119"/>
</polygon>
<polygon width="0" layer="29">
<vertex x="-1.7389" y="1.8254"/>
<vertex x="-1.5254" y="1.6119"/>
<vertex x="-1.3246" y="1.6119"/>
<vertex x="-1.3246" y="1.8254"/>
</polygon>
<polygon width="0" layer="29">
<vertex x="-1.7262" y="-1.8127"/>
<vertex x="-1.5127" y="-1.5992"/>
<vertex x="-1.3119" y="-1.5992"/>
<vertex x="-1.3119" y="-1.8127"/>
</polygon>
<polygon width="0" layer="29">
<vertex x="-1.8254" y="-1.7135"/>
<vertex x="-1.6119" y="-1.5"/>
<vertex x="-1.6119" y="-1.2992"/>
<vertex x="-1.8254" y="-1.2992"/>
</polygon>
<polygon width="0" layer="29">
<vertex x="1.8254" y="-1.7135"/>
<vertex x="1.6119" y="-1.5"/>
<vertex x="1.6119" y="-1.2992"/>
<vertex x="1.8254" y="-1.2992"/>
</polygon>
<polygon width="0" layer="29">
<vertex x="1.7262" y="-1.8127"/>
<vertex x="1.5127" y="-1.5992"/>
<vertex x="1.3119" y="-1.5992"/>
<vertex x="1.3119" y="-1.8127"/>
</polygon>
<polygon width="0" layer="29">
<vertex x="1.7262" y="1.8381"/>
<vertex x="1.5127" y="1.6246"/>
<vertex x="1.3119" y="1.6246"/>
<vertex x="1.3119" y="1.8381"/>
</polygon>
<polygon width="0" layer="29">
<vertex x="1.8254" y="1.7389"/>
<vertex x="1.6119" y="1.5254"/>
<vertex x="1.6119" y="1.3246"/>
<vertex x="1.8254" y="1.3246"/>
</polygon>
<polygon width="0" layer="1">
<vertex x="-2.15" y="-1.35"/>
<vertex x="-1.65" y="-1.35"/>
<vertex x="-1.65" y="-1.5"/>
<vertex x="-1.8" y="-1.65"/>
<vertex x="-2.15" y="-1.65"/>
</polygon>
<polygon width="0" layer="1">
<vertex x="-1.65" y="-1.8"/>
<vertex x="-1.5" y="-1.65"/>
<vertex x="-1.35" y="-1.65"/>
<vertex x="-1.35" y="-2.15"/>
<vertex x="-1.65" y="-2.15"/>
</polygon>
<polygon width="0" layer="1">
<vertex x="1.35" y="-2.15"/>
<vertex x="1.35" y="-1.65"/>
<vertex x="1.5" y="-1.65"/>
<vertex x="1.65" y="-1.8"/>
<vertex x="1.65" y="-2.15"/>
</polygon>
<polygon width="0" layer="1">
<vertex x="1.8" y="-1.65"/>
<vertex x="1.65" y="-1.5"/>
<vertex x="1.65" y="-1.35"/>
<vertex x="2.15" y="-1.35"/>
<vertex x="2.15" y="-1.65"/>
</polygon>
<polygon width="0" layer="1">
<vertex x="-1.35" y="2.15"/>
<vertex x="-1.35" y="1.65"/>
<vertex x="-1.5" y="1.65"/>
<vertex x="-1.65" y="1.8"/>
<vertex x="-1.65" y="2.15"/>
</polygon>
<polygon width="0" layer="1">
<vertex x="-1.8" y="1.65"/>
<vertex x="-1.65" y="1.5"/>
<vertex x="-1.65" y="1.35"/>
<vertex x="-2.15" y="1.35"/>
<vertex x="-2.15" y="1.65"/>
</polygon>
<polygon width="0" layer="1">
<vertex x="2.15" y="1.35"/>
<vertex x="1.65" y="1.35"/>
<vertex x="1.65" y="1.5"/>
<vertex x="1.8" y="1.65"/>
<vertex x="2.15" y="1.65"/>
</polygon>
<polygon width="0" layer="1">
<vertex x="1.65" y="1.8"/>
<vertex x="1.5" y="1.65"/>
<vertex x="1.35" y="1.65"/>
<vertex x="1.35" y="2.15"/>
<vertex x="1.65" y="2.15"/>
</polygon>
<wire x1="-2.06375" y1="2.06375" x2="2.06375" y2="2.06375" width="0.1524" layer="51"/>
<wire x1="2.06375" y1="2.06375" x2="2.06375" y2="-2.06375" width="0.1524" layer="51"/>
<wire x1="2.06375" y1="-2.06375" x2="-2.06375" y2="-2.06375" width="0.1524" layer="51"/>
<wire x1="-2.06375" y1="-2.06375" x2="-2.06375" y2="2.06375" width="0.1524" layer="51"/>
<circle x="-1.27" y="1.27" radius="0.4490125" width="0.1524" layer="51"/>
</package>
<package name="RESC1005X30" urn="urn:adsk.eagle:footprint:11214493/2" locally_modified="yes">
<description>Chip, 1.00 X 0.50 X 0.30 mm body
&lt;p&gt;Chip package with body size 1.00 X 0.50 X 0.30 mm&lt;/p&gt;</description>
<smd name="1" x="-0.5" y="0" dx="0.5118" dy="0.6118" layer="1"/>
<smd name="2" x="0.5" y="0" dx="0.5118" dy="0.6118" layer="1"/>
<text x="0" y="0.4929" size="0.6096" layer="25" align="bottom-center">&gt;NAME</text>
<text x="0" y="-0.4929" size="0.6096" layer="27" align="top-center">&gt;VALUE</text>
<wire x1="-0.127" y1="0.254" x2="-0.127" y2="-0.254" width="0.0762" layer="21"/>
<wire x1="-0.127" y1="-0.254" x2="0.127" y2="-0.254" width="0.0762" layer="21"/>
<wire x1="0.127" y1="-0.254" x2="0.127" y2="0.254" width="0.0762" layer="21"/>
<wire x1="0.127" y1="0.254" x2="-0.127" y2="0.254" width="0.0762" layer="21"/>
<wire x1="-0.79375" y1="0.3175" x2="-0.79375" y2="-0.3175" width="0.1524" layer="51"/>
<wire x1="-0.79375" y1="-0.3175" x2="0.79375" y2="-0.3175" width="0.1524" layer="51"/>
<wire x1="0.79375" y1="-0.3175" x2="0.79375" y2="0.3175" width="0.1524" layer="51"/>
<wire x1="0.79375" y1="0.3175" x2="-0.79375" y2="0.3175" width="0.1524" layer="51"/>
</package>
<package name="SWD" urn="urn:adsk.eagle:footprint:12074857/1" locally_modified="yes">
<text x="-1.27" y="3.81" size="0.6096" layer="25" font="vector">&gt;NAME</text>
<text x="1.27" y="2.54" size="0.6096" layer="21" font="vector" align="center">+</text>
<text x="0.9525" y="0.9525" size="0.6096" layer="21" font="vector">SWC</text>
<text x="0.9525" y="-0.3175" size="0.6096" layer="21" font="vector">SWD</text>
<text x="1.27" y="-1.27" size="0.6096" layer="21" font="vector" align="center">-</text>
<text x="1.5875" y="-2.54" size="0.6096" layer="21" font="vector" align="center">!RST</text>
<pad name="VCC" x="0" y="2.54" drill="0.5"/>
<pad name="RST" x="0" y="-2.54" drill="0.5"/>
<pad name="SWC" x="0" y="1.27" drill="0.5"/>
<pad name="SWD" x="0" y="0" drill="0.5"/>
<pad name="VSS" x="0" y="-1.27" drill="0.5"/>
</package>
<package name="SOT95P280X145-5" urn="urn:adsk.eagle:footprint:11372015/2" locally_modified="yes">
<description>5-SOT23, 0.95 mm pitch, 2.80 mm span, 2.90 X 1.60 X 1.45 mm body
&lt;p&gt;5-pin SOT23 package with 0.95 mm pitch, 2.80 mm span with body size 2.90 X 1.60 X 1.45 mm&lt;/p&gt;</description>
<circle x="-1.379" y="1.7941" radius="0.25" width="0" layer="21"/>
<wire x1="-0.875" y1="1.6041" x2="0.875" y2="1.6041" width="0.12" layer="21" style="shortdash"/>
<wire x1="-0.875" y1="-1.6041" x2="0.875" y2="-1.6041" width="0.12" layer="21"/>
<smd name="IN" x="-1.2533" y="0.95" dx="1.2088" dy="0.6802" layer="1"/>
<smd name="GND" x="-1.2533" y="0" dx="1.2088" dy="0.6802" layer="1"/>
<smd name="EN" x="-1.2533" y="-0.95" dx="1.2088" dy="0.6802" layer="1"/>
<smd name="NC" x="1.2533" y="-0.95" dx="1.2088" dy="0.6802" layer="1"/>
<smd name="OUT" x="1.2533" y="0.95" dx="1.2088" dy="0.6802" layer="1"/>
<text x="0" y="2.6791" size="0.6096" layer="25" font="vector" align="bottom-center">&gt;NAME</text>
<text x="0" y="-2.2391" size="0.6096" layer="27" font="vector" align="top-center">&gt;VALUE</text>
<wire x1="2.06375" y1="1.5875" x2="-1.905" y2="1.5875" width="0.1524" layer="51"/>
<wire x1="-1.905" y1="1.5875" x2="-1.905" y2="-1.5875" width="0.1524" layer="51"/>
<wire x1="-1.905" y1="-1.5875" x2="2.06375" y2="-1.5875" width="0.1524" layer="51"/>
<wire x1="2.06375" y1="-1.5875" x2="2.06375" y2="-0.47625" width="0.1524" layer="51"/>
<wire x1="2.06375" y1="-0.47625" x2="0.635" y2="-0.47625" width="0.1524" layer="51"/>
<wire x1="0.635" y1="-0.47625" x2="0.635" y2="0.47625" width="0.1524" layer="51"/>
<wire x1="0.635" y1="0.47625" x2="2.06375" y2="0.47625" width="0.1524" layer="51"/>
<wire x1="2.06375" y1="0.47625" x2="2.06375" y2="1.5875" width="0.1524" layer="51"/>
</package>
<package name="OSCCC200X160X65N" urn="urn:adsk.eagle:footprint:13124653/1" locally_modified="yes">
<description>Oscillator Corner Concave, 2.00 X 1.60 X 0.65 mm body
&lt;p&gt;Oscillator Corner Concave package with body size 2.00 X 1.60 X 0.65 mm&lt;/p&gt;</description>
<circle x="-1.8099" y="-0.625" radius="0.25" width="0" layer="21"/>
<wire x1="-1.3659" y1="-0.1099" x2="-1.3659" y2="0.1099" width="0.12" layer="21"/>
<wire x1="1.3659" y1="-0.1099" x2="1.3659" y2="0.1099" width="0.12" layer="21"/>
<wire x1="-0.0901" y1="1.1659" x2="0.0901" y2="1.1659" width="0.12" layer="21"/>
<wire x1="-0.0901" y1="-1.1659" x2="0.0901" y2="-1.1659" width="0.12" layer="21"/>
<wire x1="1" y1="-0.8" x2="-1" y2="-0.8" width="0.12" layer="51"/>
<wire x1="-1" y1="-0.8" x2="-1" y2="0.8" width="0.12" layer="51"/>
<wire x1="-1" y1="0.8" x2="1" y2="0.8" width="0.12" layer="51"/>
<wire x1="1" y1="0.8" x2="1" y2="-0.8" width="0.12" layer="51"/>
<smd name="1" x="-0.825" y="-0.625" dx="0.9618" dy="0.9618" layer="1"/>
<smd name="2" x="0.825" y="-0.625" dx="0.9618" dy="0.9618" layer="1"/>
<smd name="3" x="0.825" y="0.625" dx="0.9618" dy="0.9618" layer="1"/>
<smd name="4" x="-0.825" y="0.625" dx="0.9618" dy="0.9618" layer="1"/>
<text x="0" y="1.8009" size="0.8128" layer="25" align="bottom-center">&gt;NAME</text>
<text x="0" y="-1.8009" size="0.8128" layer="27" align="top-center">&gt;VALUE</text>
<circle x="-0.47625" y="-0.3175" radius="0.354975" width="0.1524" layer="51"/>
</package>
</packages>
<packages3d>
<package3d name="CAPC1005X30" urn="urn:adsk.eagle:package:11214499/2" type="model">
<description>Chip, 1.00 X 0.50 X 0.30 mm body
&lt;p&gt;Chip package with body size 1.00 X 0.50 X 0.30 mm&lt;/p&gt;</description>
<packageinstances>
<packageinstance name="CAPC1005X30"/>
</packageinstances>
</package3d>
<package3d name="SON65P300X300X90-9T170X250" urn="urn:adsk.eagle:package:11209438/2" type="model">
<description>8-SON, 0.65 mm pitch, 3.00 X 3.00 X 0.90 mm body, 2.50 X 1.70 mm thermal pad
&lt;p&gt;8-pin SON package with 0.65 mm pitch with body size 3.00 X 3.00 X 0.90 mm and thermal pad size 2.50 X 1.70 mm&lt;/p&gt;</description>
<packageinstances>
<packageinstance name="SON65P300X300X90-9T170X250"/>
</packageinstances>
</package3d>
<package3d name="QFN40P300X300X105-25T159X175" urn="urn:adsk.eagle:package:11557550/2" type="model">
<description>24-QFN, 0.40 mm pitch, 3.00 X 3.00 X 1.05 mm body, 1.75 X 1.59 mm thermal pad
&lt;p&gt;24-pin QFN package with 0.40 mm pitch with body size 3.00 X 3.00 X 1.05 mm and thermal pad size 1.75 X 1.59 mm&lt;/p&gt;</description>
<packageinstances>
<packageinstance name="QFN40P300X300X105-25T159X175"/>
</packageinstances>
</package3d>
<package3d name="JST6" urn="urn:adsk.eagle:package:12077888/1" type="box">
<packageinstances>
<packageinstance name="JST6"/>
</packageinstances>
</package3d>
<package3d name="UFQFPN28" urn="urn:adsk.eagle:package:12074869/2" type="model">
<packageinstances>
<packageinstance name="UFQFPN28"/>
</packageinstances>
</package3d>
<package3d name="RESC1005X30" urn="urn:adsk.eagle:package:11214492/2" type="model">
<description>Chip, 1.00 X 0.50 X 0.30 mm body
&lt;p&gt;Chip package with body size 1.00 X 0.50 X 0.30 mm&lt;/p&gt;</description>
<packageinstances>
<packageinstance name="RESC1005X30"/>
</packageinstances>
</package3d>
<package3d name="SWD" urn="urn:adsk.eagle:package:12074868/1" type="box">
<packageinstances>
<packageinstance name="SWD"/>
</packageinstances>
</package3d>
<package3d name="SOT95P280X145-5" urn="urn:adsk.eagle:package:11372008/2" type="model">
<description>5-SOT23, 0.95 mm pitch, 2.80 mm span, 2.90 X 1.60 X 1.45 mm body
&lt;p&gt;5-pin SOT23 package with 0.95 mm pitch, 2.80 mm span with body size 2.90 X 1.60 X 1.45 mm&lt;/p&gt;</description>
<packageinstances>
<packageinstance name="SOT95P280X145-5"/>
</packageinstances>
</package3d>
<package3d name="OSCCC200X160X65N" urn="urn:adsk.eagle:package:13124650/1" type="model">
<description>Oscillator Corner Concave, 2.00 X 1.60 X 0.65 mm body
&lt;p&gt;Oscillator Corner Concave package with body size 2.00 X 1.60 X 0.65 mm&lt;/p&gt;</description>
<packageinstances>
<packageinstance name="OSCCC200X160X65N"/>
</packageinstances>
</package3d>
</packages3d>
</library>
</libraries>
<attributes>
</attributes>
<variantdefs>
</variantdefs>
<classes>
<class number="0" name="default" width="0" drill="0">
</class>
</classes>
<designrules name="default *">
<description language="de">&lt;b&gt;EAGLE Design Rules&lt;/b&gt;
&lt;p&gt;
Die Standard-Design-Rules sind so gewählt, dass sie für 
die meisten Anwendungen passen. Sollte ihre Platine 
besondere Anforderungen haben, treffen Sie die erforderlichen
Einstellungen hier und speichern die Design Rules unter 
einem neuen Namen ab.</description>
<description language="en">&lt;b&gt;EAGLE Design Rules&lt;/b&gt;
&lt;p&gt;
The default Design Rules have been set to cover
a wide range of applications. Your particular design
may have different requirements, so please make the
necessary adjustments and save your customized
design rules under a new name.</description>
<param name="layerSetup" value="(1*16)"/>
<param name="mtCopper" value="0.035mm 0.035mm 0.035mm 0.035mm 0.035mm 0.035mm 0.035mm 0.035mm 0.035mm 0.035mm 0.035mm 0.035mm 0.035mm 0.035mm 0.035mm 0.035mm"/>
<param name="mtIsolate" value="1.5mm 0.15mm 0.2mm 0.15mm 0.2mm 0.15mm 0.2mm 0.15mm 0.2mm 0.15mm 0.2mm 0.15mm 0.2mm 0.15mm 0.2mm"/>
<param name="mdWireWire" value="6mil"/>
<param name="mdWirePad" value="6mil"/>
<param name="mdWireVia" value="6mil"/>
<param name="mdPadPad" value="6mil"/>
<param name="mdPadVia" value="6mil"/>
<param name="mdViaVia" value="6mil"/>
<param name="mdSmdPad" value="6mil"/>
<param name="mdSmdVia" value="6mil"/>
<param name="mdSmdSmd" value="6mil"/>
<param name="mdViaViaSameLayer" value="6mil"/>
<param name="mnLayersViaInSmd" value="2"/>
<param name="mdCopperDimension" value="20mil"/>
<param name="mdDrill" value="6mil"/>
<param name="mdSmdStop" value="0mil"/>
<param name="msWidth" value="6mil"/>
<param name="msDrill" value="0.3mm"/>
<param name="msMicroVia" value="9.99mm"/>
<param name="msBlindViaRatio" value="0.5"/>
<param name="rvPadTop" value="0.25"/>
<param name="rvPadInner" value="0.25"/>
<param name="rvPadBottom" value="0.25"/>
<param name="rvViaOuter" value="0.25"/>
<param name="rvViaInner" value="0.25"/>
<param name="rvMicroViaOuter" value="0.25"/>
<param name="rvMicroViaInner" value="0.25"/>
<param name="rlMinPadTop" value="10mil"/>
<param name="rlMaxPadTop" value="20mil"/>
<param name="rlMinPadInner" value="10mil"/>
<param name="rlMaxPadInner" value="20mil"/>
<param name="rlMinPadBottom" value="10mil"/>
<param name="rlMaxPadBottom" value="20mil"/>
<param name="rlMinViaOuter" value="8mil"/>
<param name="rlMaxViaOuter" value="20mil"/>
<param name="rlMinViaInner" value="8mil"/>
<param name="rlMaxViaInner" value="20mil"/>
<param name="rlMinMicroViaOuter" value="4mil"/>
<param name="rlMaxMicroViaOuter" value="20mil"/>
<param name="rlMinMicroViaInner" value="4mil"/>
<param name="rlMaxMicroViaInner" value="20mil"/>
<param name="psTop" value="-1"/>
<param name="psBottom" value="-1"/>
<param name="psFirst" value="-1"/>
<param name="psElongationLong" value="100"/>
<param name="psElongationOffset" value="100"/>
<param name="mvStopFrame" value="1"/>
<param name="mvCreamFrame" value="0"/>
<param name="mlMinStopFrame" value="4mil"/>
<param name="mlMaxStopFrame" value="4mil"/>
<param name="mlMinCreamFrame" value="0mil"/>
<param name="mlMaxCreamFrame" value="0mil"/>
<param name="mlViaStopLimit" value="0mil"/>
<param name="srRoundness" value="0"/>
<param name="srMinRoundness" value="0mil"/>
<param name="srMaxRoundness" value="0mil"/>
<param name="slThermalIsolate" value="10mil"/>
<param name="slThermalsForVias" value="0"/>
<param name="dpMaxLengthDifference" value="10mm"/>
<param name="dpGapFactor" value="2.5"/>
<param name="checkAngle" value="0"/>
<param name="checkFont" value="1"/>
<param name="checkRestrict" value="1"/>
<param name="checkStop" value="0"/>
<param name="checkValues" value="0"/>
<param name="checkNames" value="1"/>
<param name="checkWireStubs" value="1"/>
<param name="checkPolygonWidth" value="0"/>
<param name="useDiameter" value="13"/>
<param name="maxErrors" value="50"/>
</designrules>
<autorouter>
<pass name="Default">
<param name="RoutingGrid" value="50mil"/>
<param name="AutoGrid" value="1"/>
<param name="Efforts" value="0"/>
<param name="TopRouterVariant" value="1"/>
<param name="tpViaShape" value="round"/>
<param name="PrefDir.1" value="a"/>
<param name="PrefDir.2" value="0"/>
<param name="PrefDir.3" value="0"/>
<param name="PrefDir.4" value="0"/>
<param name="PrefDir.5" value="0"/>
<param name="PrefDir.6" value="0"/>
<param name="PrefDir.7" value="0"/>
<param name="PrefDir.8" value="0"/>
<param name="PrefDir.9" value="0"/>
<param name="PrefDir.10" value="0"/>
<param name="PrefDir.11" value="0"/>
<param name="PrefDir.12" value="0"/>
<param name="PrefDir.13" value="0"/>
<param name="PrefDir.14" value="0"/>
<param name="PrefDir.15" value="0"/>
<param name="PrefDir.16" value="a"/>
<param name="cfVia" value="8"/>
<param name="cfNonPref" value="5"/>
<param name="cfChangeDir" value="2"/>
<param name="cfOrthStep" value="2"/>
<param name="cfDiagStep" value="3"/>
<param name="cfExtdStep" value="0"/>
<param name="cfBonusStep" value="1"/>
<param name="cfMalusStep" value="1"/>
<param name="cfPadImpact" value="4"/>
<param name="cfSmdImpact" value="4"/>
<param name="cfBusImpact" value="0"/>
<param name="cfHugging" value="3"/>
<param name="cfAvoid" value="4"/>
<param name="cfPolygon" value="10"/>
<param name="cfBase.1" value="0"/>
<param name="cfBase.2" value="1"/>
<param name="cfBase.3" value="1"/>
<param name="cfBase.4" value="1"/>
<param name="cfBase.5" value="1"/>
<param name="cfBase.6" value="1"/>
<param name="cfBase.7" value="1"/>
<param name="cfBase.8" value="1"/>
<param name="cfBase.9" value="1"/>
<param name="cfBase.10" value="1"/>
<param name="cfBase.11" value="1"/>
<param name="cfBase.12" value="1"/>
<param name="cfBase.13" value="1"/>
<param name="cfBase.14" value="1"/>
<param name="cfBase.15" value="1"/>
<param name="cfBase.16" value="0"/>
<param name="mnVias" value="20"/>
<param name="mnSegments" value="9999"/>
<param name="mnExtdSteps" value="9999"/>
<param name="mnRipupLevel" value="10"/>
<param name="mnRipupSteps" value="100"/>
<param name="mnRipupTotal" value="100"/>
</pass>
<pass name="Follow-me" refer="Default" active="yes">
</pass>
<pass name="Busses" refer="Default" active="yes">
<param name="cfNonPref" value="4"/>
<param name="cfBusImpact" value="4"/>
<param name="cfHugging" value="0"/>
<param name="mnVias" value="0"/>
</pass>
<pass name="Route" refer="Default" active="yes">
</pass>
<pass name="Optimize1" refer="Default" active="yes">
<param name="cfVia" value="99"/>
<param name="cfExtdStep" value="10"/>
<param name="cfHugging" value="1"/>
<param name="mnExtdSteps" value="1"/>
<param name="mnRipupLevel" value="0"/>
</pass>
<pass name="Optimize2" refer="Optimize1" active="yes">
<param name="cfNonPref" value="0"/>
<param name="cfChangeDir" value="6"/>
<param name="cfExtdStep" value="0"/>
<param name="cfBonusStep" value="2"/>
<param name="cfMalusStep" value="2"/>
<param name="cfPadImpact" value="2"/>
<param name="cfSmdImpact" value="2"/>
<param name="cfHugging" value="0"/>
</pass>
<pass name="Optimize3" refer="Optimize2" active="yes">
<param name="cfChangeDir" value="8"/>
<param name="cfPadImpact" value="0"/>
<param name="cfSmdImpact" value="0"/>
</pass>
<pass name="Optimize4" refer="Optimize3" active="yes">
<param name="cfChangeDir" value="25"/>
</pass>
</autorouter>
<elements>
<element name="C1" library="Standard" package="CAPC1005X30" package3d_urn="urn:adsk.eagle:package:11214499/2" value="1µF" x="2.54" y="9.2075" smashed="yes" rot="MR0">
<attribute name="NAME" x="2.54" y="9.7004" size="0.6096" layer="26" rot="MR0" align="bottom-center"/>
<attribute name="VALUE" x="2.54" y="8.7146" size="0.6096" layer="28" rot="MR0" align="top-center"/>
</element>
<element name="C10" library="Standard" package="CAPC1005X30" package3d_urn="urn:adsk.eagle:package:11214499/2" value="1µF" x="5.08" y="15.08125" smashed="yes" rot="MR270">
<attribute name="NAME" x="4.5871" y="15.08125" size="0.6096" layer="26" rot="MR270" align="bottom-center"/>
<attribute name="VALUE" x="5.5729" y="15.08125" size="0.6096" layer="28" rot="MR270" align="top-center"/>
</element>
<element name="C11" library="Standard" package="CAPC1005X30" package3d_urn="urn:adsk.eagle:package:11214499/2" value="6pF" x="6.985" y="8.334375" smashed="yes" rot="MR270">
<attribute name="NAME" x="6.4921" y="8.334375" size="0.6096" layer="26" rot="MR270" align="bottom-center"/>
<attribute name="VALUE" x="7.4779" y="8.334375" size="0.6096" layer="28" rot="MR270" align="top-center"/>
</element>
<element name="C12" library="Standard" package="CAPC1005X30" package3d_urn="urn:adsk.eagle:package:11214499/2" value="6pF" x="11.1125" y="8.175625" smashed="yes" rot="MR90">
<attribute name="NAME" x="11.6054" y="8.175625" size="0.6096" layer="26" rot="MR90" align="bottom-center"/>
<attribute name="VALUE" x="10.6196" y="8.175625" size="0.6096" layer="28" rot="MR90" align="top-center"/>
</element>
<element name="C2" library="Standard" package="CAPC1005X30" package3d_urn="urn:adsk.eagle:package:11214499/2" value="1µF" x="5.000625" y="5.953125" smashed="yes" rot="MR270">
<attribute name="NAME" x="4.507725" y="5.953125" size="0.6096" layer="26" rot="MR270" align="bottom-center"/>
<attribute name="VALUE" x="5.493525" y="5.953125" size="0.6096" layer="28" rot="MR270" align="top-center"/>
</element>
<element name="C3" library="Standard" package="CAPC1005X30" package3d_urn="urn:adsk.eagle:package:11214499/2" value="100nF" x="11.58875" y="7.540625" smashed="yes" rot="R270">
<attribute name="NAME" x="12.08165" y="7.540625" size="0.6096" layer="25" rot="R270" align="bottom-center"/>
<attribute name="VALUE" x="11.09585" y="7.540625" size="0.6096" layer="27" rot="R270" align="top-center"/>
</element>
<element name="C4" library="Standard" package="CAPC1005X30" package3d_urn="urn:adsk.eagle:package:11214499/2" value="10nF" x="8.493125" y="5.87375" smashed="yes" rot="R270">
<attribute name="NAME" x="8.986025" y="5.87375" size="0.6096" layer="25" rot="R270" align="bottom-center"/>
<attribute name="VALUE" x="8.000225" y="5.87375" size="0.6096" layer="27" rot="R270" align="top-center"/>
</element>
<element name="C5" library="Standard" package="CAPC1005X30" package3d_urn="urn:adsk.eagle:package:11214499/2" value="100nF" x="12.3825" y="13.6525" smashed="yes" rot="MR270">
<attribute name="NAME" x="11.8896" y="13.6525" size="0.6096" layer="26" rot="MR270" align="bottom-center"/>
<attribute name="VALUE" x="12.8754" y="13.6525" size="0.6096" layer="28" rot="MR270" align="top-center"/>
</element>
<element name="C6" library="Standard" package="CAPC1005X30" package3d_urn="urn:adsk.eagle:package:11214499/2" value="100nF" x="12.065" y="13.97" smashed="yes" rot="R270">
<attribute name="NAME" x="12.5579" y="13.97" size="0.6096" layer="25" rot="R270" align="bottom-center"/>
<attribute name="VALUE" x="11.5721" y="13.97" size="0.6096" layer="27" rot="R270" align="top-center"/>
</element>
<element name="C7" library="Standard" package="CAPC1005X30" package3d_urn="urn:adsk.eagle:package:11214499/2" value="100nF" x="8.255" y="16.1925" smashed="yes">
<attribute name="NAME" x="8.255" y="16.6854" size="0.6096" layer="25" align="bottom-center"/>
<attribute name="VALUE" x="8.255" y="15.6996" size="0.6096" layer="27" align="top-center"/>
</element>
<element name="C8" library="Standard" package="CAPC1005X30" package3d_urn="urn:adsk.eagle:package:11214499/2" value="100nF" x="9.286875" y="5.87375" smashed="yes" rot="R270">
<attribute name="NAME" x="9.779775" y="5.87375" size="0.6096" layer="25" rot="R270" align="bottom-center"/>
<attribute name="VALUE" x="8.793975" y="5.87375" size="0.6096" layer="27" rot="R270" align="top-center"/>
</element>
<element name="C9" library="Standard" package="CAPC1005X30" package3d_urn="urn:adsk.eagle:package:11214499/2" value="1µF" x="3.33375" y="11.7475" smashed="yes" rot="MR0">
<attribute name="NAME" x="3.33375" y="12.2404" size="0.6096" layer="26" rot="MR0" align="bottom-center"/>
<attribute name="VALUE" x="3.33375" y="11.2546" size="0.6096" layer="28" rot="MR0" align="top-center"/>
</element>
<element name="IC1" library="Standard" package="SON65P300X300X90-9T170X250" package3d_urn="urn:adsk.eagle:package:11209438/2" value="ATA6561" x="9.2075" y="13.97" smashed="yes" rot="R180">
<attribute name="NAME" x="9.2075" y="12.081" size="0.6096" layer="25" font="vector" rot="R180" align="bottom-center"/>
</element>
<element name="IC2" library="Standard" package="QFN40P300X300X105-25T159X175" package3d_urn="urn:adsk.eagle:package:11557550/2" value="MPU9250" x="9.2075" y="8.73125" smashed="yes">
<attribute name="NAME" x="9.2075" y="11.23085" size="0.6096" layer="25" font="vector" align="bottom-center"/>
<attribute name="VALUE" x="9.2075" y="6.23165" size="1.27" layer="27" align="top-center"/>
</element>
<element name="INPUT" library="Standard" package="JST6" package3d_urn="urn:adsk.eagle:package:12077888/1" value="JST6" x="5.3975" y="10.4775" smashed="yes" rot="R270">
<attribute name="NAME" x="13.0175" y="4.445" size="0.6096" layer="21" font="vector" rot="R90"/>
</element>
<element name="MCU1" library="Standard" package="UFQFPN28" package3d_urn="urn:adsk.eagle:package:12074869/2" value="STM32F042G6" x="9.525" y="13.97" smashed="yes" rot="MR180">
<attribute name="NAME" x="8.125" y="15.32" size="0.6096" layer="22" font="vector" rot="MR180"/>
</element>
<element name="R1" library="Standard" package="RESC1005X30" package3d_urn="urn:adsk.eagle:package:11214492/2" value="10k" x="6.270625" y="14.684375" smashed="yes" rot="MR90">
<attribute name="NAME" x="6.763525" y="14.684375" size="0.6096" layer="26" rot="MR90" align="bottom-center"/>
<attribute name="VALUE" x="5.777725" y="14.684375" size="0.6096" layer="28" rot="MR90" align="top-center"/>
</element>
<element name="R2" library="Standard" package="RESC1005X30" package3d_urn="urn:adsk.eagle:package:11214492/2" value="1M" x="6.985" y="10.00125" smashed="yes" rot="MR270">
<attribute name="NAME" x="6.4921" y="10.00125" size="0.6096" layer="26" rot="MR270" align="bottom-center"/>
<attribute name="VALUE" x="7.4779" y="10.00125" size="0.6096" layer="28" rot="MR270" align="top-center"/>
</element>
<element name="SWD1" library="Standard" package="SWD" package3d_urn="urn:adsk.eagle:package:12074868/1" value="SWD" x="14.208125" y="10.4775" smashed="yes" rot="R180">
<attribute name="NAME" x="15.478125" y="5.3975" size="0.6096" layer="25" font="vector" rot="R180"/>
</element>
<element name="UREG1" library="Standard" package="SOT95P280X145-5" package3d_urn="urn:adsk.eagle:package:11372008/2" value="5V" x="2.8575" y="14.12875" smashed="yes" rot="MR90">
<attribute name="NAME" x="5.5366" y="14.12875" size="0.6096" layer="26" font="vector" rot="MR90" align="bottom-center"/>
<attribute name="VALUE" x="0.6184" y="14.12875" size="0.6096" layer="28" font="vector" rot="MR90" align="top-center"/>
</element>
<element name="UREG2" library="Standard" package="SOT95P280X145-5" package3d_urn="urn:adsk.eagle:package:11372008/2" value="3V3" x="2.8575" y="6.82625" smashed="yes" rot="MR270">
<attribute name="NAME" x="0.1784" y="6.82625" size="0.6096" layer="26" font="vector" rot="MR270" align="bottom-center"/>
<attribute name="VALUE" x="5.0966" y="6.82625" size="0.6096" layer="28" font="vector" rot="MR270" align="top-center"/>
</element>
<element name="Y1" library="Standard" package="OSCCC200X160X65N" package3d_urn="urn:adsk.eagle:package:13124650/1" value="32MHz" x="9.128125" y="8.255" smashed="yes" rot="MR0">
<attribute name="NAME" x="9.128125" y="10.0559" size="0.8128" layer="26" rot="MR0" align="bottom-center"/>
<attribute name="VALUE" x="9.128125" y="6.4541" size="0.8128" layer="28" rot="MR0" align="top-center"/>
</element>
</elements>
<signals>
<signal name="GND">
<contactref element="INPUT" pad="5"/>
<contactref element="INPUT" pad="6"/>
<contactref element="UREG2" pad="GND"/>
<contactref element="C2" pad="1"/>
<contactref element="C1" pad="1"/>
<contactref element="C5" pad="2"/>
<contactref element="MCU1" pad="VSS"/>
<contactref element="C6" pad="2"/>
<contactref element="C7" pad="2"/>
<contactref element="IC1" pad="2"/>
<contactref element="IC1" pad="9"/>
<contactref element="IC1" pad="8"/>
<contactref element="SWD1" pad="VSS"/>
<contactref element="IC2" pad="18"/>
<contactref element="IC2" pad="20"/>
<contactref element="C4" pad="2"/>
<contactref element="C3" pad="2"/>
<contactref element="C8" pad="2"/>
<contactref element="IC2" pad="11"/>
<contactref element="C9" pad="2"/>
<contactref element="UREG1" pad="EN"/>
<contactref element="UREG1" pad="GND"/>
<contactref element="C10" pad="2"/>
<contactref element="Y1" pad="4"/>
<contactref element="C12" pad="2"/>
<contactref element="C11" pad="2"/>
<contactref element="Y1" pad="2"/>
<polygon width="0.2032" layer="16" thermals="no">
<vertex x="0.3175" y="0.3175"/>
<vertex x="16.8275" y="0.3175"/>
<vertex x="16.8275" y="19.3675"/>
<vertex x="0.3175" y="19.3675"/>
</polygon>
<polygon width="0.2032" layer="1" thermals="no">
<vertex x="0.3175" y="0.3175"/>
<vertex x="16.8275" y="0.3175"/>
<vertex x="16.8275" y="19.3675"/>
<vertex x="0.3175" y="19.3675"/>
</polygon>
<via x="7.62" y="5.55625" extent="1-16" drill="0.3"/>
<via x="10.16" y="5.476875" extent="1-16" drill="0.3"/>
</signal>
<signal name="+3V3">
<contactref element="C5" pad="1"/>
<contactref element="MCU1" pad="VDD"/>
<contactref element="MCU1" pad="VDDIO2"/>
<contactref element="MCU1" pad="VDDA"/>
<contactref element="IC2" pad="1"/>
<contactref element="IC2" pad="8"/>
<contactref element="C4" pad="1"/>
<contactref element="C3" pad="1"/>
<contactref element="IC2" pad="13"/>
<contactref element="UREG2" pad="OUT"/>
<contactref element="C2" pad="2"/>
<contactref element="C7" pad="1"/>
<contactref element="IC1" pad="5"/>
<contactref element="R1" pad="2"/>
<contactref element="SWD1" pad="VCC"/>
<wire x1="7.7569" y1="14.945" x2="7.755" y2="14.9469" width="0.254" layer="1"/>
<wire x1="7.755" y1="14.9469" x2="7.755" y2="16.1925" width="0.254" layer="1"/>
<wire x1="11.4" y1="13.97" x2="11.4" y2="14.12875" width="0.254" layer="16"/>
<wire x1="11.4" y1="14.12875" x2="11.4" y2="14.47" width="0.254" layer="16"/>
<wire x1="12.3825" y1="14.1525" x2="12.35875" y2="14.12875" width="0.254" layer="16"/>
<wire x1="12.35875" y1="14.12875" x2="11.4" y2="14.12875" width="0.254" layer="16"/>
<wire x1="8.493125" y1="6.37375" x2="8.493125" y2="6.42018125" width="0.254" layer="1"/>
<wire x1="8.5969" y1="6.52395625" x2="8.493125" y2="6.42018125" width="0.254" layer="1"/>
<wire x1="8.5969" y1="6.52395625" x2="8.5969" y2="7.22505" width="0.254" layer="1"/>
<wire x1="8.5969" y1="7.22505" x2="8.6075" y2="7.23565" width="0.254" layer="1"/>
<wire x1="11.58875" y1="8.040625" x2="11.279375" y2="7.73125" width="0.254" layer="1"/>
<wire x1="11.279375" y1="7.73125" x2="10.7031" y2="7.73125" width="0.254" layer="1"/>
<wire x1="11.58875" y1="8.040625" x2="12.779375" y2="8.040625" width="0.254" layer="1"/>
<wire x1="12.779375" y1="8.040625" x2="14.105" y2="8.040625" width="0.254" layer="1"/>
<wire x1="14.105" y1="8.040625" x2="14.208125" y2="7.9375" width="0.254" layer="1"/>
<wire x1="7.65" y1="14.47" x2="7.3025" y2="14.47" width="0.254" layer="16"/>
<wire x1="6.588125" y1="15.184375" x2="6.270625" y2="15.184375" width="0.254" layer="16"/>
<wire x1="7.3025" y1="14.47" x2="6.838125" y2="14.934375" width="0.254" layer="16"/>
<wire x1="6.838125" y1="14.934375" x2="6.588125" y2="15.184375" width="0.254" layer="16"/>
<wire x1="7.65" y1="14.47" x2="11.4" y2="14.47" width="0.254" layer="16"/>
<wire x1="6.838125" y1="14.934375" x2="6.838125" y2="14.937225" width="0.254" layer="16"/>
<wire x1="6.838125" y1="14.937225" x2="6.8694" y2="14.9685" width="0.254" layer="16"/>
<via x="6.8694" y="14.9685" extent="1-16" drill="0.3"/>
<wire x1="6.8694" y1="14.9685" x2="7.7334" y2="14.9685" width="0.254" layer="1"/>
<wire x1="7.7334" y1="14.9685" x2="7.755" y2="14.9469" width="0.254" layer="1"/>
<wire x1="1.9075" y1="5.57295" x2="2.8408" y2="5.57295" width="0.254" layer="16"/>
<wire x1="2.8408" y1="5.57295" x2="2.8575" y2="5.55625" width="0.254" layer="16"/>
<via x="2.8575" y="5.55625" extent="1-16" drill="0.3"/>
<wire x1="2.8575" y1="5.55625" x2="6.429375" y2="5.55625" width="0.254" layer="1"/>
<wire x1="7.7119" y1="9.73125" x2="6.953125" y2="9.73125" width="0.254" layer="1"/>
<wire x1="6.429375" y1="9.2075" x2="6.429375" y2="6.35" width="0.254" layer="1"/>
<wire x1="6.429375" y1="6.35" x2="6.429375" y2="5.55625" width="0.254" layer="1"/>
<wire x1="6.953125" y1="9.73125" x2="6.429375" y2="9.2075" width="0.254" layer="1"/>
<wire x1="12.779375" y1="8.040625" x2="12.779375" y2="5.715" width="0.254" layer="1"/>
<wire x1="11.826875" y1="4.7625" x2="6.905625" y2="4.7625" width="0.254" layer="1"/>
<wire x1="6.905625" y1="4.7625" x2="6.429375" y2="5.23875" width="0.254" layer="1"/>
<wire x1="6.429375" y1="5.23875" x2="6.429375" y2="5.55625" width="0.254" layer="1"/>
<wire x1="12.779375" y1="5.715" x2="11.826875" y2="4.7625" width="0.254" layer="1"/>
<wire x1="6.453125" y1="6.37375" x2="6.429375" y2="6.35" width="0.254" layer="1"/>
<wire x1="8.493125" y1="6.37375" x2="6.453125" y2="6.37375" width="0.254" layer="1"/>
<wire x1="6.8694" y1="14.9685" x2="3.69725" y2="14.9685" width="0.254" layer="1"/>
<wire x1="2.8575" y1="14.12875" x2="2.8575" y2="5.55625" width="0.254" layer="1"/>
<wire x1="3.69725" y1="14.9685" x2="2.8575" y2="14.12875" width="0.254" layer="1"/>
<wire x1="2.8575" y1="5.55625" x2="2.8575" y2="4.841875" width="0.254" layer="16"/>
<wire x1="2.8575" y1="4.841875" x2="3.175" y2="4.524375" width="0.254" layer="16"/>
<wire x1="3.175" y1="4.524375" x2="4.683125" y2="4.524375" width="0.254" layer="16"/>
<wire x1="4.683125" y1="4.524375" x2="5.000625" y2="4.841875" width="0.254" layer="16"/>
<wire x1="5.000625" y1="4.841875" x2="5.000625" y2="5.453125" width="0.254" layer="16"/>
</signal>
<signal name="+5V">
<contactref element="IC1" pad="3"/>
<contactref element="C6" pad="1"/>
<contactref element="UREG1" pad="OUT"/>
<contactref element="C10" pad="1"/>
<wire x1="10.6581" y1="14.295" x2="11.334375" y2="14.295" width="0.254" layer="1"/>
<wire x1="11.509375" y1="14.47" x2="12.065" y2="14.47" width="0.254" layer="1"/>
<wire x1="11.509375" y1="14.47" x2="11.334375" y2="14.295" width="0.254" layer="1"/>
<wire x1="12.065" y1="14.47" x2="13.2" y2="14.47" width="0.254" layer="1"/>
<via x="5.08" y="16.8275" extent="1-16" drill="0.3"/>
<wire x1="5.1297" y1="16.857175" x2="5.100025" y2="16.8275" width="0.254" layer="1"/>
<wire x1="5.08" y1="16.8275" x2="5.100025" y2="16.8275" width="0.254" layer="1"/>
<wire x1="12.90845" y1="16.857175" x2="5.1297" y2="16.857175" width="0.254" layer="1"/>
<wire x1="13.2" y1="14.47" x2="13.573125" y2="14.843125" width="0.254" layer="1"/>
<wire x1="13.573125" y1="14.843125" x2="13.573125" y2="16.1925" width="0.254" layer="1"/>
<wire x1="13.573125" y1="16.1925" x2="12.90845" y2="16.857175" width="0.254" layer="1"/>
<wire x1="3.8075" y1="15.38205" x2="4.0067" y2="15.58125" width="0.254" layer="16"/>
<wire x1="4.0067" y1="15.58125" x2="5.08" y2="15.58125" width="0.254" layer="16"/>
<wire x1="5.08" y1="15.58125" x2="5.08" y2="16.8275" width="0.254" layer="16"/>
</signal>
<signal name="N$3">
<contactref element="MCU1" pad="!RST"/>
<contactref element="SWD1" pad="RST"/>
<contactref element="R1" pad="1"/>
<wire x1="7.65" y1="13.97" x2="6.82625" y2="13.97" width="0.254" layer="16"/>
<wire x1="14.208125" y1="13.0175" x2="14.208125" y2="15.954375" width="0.254" layer="16"/>
<wire x1="14.208125" y1="15.954375" x2="13.17625" y2="16.98625" width="0.254" layer="16"/>
<wire x1="6.588125" y1="16.98625" x2="13.17625" y2="16.98625" width="0.254" layer="16"/>
<wire x1="5.685325" y1="14.769675" x2="5.685325" y2="16.08345" width="0.254" layer="16"/>
<wire x1="5.685325" y1="16.08345" x2="6.588125" y2="16.98625" width="0.254" layer="16"/>
<wire x1="6.270625" y1="14.184375" x2="5.685325" y2="14.769675" width="0.254" layer="16"/>
<wire x1="6.270625" y1="14.184375" x2="6.611875" y2="14.184375" width="0.254" layer="16"/>
<wire x1="6.611875" y1="14.184375" x2="6.82625" y2="13.97" width="0.254" layer="16"/>
</signal>
<signal name="N$11">
<contactref element="MCU1" pad="PA10"/>
<contactref element="IC1" pad="1"/>
<wire x1="10.6581" y1="12.995" x2="10.6581" y2="12.9794" width="0.254" layer="1"/>
<via x="10.6581" y="12.9794" extent="1-16" drill="0.3"/>
<wire x1="10.6581" y1="12.9794" x2="11.3906" y2="12.9794" width="0.254" layer="16"/>
<wire x1="11.3906" y1="12.9794" x2="11.4" y2="12.97" width="0.254" layer="16"/>
</signal>
<signal name="N$12">
<contactref element="MCU1" pad="PA9"/>
<contactref element="IC1" pad="4"/>
<via x="12.7" y="15.310875" extent="1-16" drill="0.3"/>
<wire x1="10.6581" y1="14.945" x2="11.58306875" y2="14.945" width="0.254" layer="1"/>
<wire x1="11.58306875" y1="14.945" x2="11.64336875" y2="15.0053" width="0.254" layer="1"/>
<wire x1="11.64336875" y1="15.0053" x2="12.394425" y2="15.0053" width="0.254" layer="1"/>
<wire x1="12.394425" y1="15.0053" x2="12.7" y2="15.310875" width="0.254" layer="1"/>
<wire x1="12.7" y1="15.310875" x2="12.7085" y2="15.310875" width="0.254" layer="16"/>
<wire x1="12.7085" y1="15.310875" x2="13.096875" y2="14.9225" width="0.254" layer="16"/>
<wire x1="13.096875" y1="14.9225" x2="13.096875" y2="13.890625" width="0.254" layer="16"/>
<wire x1="13.096875" y1="13.890625" x2="12.85875" y2="13.6525" width="0.254" layer="16"/>
<wire x1="12.85875" y1="13.6525" x2="12.84325" y2="13.637" width="0.1524" layer="16"/>
<wire x1="11.8149125" y1="13.47" x2="11.4" y2="13.47" width="0.1524" layer="16"/>
<wire x1="12.84325" y1="13.637" x2="11.9819125" y2="13.637" width="0.1524" layer="16"/>
<wire x1="11.9819125" y1="13.637" x2="11.8149125" y2="13.47" width="0.1524" layer="16"/>
</signal>
<signal name="SDA">
<contactref element="MCU1" pad="PB7"/>
<contactref element="IC2" pad="24"/>
<wire x1="8.2075" y1="10.22685" x2="8.2075" y2="10.782475" width="0.254" layer="1"/>
<wire x1="8.2075" y1="10.782475" x2="7.9375" y2="11.052475" width="0.254" layer="1"/>
<wire x1="7.9375" y1="11.1125" x2="7.9375" y2="11.052475" width="0.254" layer="1"/>
<via x="7.9375" y="11.1125" extent="1-16" drill="0.3"/>
<wire x1="7.9375" y1="11.1125" x2="8.025" y2="11.1125" width="0.254" layer="16"/>
<wire x1="8.025" y1="11.1125" x2="8.025" y2="11.995" width="0.254" layer="16"/>
</signal>
<signal name="SCL">
<contactref element="MCU1" pad="PB6"/>
<contactref element="IC2" pad="23"/>
<wire x1="8.6075" y1="10.22685" x2="8.6075" y2="10.992025" width="0.2032" layer="1"/>
<wire x1="8.6075" y1="10.992025" x2="8.7963" y2="11.180825" width="0.2032" layer="1"/>
<via x="8.7963" y="11.180825" extent="1-16" drill="0.3"/>
<wire x1="8.7963" y1="11.180825" x2="8.525" y2="11.452125" width="0.2032" layer="16"/>
<wire x1="8.525" y1="11.452125" x2="8.525" y2="12.095" width="0.2032" layer="16"/>
</signal>
<signal name="N$4">
<contactref element="IC2" pad="12"/>
<contactref element="MCU1" pad="PB4"/>
<wire x1="9.525" y1="12.095" x2="9.525" y2="11.58875" width="0.254" layer="16"/>
<wire x1="9.8425" y1="11.27125" x2="11.350625" y2="11.27125" width="0.254" layer="16"/>
<wire x1="11.350625" y1="11.27125" x2="11.5697" y2="11.052175" width="0.254" layer="16"/>
<wire x1="11.5697" y1="11.052175" x2="11.5697" y2="9.3661875" width="0.254" layer="16"/>
<wire x1="12.1347875" y1="8.8011" x2="12.144375" y2="8.8011" width="0.254" layer="16"/>
<wire x1="11.5697" y1="9.3661875" x2="12.1347875" y2="8.8011" width="0.254" layer="16"/>
<wire x1="12.144375" y1="8.8011" x2="12.461875" y2="8.4836" width="0.254" layer="16"/>
<wire x1="11.7475" y1="6.0325" x2="10.95375" y2="6.0325" width="0.254" layer="16"/>
<via x="10.95375" y="6.0325" extent="1-16" drill="0.3"/>
<wire x1="9.525" y1="11.58875" x2="9.8425" y2="11.27125" width="0.254" layer="16"/>
<wire x1="12.461875" y1="8.4836" x2="12.461875" y2="6.746875" width="0.254" layer="16"/>
<wire x1="12.461875" y1="6.746875" x2="11.7475" y2="6.0325" width="0.254" layer="16"/>
<wire x1="10.2075" y1="7.23565" x2="10.54435" y2="7.23565" width="0.254" layer="1"/>
<wire x1="10.95375" y1="6.82625" x2="10.95375" y2="6.0325" width="0.254" layer="1"/>
<wire x1="10.54435" y1="7.23565" x2="10.95375" y2="6.82625" width="0.254" layer="1"/>
</signal>
<signal name="N$5">
<contactref element="IC2" pad="10"/>
<contactref element="C8" pad="1"/>
<wire x1="9.286875" y1="6.37375" x2="9.4075" y2="6.494375" width="0.254" layer="1"/>
<wire x1="9.4075" y1="6.494375" x2="9.4075" y2="7.23565" width="0.254" layer="1"/>
</signal>
<signal name="CAN_H">
<contactref element="IC1" pad="7"/>
<contactref element="INPUT" pad="1"/>
<wire x1="7.7569" y1="13.645" x2="7.7144" y2="13.6025" width="0.254" layer="1"/>
<wire x1="7.7144" y1="13.6025" x2="5.3975" y2="13.6025" width="0.254" layer="1"/>
</signal>
<signal name="CAN_L">
<contactref element="IC1" pad="6"/>
<contactref element="INPUT" pad="2"/>
<wire x1="5.3975" y1="12.3525" x2="4.871875" y2="12.3525" width="0.254" layer="1"/>
<wire x1="4.871875" y1="12.3525" x2="4.60375" y2="12.620625" width="0.254" layer="1"/>
<wire x1="4.60375" y1="12.620625" x2="4.60375" y2="14.049375" width="0.254" layer="1"/>
<wire x1="7.716" y1="14.3359" x2="7.7569" y2="14.295" width="0.254" layer="1"/>
<wire x1="7.716" y1="14.3359" x2="4.890275" y2="14.3359" width="0.254" layer="1"/>
<wire x1="4.60375" y1="14.049375" x2="4.890275" y2="14.3359" width="0.254" layer="1"/>
</signal>
<signal name="N$7">
<contactref element="UREG2" pad="IN"/>
<contactref element="UREG2" pad="EN"/>
<contactref element="C1" pad="2"/>
<contactref element="INPUT" pad="3"/>
<contactref element="INPUT" pad="4"/>
<contactref element="UREG1" pad="IN"/>
<contactref element="C9" pad="1"/>
<wire x1="5.3975" y1="11.1025" x2="4.058125" y2="11.1025" width="0.254" layer="16"/>
<wire x1="3.83375" y1="11.326875" x2="3.83375" y2="11.7475" width="0.254" layer="16"/>
<wire x1="4.058125" y1="11.1025" x2="3.83375" y2="11.326875" width="0.254" layer="16"/>
<wire x1="5.3975" y1="9.8525" x2="3.730625" y2="9.8525" width="0.254" layer="16"/>
<wire x1="3.730625" y1="9.8525" x2="2.153125" y2="9.8525" width="0.254" layer="16"/>
<wire x1="2.04" y1="9.739375" x2="2.04" y2="9.2075" width="0.254" layer="16"/>
<wire x1="2.153125" y1="9.8525" x2="2.04" y2="9.739375" width="0.254" layer="16"/>
<wire x1="1.9075" y1="8.07955" x2="1.9075" y2="9.075" width="0.254" layer="16"/>
<wire x1="1.9075" y1="9.075" x2="2.04" y2="9.2075" width="0.254" layer="16"/>
<wire x1="3.8075" y1="9.775625" x2="3.730625" y2="9.8525" width="0.254" layer="16"/>
<wire x1="3.8075" y1="8.07955" x2="3.8075" y2="9.775625" width="0.254" layer="16"/>
<wire x1="3.83375" y1="11.7475" x2="3.83375" y2="12.8492" width="0.254" layer="16"/>
<wire x1="3.83375" y1="12.8492" x2="3.8075" y2="12.87545" width="0.254" layer="16"/>
<wire x1="5.3975" y1="9.8525" x2="5.3975" y2="11.1025" width="0.254" layer="1"/>
</signal>
<signal name="SWDIO">
<contactref element="SWD1" pad="SWD"/>
<contactref element="MCU1" pad="PA13"/>
<wire x1="11.5" y1="12.47" x2="11.739375" y2="12.47" width="0.254" layer="16"/>
<wire x1="11.739375" y1="12.47" x2="12.3825" y2="11.826875" width="0.254" layer="16"/>
<wire x1="12.3825" y1="10.795" x2="12.7" y2="10.4775" width="0.254" layer="16"/>
<wire x1="12.7" y1="10.4775" x2="14.208125" y2="10.4775" width="0.254" layer="16"/>
<wire x1="12.3825" y1="11.826875" x2="12.3825" y2="10.795" width="0.254" layer="16"/>
</signal>
<signal name="SWCLK">
<contactref element="SWD1" pad="SWC"/>
<contactref element="MCU1" pad="PA14"/>
<wire x1="11.025" y1="11.995" x2="11.6396375" y2="11.995" width="0.254" layer="16"/>
<wire x1="11.6396375" y1="11.995" x2="11.9761" y2="11.6585375" width="0.254" layer="16"/>
<wire x1="11.9761" y1="9.534525" x2="12.303125" y2="9.2075" width="0.254" layer="16"/>
<wire x1="12.303125" y1="9.2075" x2="14.208125" y2="9.2075" width="0.254" layer="16"/>
<wire x1="11.9761" y1="11.6585375" x2="11.9761" y2="9.534525" width="0.254" layer="16"/>
</signal>
<signal name="OSC_OUT">
<contactref element="C11" pad="1"/>
<contactref element="Y1" pad="3"/>
<contactref element="R2" pad="2"/>
<contactref element="MCU1" pad="OSC_OUT"/>
<wire x1="6.985" y1="9.50125" x2="6.985" y2="8.834375" width="0.2032" layer="16"/>
<wire x1="6.985" y1="8.834375" x2="8.2575" y2="8.834375" width="0.2032" layer="16"/>
<wire x1="8.2575" y1="8.834375" x2="8.303125" y2="8.88" width="0.2032" layer="16"/>
<wire x1="6.985" y1="9.50125" x2="6.611875" y2="9.50125" width="0.2032" layer="16"/>
<wire x1="6.611875" y1="9.50125" x2="6.35" y2="9.763125" width="0.2032" layer="16"/>
<wire x1="6.35" y1="9.763125" x2="6.35" y2="13.0175" width="0.2032" layer="16"/>
<wire x1="6.8025" y1="13.47" x2="7.65" y2="13.47" width="0.2032" layer="16"/>
<wire x1="6.35" y1="13.0175" x2="6.8025" y2="13.47" width="0.2032" layer="16"/>
</signal>
<signal name="OSC_IN">
<contactref element="Y1" pad="1"/>
<contactref element="C12" pad="1"/>
<contactref element="R2" pad="1"/>
<contactref element="MCU1" pad="OSC_IN"/>
<wire x1="7.633375" y1="12.953375" x2="7.65" y2="12.97" width="0.2032" layer="16"/>
<wire x1="7.3491625" y1="12.953375" x2="7.633375" y2="12.953375" width="0.2032" layer="16"/>
<wire x1="6.985" y1="10.50125" x2="6.985" y2="12.5892125" width="0.2032" layer="16"/>
<wire x1="6.985" y1="12.5892125" x2="7.3491625" y2="12.953375" width="0.2032" layer="16"/>
<wire x1="9.953125" y1="7.63" x2="11.066875" y2="7.63" width="0.2032" layer="16"/>
<wire x1="11.066875" y1="7.63" x2="11.1125" y2="7.675625" width="0.2032" layer="16"/>
<wire x1="9.953125" y1="7.63" x2="9.276875" y2="7.63" width="0.2032" layer="16"/>
<wire x1="9.276875" y1="7.63" x2="9.128125" y2="7.77875" width="0.2032" layer="16"/>
<wire x1="9.128125" y1="7.77875" x2="9.128125" y2="10.239375" width="0.2032" layer="16"/>
<wire x1="8.86625" y1="10.50125" x2="6.985" y2="10.50125" width="0.2032" layer="16"/>
<wire x1="9.128125" y1="10.239375" x2="8.86625" y2="10.50125" width="0.2032" layer="16"/>
</signal>
</signals>
<mfgpreviewcolors>
<mfgpreviewcolor name="soldermaskcolor" color="0xC8FFFFFF"/>
<mfgpreviewcolor name="silkscreencolor" color="0xFF000000"/>
<mfgpreviewcolor name="backgroundcolor" color="0x282828"/>
<mfgpreviewcolor name="coppercolor" color="0xFFFFBB00"/>
<mfgpreviewcolor name="substratecolor" color="0xFF786E46"/>
</mfgpreviewcolors>
</board>
</drawing>
<compatibility>
<note version="6.3" minversion="6.2.2" severity="warning">
Since Version 6.2.2 text objects can contain more than one line,
which will not be processed correctly with this version.
</note>
<note version="8.3" severity="warning">
Since Version 8.3, EAGLE supports URNs for individual library
assets (packages, symbols, and devices). The URNs of those assets
will not be understood (or retained) with this version.
</note>
<note version="8.3" severity="warning">
Since Version 8.3, EAGLE supports the association of 3D packages
with devices in libraries, schematics, and board files. Those 3D
packages will not be understood (or retained) with this version.
</note>
</compatibility>
</eagle>
