G04 EAGLE Gerber RS-274X export*
G75*
%MOMM*%
%FSLAX34Y34*%
%LPD*%
%INSoldermask Bottom*%
%IPPOS*%
%AMOC8*
5,1,8,0,0,1.08239X$1,22.5*%
G01*
%ADD10C,3.403200*%
%ADD11R,0.815000X0.715000*%
%ADD12R,0.715000X0.815000*%
%ADD13C,1.111200*%
%ADD14R,0.753200X0.503200*%
%ADD15R,0.553200X0.503200*%
%ADD16R,0.503200X0.553200*%
%ADD17R,0.503200X0.753200*%
%ADD18C,1.211200*%
%ADD19R,1.412000X0.883400*%
%ADD20R,1.165000X1.165000*%
%ADD21C,0.523200*%
%ADD22R,2.703200X1.903200*%
%ADD23C,9.203200*%
%ADD24R,3.203200X7.203200*%
%ADD25C,1.461200*%
%ADD26R,0.883400X1.412000*%
%ADD27C,0.540300*%
%ADD28R,2.403200X2.403200*%
%ADD29C,0.909600*%
%ADD30C,0.959600*%
%ADD31C,1.009600*%
%ADD32C,1.059600*%
%ADD33C,1.159600*%

G36*
X618203Y733567D02*
X618203Y733567D01*
X618203Y733568D01*
X618203Y735703D01*
X618199Y735708D01*
X618198Y735707D01*
X618198Y735708D01*
X614055Y735708D01*
X614054Y735707D01*
X614052Y735707D01*
X614052Y735705D01*
X614050Y735703D01*
X614052Y735702D01*
X614051Y735699D01*
X616186Y733564D01*
X616189Y733564D01*
X616190Y733563D01*
X618198Y733563D01*
X618203Y733567D01*
G37*
G36*
X376903Y733567D02*
X376903Y733567D01*
X376903Y733568D01*
X376903Y735703D01*
X376899Y735708D01*
X376898Y735707D01*
X376898Y735708D01*
X372755Y735708D01*
X372754Y735707D01*
X372752Y735707D01*
X372752Y735705D01*
X372750Y735703D01*
X372752Y735702D01*
X372751Y735699D01*
X374886Y733564D01*
X374889Y733564D01*
X374890Y733563D01*
X376898Y733563D01*
X376903Y733567D01*
G37*
G36*
X347248Y414708D02*
X347248Y414708D01*
X347249Y414709D01*
X347249Y416844D01*
X347244Y416848D01*
X347244Y416849D01*
X343101Y416849D01*
X343099Y416847D01*
X343097Y416847D01*
X343097Y416846D01*
X343096Y416844D01*
X343097Y416842D01*
X343097Y416840D01*
X345232Y414705D01*
X345234Y414705D01*
X345236Y414704D01*
X347244Y414704D01*
X347248Y414708D01*
G37*
G36*
X859503Y733567D02*
X859503Y733567D01*
X859503Y733568D01*
X859503Y735703D01*
X859499Y735708D01*
X859498Y735707D01*
X859498Y735708D01*
X855355Y735708D01*
X855354Y735707D01*
X855352Y735707D01*
X855352Y735705D01*
X855350Y735703D01*
X855352Y735702D01*
X855351Y735699D01*
X857486Y733564D01*
X857489Y733564D01*
X857490Y733563D01*
X859498Y733563D01*
X859503Y733567D01*
G37*
G36*
X588548Y414708D02*
X588548Y414708D01*
X588549Y414709D01*
X588549Y416844D01*
X588544Y416848D01*
X588544Y416849D01*
X584401Y416849D01*
X584399Y416847D01*
X584397Y416847D01*
X584397Y416846D01*
X584396Y416844D01*
X584397Y416842D01*
X584397Y416840D01*
X586532Y414705D01*
X586534Y414705D01*
X586536Y414704D01*
X588544Y414704D01*
X588548Y414708D01*
G37*
G36*
X105948Y414708D02*
X105948Y414708D01*
X105949Y414709D01*
X105949Y416844D01*
X105944Y416848D01*
X105944Y416849D01*
X101801Y416849D01*
X101799Y416847D01*
X101797Y416847D01*
X101797Y416846D01*
X101796Y416844D01*
X101797Y416842D01*
X101797Y416840D01*
X103932Y414705D01*
X103934Y414705D01*
X103936Y414704D01*
X105944Y414704D01*
X105948Y414708D01*
G37*
G36*
X79088Y724143D02*
X79088Y724143D01*
X79088Y724144D01*
X79088Y726279D01*
X79084Y726284D01*
X79083Y726284D01*
X74940Y726284D01*
X74939Y726283D01*
X74937Y726283D01*
X74937Y726281D01*
X74935Y726280D01*
X74937Y726278D01*
X74936Y726275D01*
X77071Y724140D01*
X77074Y724140D01*
X77075Y724139D01*
X79083Y724139D01*
X79088Y724143D01*
G37*
G36*
X829848Y414708D02*
X829848Y414708D01*
X829849Y414709D01*
X829849Y416844D01*
X829844Y416848D01*
X829844Y416849D01*
X825701Y416849D01*
X825699Y416847D01*
X825697Y416847D01*
X825697Y416846D01*
X825696Y416844D01*
X825697Y416842D01*
X825697Y416840D01*
X827832Y414705D01*
X827834Y414705D01*
X827836Y414704D01*
X829844Y414704D01*
X829848Y414708D01*
G37*
G36*
X861217Y381324D02*
X861217Y381324D01*
X861220Y381324D01*
X861220Y381326D01*
X861222Y381328D01*
X861222Y385471D01*
X861217Y385475D01*
X861217Y385476D01*
X859082Y385476D01*
X859077Y385471D01*
X859077Y383463D01*
X859078Y383461D01*
X859078Y383459D01*
X861213Y381324D01*
X861215Y381324D01*
X861216Y381323D01*
X861217Y381324D01*
G37*
G36*
X378617Y381324D02*
X378617Y381324D01*
X378620Y381324D01*
X378620Y381326D01*
X378622Y381328D01*
X378622Y385471D01*
X378617Y385475D01*
X378617Y385476D01*
X376482Y385476D01*
X376477Y385471D01*
X376477Y383463D01*
X376478Y383461D01*
X376478Y383459D01*
X378613Y381324D01*
X378615Y381324D01*
X378616Y381323D01*
X378617Y381324D01*
G37*
G36*
X619917Y381324D02*
X619917Y381324D01*
X619920Y381324D01*
X619920Y381326D01*
X619922Y381328D01*
X619922Y385471D01*
X619917Y385475D01*
X619917Y385476D01*
X617782Y385476D01*
X617777Y385471D01*
X617777Y383463D01*
X617778Y383461D01*
X617778Y383459D01*
X619913Y381324D01*
X619915Y381324D01*
X619916Y381323D01*
X619917Y381324D01*
G37*
G36*
X137317Y381324D02*
X137317Y381324D01*
X137320Y381324D01*
X137320Y381326D01*
X137322Y381328D01*
X137322Y385471D01*
X137317Y385475D01*
X137317Y385476D01*
X135182Y385476D01*
X135177Y385471D01*
X135177Y383463D01*
X135178Y383461D01*
X135178Y383459D01*
X137313Y381324D01*
X137315Y381324D01*
X137316Y381323D01*
X137317Y381324D01*
G37*
G36*
X649445Y700056D02*
X649445Y700056D01*
X649447Y700056D01*
X649447Y700058D01*
X649449Y700060D01*
X649449Y704203D01*
X649445Y704208D01*
X649444Y704207D01*
X649444Y704208D01*
X647309Y704208D01*
X647304Y704203D01*
X647304Y702195D01*
X647305Y702193D01*
X647305Y702191D01*
X649440Y700056D01*
X649442Y700056D01*
X649443Y700055D01*
X649445Y700056D01*
G37*
G36*
X408145Y700056D02*
X408145Y700056D01*
X408147Y700056D01*
X408147Y700058D01*
X408149Y700060D01*
X408149Y704203D01*
X408145Y704208D01*
X408144Y704207D01*
X408144Y704208D01*
X406009Y704208D01*
X406004Y704203D01*
X406004Y702195D01*
X406005Y702193D01*
X406005Y702191D01*
X408140Y700056D01*
X408142Y700056D01*
X408143Y700055D01*
X408145Y700056D01*
G37*
G36*
X890745Y700056D02*
X890745Y700056D01*
X890747Y700056D01*
X890747Y700058D01*
X890749Y700060D01*
X890749Y704203D01*
X890745Y704208D01*
X890744Y704207D01*
X890744Y704208D01*
X888609Y704208D01*
X888604Y704203D01*
X888604Y702195D01*
X888605Y702193D01*
X888605Y702191D01*
X890740Y700056D01*
X890742Y700056D01*
X890743Y700055D01*
X890745Y700056D01*
G37*
G36*
X110330Y690632D02*
X110330Y690632D01*
X110332Y690632D01*
X110332Y690634D01*
X110334Y690636D01*
X110334Y694779D01*
X110330Y694784D01*
X110329Y694784D01*
X108194Y694784D01*
X108189Y694780D01*
X108189Y694779D01*
X108189Y692771D01*
X108191Y692769D01*
X108190Y692767D01*
X110325Y690632D01*
X110327Y690632D01*
X110328Y690631D01*
X110330Y690632D01*
G37*
G36*
X73949Y690760D02*
X73949Y690760D01*
X73952Y690759D01*
X76087Y692894D01*
X76087Y692897D01*
X76088Y692898D01*
X76088Y694906D01*
X76084Y694911D01*
X76083Y694911D01*
X73948Y694911D01*
X73943Y694907D01*
X73943Y694906D01*
X73943Y690763D01*
X73944Y690762D01*
X73944Y690760D01*
X73946Y690760D01*
X73947Y690758D01*
X73949Y690760D01*
G37*
G36*
X371764Y700183D02*
X371764Y700183D01*
X371766Y700183D01*
X373901Y702318D01*
X373902Y702321D01*
X373903Y702322D01*
X373903Y704330D01*
X373899Y704335D01*
X373898Y704334D01*
X373898Y704335D01*
X371763Y704335D01*
X371758Y704330D01*
X371758Y700187D01*
X371759Y700185D01*
X371759Y700184D01*
X371761Y700184D01*
X371762Y700182D01*
X371764Y700183D01*
G37*
G36*
X100810Y381324D02*
X100810Y381324D01*
X100812Y381324D01*
X102947Y383459D01*
X102947Y383461D01*
X102949Y383463D01*
X102949Y385471D01*
X102944Y385475D01*
X102944Y385476D01*
X100809Y385476D01*
X100804Y385471D01*
X100804Y381328D01*
X100805Y381326D01*
X100805Y381324D01*
X100806Y381324D01*
X100808Y381323D01*
X100810Y381324D01*
G37*
G36*
X342110Y381324D02*
X342110Y381324D01*
X342112Y381324D01*
X344247Y383459D01*
X344247Y383461D01*
X344249Y383463D01*
X344249Y385471D01*
X344244Y385475D01*
X344244Y385476D01*
X342109Y385476D01*
X342104Y385471D01*
X342104Y381328D01*
X342105Y381326D01*
X342105Y381324D01*
X342106Y381324D01*
X342108Y381323D01*
X342110Y381324D01*
G37*
G36*
X824710Y381324D02*
X824710Y381324D01*
X824712Y381324D01*
X826847Y383459D01*
X826847Y383461D01*
X826849Y383463D01*
X826849Y385471D01*
X826844Y385475D01*
X826844Y385476D01*
X824709Y385476D01*
X824704Y385471D01*
X824704Y381328D01*
X824705Y381326D01*
X824705Y381324D01*
X824706Y381324D01*
X824708Y381323D01*
X824710Y381324D01*
G37*
G36*
X583410Y381324D02*
X583410Y381324D01*
X583412Y381324D01*
X585547Y383459D01*
X585547Y383461D01*
X585549Y383463D01*
X585549Y385471D01*
X585544Y385475D01*
X585544Y385476D01*
X583409Y385476D01*
X583404Y385471D01*
X583404Y381328D01*
X583405Y381326D01*
X583405Y381324D01*
X583406Y381324D01*
X583408Y381323D01*
X583410Y381324D01*
G37*
G36*
X854364Y700183D02*
X854364Y700183D01*
X854366Y700183D01*
X856501Y702318D01*
X856502Y702321D01*
X856503Y702322D01*
X856503Y704330D01*
X856499Y704335D01*
X856498Y704334D01*
X856498Y704335D01*
X854363Y704335D01*
X854358Y704330D01*
X854358Y700187D01*
X854359Y700185D01*
X854359Y700184D01*
X854361Y700184D01*
X854362Y700182D01*
X854364Y700183D01*
G37*
G36*
X613064Y700183D02*
X613064Y700183D01*
X613066Y700183D01*
X615201Y702318D01*
X615202Y702321D01*
X615203Y702322D01*
X615203Y704330D01*
X615199Y704335D01*
X615198Y704334D01*
X615198Y704335D01*
X613063Y704335D01*
X613058Y704330D01*
X613058Y700187D01*
X613059Y700185D01*
X613059Y700184D01*
X613061Y700184D01*
X613062Y700182D01*
X613064Y700183D01*
G37*
G36*
X376903Y699194D02*
X376903Y699194D01*
X376903Y699195D01*
X376903Y701330D01*
X376899Y701335D01*
X376898Y701334D01*
X376898Y701335D01*
X374890Y701335D01*
X374888Y701333D01*
X374886Y701333D01*
X372751Y699198D01*
X372751Y699197D01*
X372750Y699195D01*
X372751Y699194D01*
X372751Y699192D01*
X372753Y699192D01*
X372755Y699190D01*
X376898Y699190D01*
X376903Y699194D01*
G37*
G36*
X347248Y380335D02*
X347248Y380335D01*
X347249Y380336D01*
X347249Y382471D01*
X347244Y382475D01*
X347244Y382476D01*
X345236Y382476D01*
X345234Y382474D01*
X345232Y382474D01*
X343097Y380339D01*
X343097Y380337D01*
X343096Y380336D01*
X343097Y380335D01*
X343097Y380332D01*
X343099Y380332D01*
X343101Y380331D01*
X347244Y380331D01*
X347248Y380335D01*
G37*
G36*
X829848Y380335D02*
X829848Y380335D01*
X829849Y380336D01*
X829849Y382471D01*
X829844Y382475D01*
X829844Y382476D01*
X827836Y382476D01*
X827834Y382474D01*
X827832Y382474D01*
X825697Y380339D01*
X825697Y380337D01*
X825696Y380336D01*
X825697Y380335D01*
X825697Y380332D01*
X825699Y380332D01*
X825701Y380331D01*
X829844Y380331D01*
X829848Y380335D01*
G37*
G36*
X105948Y380335D02*
X105948Y380335D01*
X105949Y380336D01*
X105949Y382471D01*
X105944Y382475D01*
X105944Y382476D01*
X103936Y382476D01*
X103934Y382474D01*
X103932Y382474D01*
X101797Y380339D01*
X101797Y380337D01*
X101796Y380336D01*
X101797Y380335D01*
X101797Y380332D01*
X101799Y380332D01*
X101801Y380331D01*
X105944Y380331D01*
X105948Y380335D01*
G37*
G36*
X588548Y380335D02*
X588548Y380335D01*
X588549Y380336D01*
X588549Y382471D01*
X588544Y382475D01*
X588544Y382476D01*
X586536Y382476D01*
X586534Y382474D01*
X586532Y382474D01*
X584397Y380339D01*
X584397Y380337D01*
X584396Y380336D01*
X584397Y380335D01*
X584397Y380332D01*
X584399Y380332D01*
X584401Y380331D01*
X588544Y380331D01*
X588548Y380335D01*
G37*
G36*
X859503Y699194D02*
X859503Y699194D01*
X859503Y699195D01*
X859503Y701330D01*
X859499Y701335D01*
X859498Y701334D01*
X859498Y701335D01*
X857490Y701335D01*
X857488Y701333D01*
X857486Y701333D01*
X855351Y699198D01*
X855351Y699197D01*
X855350Y699195D01*
X855351Y699194D01*
X855351Y699192D01*
X855353Y699192D01*
X855355Y699190D01*
X859498Y699190D01*
X859503Y699194D01*
G37*
G36*
X618203Y699194D02*
X618203Y699194D01*
X618203Y699195D01*
X618203Y701330D01*
X618199Y701335D01*
X618198Y701334D01*
X618198Y701335D01*
X616190Y701335D01*
X616188Y701333D01*
X616186Y701333D01*
X614051Y699198D01*
X614051Y699197D01*
X614050Y699195D01*
X614051Y699194D01*
X614051Y699192D01*
X614053Y699192D01*
X614055Y699190D01*
X618198Y699190D01*
X618203Y699194D01*
G37*
G36*
X79088Y689770D02*
X79088Y689770D01*
X79088Y689771D01*
X79088Y691906D01*
X79084Y691911D01*
X79083Y691911D01*
X77075Y691911D01*
X77073Y691909D01*
X77071Y691910D01*
X74936Y689775D01*
X74936Y689773D01*
X74935Y689772D01*
X74936Y689770D01*
X74936Y689768D01*
X74938Y689768D01*
X74940Y689766D01*
X79083Y689766D01*
X79088Y689770D01*
G37*
G36*
X408276Y730567D02*
X408276Y730567D01*
X408276Y730568D01*
X408276Y734711D01*
X408275Y734712D01*
X408275Y734714D01*
X408273Y734714D01*
X408272Y734716D01*
X408270Y734714D01*
X408267Y734714D01*
X406132Y732579D01*
X406132Y732577D01*
X406131Y732576D01*
X406131Y730568D01*
X406135Y730563D01*
X406136Y730563D01*
X408271Y730563D01*
X408276Y730567D01*
G37*
G36*
X861348Y411581D02*
X861348Y411581D01*
X861349Y411582D01*
X861349Y415725D01*
X861347Y415726D01*
X861347Y415728D01*
X861346Y415728D01*
X861344Y415729D01*
X861342Y415728D01*
X861340Y415728D01*
X859205Y413593D01*
X859205Y413591D01*
X859204Y413590D01*
X859204Y411582D01*
X859208Y411577D01*
X859209Y411577D01*
X861344Y411577D01*
X861348Y411581D01*
G37*
G36*
X378748Y411581D02*
X378748Y411581D01*
X378749Y411582D01*
X378749Y415725D01*
X378747Y415726D01*
X378747Y415728D01*
X378746Y415728D01*
X378744Y415729D01*
X378742Y415728D01*
X378740Y415728D01*
X376605Y413593D01*
X376605Y413591D01*
X376604Y413590D01*
X376604Y411582D01*
X376608Y411577D01*
X376609Y411577D01*
X378744Y411577D01*
X378748Y411581D01*
G37*
G36*
X620048Y411581D02*
X620048Y411581D01*
X620049Y411582D01*
X620049Y415725D01*
X620047Y415726D01*
X620047Y415728D01*
X620046Y415728D01*
X620044Y415729D01*
X620042Y415728D01*
X620040Y415728D01*
X617905Y413593D01*
X617905Y413591D01*
X617904Y413590D01*
X617904Y411582D01*
X617908Y411577D01*
X617909Y411577D01*
X620044Y411577D01*
X620048Y411581D01*
G37*
G36*
X110461Y721143D02*
X110461Y721143D01*
X110461Y721144D01*
X110461Y725287D01*
X110460Y725288D01*
X110460Y725290D01*
X110458Y725290D01*
X110457Y725292D01*
X110455Y725290D01*
X110452Y725291D01*
X108317Y723156D01*
X108317Y723153D01*
X108316Y723152D01*
X108316Y721144D01*
X108320Y721139D01*
X108321Y721139D01*
X110456Y721139D01*
X110461Y721143D01*
G37*
G36*
X890876Y730567D02*
X890876Y730567D01*
X890876Y730568D01*
X890876Y734711D01*
X890875Y734712D01*
X890875Y734714D01*
X890873Y734714D01*
X890872Y734716D01*
X890870Y734714D01*
X890867Y734714D01*
X888732Y732579D01*
X888732Y732577D01*
X888731Y732576D01*
X888731Y730568D01*
X888735Y730563D01*
X888736Y730563D01*
X890871Y730563D01*
X890876Y730567D01*
G37*
G36*
X649576Y730567D02*
X649576Y730567D01*
X649576Y730568D01*
X649576Y734711D01*
X649575Y734712D01*
X649575Y734714D01*
X649573Y734714D01*
X649572Y734716D01*
X649570Y734714D01*
X649567Y734714D01*
X647432Y732579D01*
X647432Y732577D01*
X647431Y732576D01*
X647431Y730568D01*
X647435Y730563D01*
X647436Y730563D01*
X649571Y730563D01*
X649576Y730567D01*
G37*
G36*
X137448Y411581D02*
X137448Y411581D01*
X137449Y411582D01*
X137449Y415725D01*
X137447Y415726D01*
X137447Y415728D01*
X137446Y415728D01*
X137444Y415729D01*
X137442Y415728D01*
X137440Y415728D01*
X135305Y413593D01*
X135305Y413591D01*
X135304Y413590D01*
X135304Y411582D01*
X135308Y411577D01*
X135309Y411577D01*
X137444Y411577D01*
X137448Y411581D01*
G37*
G36*
X405146Y733564D02*
X405146Y733564D01*
X405147Y733564D01*
X407282Y735699D01*
X407283Y735701D01*
X407284Y735702D01*
X407283Y735703D01*
X407283Y735706D01*
X407280Y735706D01*
X407279Y735708D01*
X403136Y735708D01*
X403131Y735703D01*
X403131Y733568D01*
X403135Y733563D01*
X403136Y733563D01*
X405144Y733563D01*
X405146Y733564D01*
G37*
G36*
X646446Y733564D02*
X646446Y733564D01*
X646447Y733564D01*
X648582Y735699D01*
X648583Y735701D01*
X648584Y735702D01*
X648583Y735703D01*
X648583Y735706D01*
X648580Y735706D01*
X648579Y735708D01*
X644436Y735708D01*
X644431Y735703D01*
X644431Y733568D01*
X644435Y733563D01*
X644436Y733563D01*
X646444Y733563D01*
X646446Y733564D01*
G37*
G36*
X887746Y733564D02*
X887746Y733564D01*
X887747Y733564D01*
X889882Y735699D01*
X889883Y735701D01*
X889884Y735702D01*
X889883Y735703D01*
X889883Y735706D01*
X889880Y735706D01*
X889879Y735708D01*
X885736Y735708D01*
X885731Y735703D01*
X885731Y733568D01*
X885735Y733563D01*
X885736Y733563D01*
X887744Y733563D01*
X887746Y733564D01*
G37*
G36*
X858218Y414578D02*
X858218Y414578D01*
X858220Y414578D01*
X860355Y416713D01*
X860355Y416715D01*
X860356Y416716D01*
X860355Y416717D01*
X860355Y416720D01*
X860353Y416720D01*
X860352Y416722D01*
X856209Y416722D01*
X856204Y416717D01*
X856204Y414582D01*
X856208Y414577D01*
X856209Y414577D01*
X858217Y414577D01*
X858218Y414578D01*
G37*
G36*
X134318Y414578D02*
X134318Y414578D01*
X134320Y414578D01*
X136455Y416713D01*
X136455Y416715D01*
X136456Y416716D01*
X136455Y416717D01*
X136455Y416720D01*
X136453Y416720D01*
X136452Y416722D01*
X132309Y416722D01*
X132304Y416717D01*
X132304Y414582D01*
X132308Y414577D01*
X132309Y414577D01*
X134317Y414577D01*
X134318Y414578D01*
G37*
G36*
X375618Y414578D02*
X375618Y414578D01*
X375620Y414578D01*
X377755Y416713D01*
X377755Y416715D01*
X377756Y416716D01*
X377755Y416717D01*
X377755Y416720D01*
X377753Y416720D01*
X377752Y416722D01*
X373609Y416722D01*
X373604Y416717D01*
X373604Y414582D01*
X373608Y414577D01*
X373609Y414577D01*
X375617Y414577D01*
X375618Y414578D01*
G37*
G36*
X107331Y724141D02*
X107331Y724141D01*
X107333Y724140D01*
X109468Y726275D01*
X109468Y726277D01*
X109469Y726278D01*
X109468Y726280D01*
X109468Y726282D01*
X109466Y726282D01*
X109464Y726284D01*
X105321Y726284D01*
X105316Y726280D01*
X105316Y726279D01*
X105316Y724144D01*
X105320Y724139D01*
X105321Y724139D01*
X107329Y724139D01*
X107331Y724141D01*
G37*
G36*
X616918Y414578D02*
X616918Y414578D01*
X616920Y414578D01*
X619055Y416713D01*
X619055Y416715D01*
X619056Y416716D01*
X619055Y416717D01*
X619055Y416720D01*
X619053Y416720D01*
X619052Y416722D01*
X614909Y416722D01*
X614904Y416717D01*
X614904Y414582D01*
X614908Y414577D01*
X614909Y414577D01*
X616917Y414577D01*
X616918Y414578D01*
G37*
G36*
X889753Y699064D02*
X889753Y699064D01*
X889755Y699064D01*
X889755Y699066D01*
X889757Y699067D01*
X889755Y699069D01*
X889755Y699071D01*
X887620Y701206D01*
X887618Y701206D01*
X887617Y701208D01*
X885609Y701208D01*
X885604Y701203D01*
X885604Y699068D01*
X885608Y699063D01*
X885609Y699063D01*
X889752Y699063D01*
X889753Y699064D01*
G37*
G36*
X109338Y689640D02*
X109338Y689640D01*
X109340Y689640D01*
X109340Y689642D01*
X109342Y689643D01*
X109340Y689645D01*
X109341Y689648D01*
X107206Y691783D01*
X107203Y691783D01*
X107202Y691784D01*
X105194Y691784D01*
X105189Y691780D01*
X105189Y691779D01*
X105189Y689644D01*
X105193Y689639D01*
X105194Y689639D01*
X109337Y689639D01*
X109338Y689640D01*
G37*
G36*
X648453Y699064D02*
X648453Y699064D01*
X648455Y699064D01*
X648455Y699066D01*
X648457Y699067D01*
X648455Y699069D01*
X648455Y699071D01*
X646320Y701206D01*
X646318Y701206D01*
X646317Y701208D01*
X644309Y701208D01*
X644304Y701203D01*
X644304Y699068D01*
X644308Y699063D01*
X644309Y699063D01*
X648452Y699063D01*
X648453Y699064D01*
G37*
G36*
X860226Y380332D02*
X860226Y380332D01*
X860228Y380332D01*
X860228Y380333D01*
X860229Y380335D01*
X860228Y380337D01*
X860228Y380339D01*
X858093Y382474D01*
X858091Y382474D01*
X858090Y382476D01*
X856082Y382476D01*
X856077Y382471D01*
X856077Y380336D01*
X856081Y380331D01*
X856082Y380331D01*
X860225Y380331D01*
X860226Y380332D01*
G37*
G36*
X407153Y699064D02*
X407153Y699064D01*
X407155Y699064D01*
X407155Y699066D01*
X407157Y699067D01*
X407155Y699069D01*
X407155Y699071D01*
X405020Y701206D01*
X405018Y701206D01*
X405017Y701208D01*
X403009Y701208D01*
X403004Y701203D01*
X403004Y699068D01*
X403008Y699063D01*
X403009Y699063D01*
X407152Y699063D01*
X407153Y699064D01*
G37*
G36*
X136326Y380332D02*
X136326Y380332D01*
X136328Y380332D01*
X136328Y380333D01*
X136329Y380335D01*
X136328Y380337D01*
X136328Y380339D01*
X134193Y382474D01*
X134191Y382474D01*
X134190Y382476D01*
X132182Y382476D01*
X132177Y382471D01*
X132177Y380336D01*
X132181Y380331D01*
X132182Y380331D01*
X136325Y380331D01*
X136326Y380332D01*
G37*
G36*
X377626Y380332D02*
X377626Y380332D01*
X377628Y380332D01*
X377628Y380333D01*
X377629Y380335D01*
X377628Y380337D01*
X377628Y380339D01*
X375493Y382474D01*
X375491Y382474D01*
X375490Y382476D01*
X373482Y382476D01*
X373477Y382471D01*
X373477Y380336D01*
X373481Y380331D01*
X373482Y380331D01*
X377625Y380331D01*
X377626Y380332D01*
G37*
G36*
X618926Y380332D02*
X618926Y380332D01*
X618928Y380332D01*
X618928Y380333D01*
X618929Y380335D01*
X618928Y380337D01*
X618928Y380339D01*
X616793Y382474D01*
X616791Y382474D01*
X616790Y382476D01*
X614782Y382476D01*
X614777Y382471D01*
X614777Y380336D01*
X614781Y380331D01*
X614782Y380331D01*
X618925Y380331D01*
X618926Y380332D01*
G37*
G36*
X373903Y730567D02*
X373903Y730567D01*
X373903Y730568D01*
X373903Y732576D01*
X373901Y732578D01*
X373901Y732579D01*
X371766Y734714D01*
X371765Y734714D01*
X371764Y734716D01*
X371762Y734715D01*
X371760Y734715D01*
X371760Y734712D01*
X371758Y734711D01*
X371758Y730568D01*
X371762Y730563D01*
X371763Y730563D01*
X373898Y730563D01*
X373903Y730567D01*
G37*
G36*
X344248Y411708D02*
X344248Y411708D01*
X344249Y411709D01*
X344249Y413717D01*
X344247Y413718D01*
X344247Y413720D01*
X342112Y415855D01*
X342110Y415855D01*
X342109Y415856D01*
X342108Y415855D01*
X342105Y415855D01*
X342105Y415853D01*
X342104Y415852D01*
X342104Y411709D01*
X342108Y411704D01*
X342109Y411704D01*
X344244Y411704D01*
X344248Y411708D01*
G37*
G36*
X826848Y411708D02*
X826848Y411708D01*
X826849Y411709D01*
X826849Y413717D01*
X826847Y413718D01*
X826847Y413720D01*
X824712Y415855D01*
X824710Y415855D01*
X824709Y415856D01*
X824708Y415855D01*
X824705Y415855D01*
X824705Y415853D01*
X824704Y415852D01*
X824704Y411709D01*
X824708Y411704D01*
X824709Y411704D01*
X826844Y411704D01*
X826848Y411708D01*
G37*
G36*
X585548Y411708D02*
X585548Y411708D01*
X585549Y411709D01*
X585549Y413717D01*
X585547Y413718D01*
X585547Y413720D01*
X583412Y415855D01*
X583410Y415855D01*
X583409Y415856D01*
X583408Y415855D01*
X583405Y415855D01*
X583405Y415853D01*
X583404Y415852D01*
X583404Y411709D01*
X583408Y411704D01*
X583409Y411704D01*
X585544Y411704D01*
X585548Y411708D01*
G37*
G36*
X102948Y411708D02*
X102948Y411708D01*
X102949Y411709D01*
X102949Y413717D01*
X102947Y413718D01*
X102947Y413720D01*
X100812Y415855D01*
X100810Y415855D01*
X100809Y415856D01*
X100808Y415855D01*
X100805Y415855D01*
X100805Y415853D01*
X100804Y415852D01*
X100804Y411709D01*
X100808Y411704D01*
X100809Y411704D01*
X102944Y411704D01*
X102948Y411708D01*
G37*
G36*
X856503Y730567D02*
X856503Y730567D01*
X856503Y730568D01*
X856503Y732576D01*
X856501Y732578D01*
X856501Y732579D01*
X854366Y734714D01*
X854365Y734714D01*
X854364Y734716D01*
X854362Y734715D01*
X854360Y734715D01*
X854360Y734712D01*
X854358Y734711D01*
X854358Y730568D01*
X854362Y730563D01*
X854363Y730563D01*
X856498Y730563D01*
X856503Y730567D01*
G37*
G36*
X76088Y721143D02*
X76088Y721143D01*
X76088Y721144D01*
X76088Y723152D01*
X76086Y723154D01*
X76087Y723156D01*
X73952Y725291D01*
X73950Y725291D01*
X73949Y725292D01*
X73947Y725291D01*
X73945Y725291D01*
X73945Y725289D01*
X73943Y725287D01*
X73943Y721144D01*
X73947Y721139D01*
X73948Y721139D01*
X76083Y721139D01*
X76088Y721143D01*
G37*
G36*
X615203Y730567D02*
X615203Y730567D01*
X615203Y730568D01*
X615203Y732576D01*
X615201Y732578D01*
X615201Y732579D01*
X613066Y734714D01*
X613065Y734714D01*
X613064Y734716D01*
X613062Y734715D01*
X613060Y734715D01*
X613060Y734712D01*
X613058Y734711D01*
X613058Y730568D01*
X613062Y730563D01*
X613063Y730563D01*
X615198Y730563D01*
X615203Y730567D01*
G37*
D10*
X208600Y635950D03*
X208600Y765950D03*
X46700Y765950D03*
X46700Y635950D03*
D11*
X139700Y643175D03*
X139700Y633175D03*
D12*
X75963Y663575D03*
X85963Y663575D03*
X143431Y682625D03*
X153431Y682625D03*
X155019Y723900D03*
X145019Y723900D03*
X167244Y662781D03*
X177244Y662781D03*
X90250Y736600D03*
X100250Y736600D03*
D11*
X114300Y651113D03*
X114300Y641113D03*
D13*
X133250Y666750D03*
X120750Y666750D03*
X108250Y666750D03*
X95750Y666750D03*
X145750Y666750D03*
X158250Y666750D03*
D14*
X73325Y708025D03*
X73325Y703025D03*
X73325Y698025D03*
X73325Y713025D03*
X73325Y718025D03*
D15*
X72325Y693025D03*
X72325Y723025D03*
D16*
X77075Y688275D03*
D17*
X82075Y689275D03*
X87075Y689275D03*
X92075Y689275D03*
X97075Y689275D03*
X102075Y689275D03*
D16*
X107075Y688275D03*
D15*
X111825Y693025D03*
D14*
X110825Y698025D03*
X110825Y703025D03*
X110825Y708025D03*
X110825Y713025D03*
X110825Y718025D03*
D15*
X111825Y723025D03*
D16*
X107075Y727775D03*
D17*
X102075Y726775D03*
X97075Y726775D03*
X92075Y726775D03*
X87075Y726775D03*
X82075Y726775D03*
D16*
X77075Y727775D03*
D12*
X89931Y675481D03*
X79931Y675481D03*
X126763Y682625D03*
X136763Y682625D03*
D18*
X152400Y754856D03*
X101600Y754856D03*
X139700Y754856D03*
X127000Y754856D03*
X114300Y754856D03*
D19*
X103021Y650850D03*
X103021Y641350D03*
X103021Y631850D03*
X77955Y631850D03*
X77955Y650850D03*
X150980Y631850D03*
X150980Y641350D03*
X150980Y650850D03*
X176046Y650850D03*
X176046Y631850D03*
D20*
X155475Y712306D03*
X155475Y695806D03*
X142975Y695806D03*
X142975Y712306D03*
D12*
X551100Y525463D03*
X541100Y525463D03*
X639525Y425450D03*
X649525Y425450D03*
X649525Y387350D03*
X639525Y387350D03*
X551100Y477838D03*
X541100Y477838D03*
X652700Y477838D03*
X642700Y477838D03*
X652700Y525463D03*
X642700Y525463D03*
X564913Y388938D03*
X574913Y388938D03*
D11*
X598488Y476488D03*
X598488Y466488D03*
D12*
X581263Y515938D03*
X571263Y515938D03*
D21*
X611413Y489597D02*
X611413Y484691D01*
X604913Y484691D02*
X604913Y489597D01*
X598413Y489597D02*
X598413Y484691D01*
X591913Y484691D02*
X591913Y489597D01*
X591913Y513703D02*
X591913Y518609D01*
X598413Y518609D02*
X598413Y513703D01*
X604913Y513703D02*
X604913Y518609D01*
X611413Y518609D02*
X611413Y513703D01*
D22*
X601663Y501650D03*
D23*
X601813Y117850D03*
D24*
X684213Y117850D03*
X521813Y117850D03*
D17*
X601663Y379713D03*
X606663Y379713D03*
X611663Y379713D03*
X596663Y379713D03*
X591663Y379713D03*
D16*
X616663Y378713D03*
X586663Y378713D03*
D15*
X621413Y383463D03*
D14*
X620413Y388463D03*
X620413Y393463D03*
X620413Y398463D03*
X620413Y403463D03*
X620413Y408463D03*
D15*
X621413Y413463D03*
D16*
X616663Y418213D03*
D17*
X611663Y417213D03*
X606663Y417213D03*
X601663Y417213D03*
X596663Y417213D03*
X591663Y417213D03*
D16*
X586663Y418213D03*
D15*
X581913Y413463D03*
D14*
X582913Y408463D03*
X582913Y403463D03*
X582913Y398463D03*
X582913Y393463D03*
X582913Y388463D03*
D15*
X581913Y383463D03*
D25*
X498475Y434975D03*
X498475Y450215D03*
X498475Y419735D03*
D11*
X627063Y374888D03*
X627063Y364888D03*
X660400Y409813D03*
X660400Y399813D03*
D18*
X498475Y358775D03*
X498475Y307975D03*
X498475Y346075D03*
X498475Y333375D03*
X498475Y320675D03*
D26*
X642963Y514183D03*
X652463Y514183D03*
X661963Y514183D03*
X661963Y489117D03*
X642963Y489117D03*
X541363Y514183D03*
X550863Y514183D03*
X560363Y514183D03*
X560363Y489117D03*
X541363Y489117D03*
D20*
X638275Y398150D03*
X638275Y414650D03*
X650775Y414650D03*
X650775Y398150D03*
D12*
X792400Y525463D03*
X782400Y525463D03*
X880825Y425450D03*
X890825Y425450D03*
X890825Y387350D03*
X880825Y387350D03*
X792400Y477838D03*
X782400Y477838D03*
X894000Y477838D03*
X884000Y477838D03*
X894000Y525463D03*
X884000Y525463D03*
X806213Y388938D03*
X816213Y388938D03*
D11*
X839788Y476488D03*
X839788Y466488D03*
D12*
X822563Y515938D03*
X812563Y515938D03*
D21*
X852713Y489597D02*
X852713Y484691D01*
X846213Y484691D02*
X846213Y489597D01*
X839713Y489597D02*
X839713Y484691D01*
X833213Y484691D02*
X833213Y489597D01*
X833213Y513703D02*
X833213Y518609D01*
X839713Y518609D02*
X839713Y513703D01*
X846213Y513703D02*
X846213Y518609D01*
X852713Y518609D02*
X852713Y513703D01*
D22*
X842963Y501650D03*
D23*
X843113Y117850D03*
D24*
X925513Y117850D03*
X763113Y117850D03*
D17*
X842963Y379713D03*
X847963Y379713D03*
X852963Y379713D03*
X837963Y379713D03*
X832963Y379713D03*
D16*
X857963Y378713D03*
X827963Y378713D03*
D15*
X862713Y383463D03*
D14*
X861713Y388463D03*
X861713Y393463D03*
X861713Y398463D03*
X861713Y403463D03*
X861713Y408463D03*
D15*
X862713Y413463D03*
D16*
X857963Y418213D03*
D17*
X852963Y417213D03*
X847963Y417213D03*
X842963Y417213D03*
X837963Y417213D03*
X832963Y417213D03*
D16*
X827963Y418213D03*
D15*
X823213Y413463D03*
D14*
X824213Y408463D03*
X824213Y403463D03*
X824213Y398463D03*
X824213Y393463D03*
X824213Y388463D03*
D15*
X823213Y383463D03*
D25*
X739775Y434975D03*
X739775Y450215D03*
X739775Y419735D03*
D11*
X868363Y374888D03*
X868363Y364888D03*
X901700Y409813D03*
X901700Y399813D03*
D18*
X739775Y358775D03*
X739775Y307975D03*
X739775Y346075D03*
X739775Y333375D03*
X739775Y320675D03*
D26*
X884263Y514183D03*
X893763Y514183D03*
X903263Y514183D03*
X903263Y489117D03*
X884263Y489117D03*
X782663Y514183D03*
X792163Y514183D03*
X801663Y514183D03*
X801663Y489117D03*
X782663Y489117D03*
D20*
X879575Y398150D03*
X879575Y414650D03*
X892075Y414650D03*
X892075Y398150D03*
D12*
X68500Y525463D03*
X58500Y525463D03*
X156925Y425450D03*
X166925Y425450D03*
X166925Y387350D03*
X156925Y387350D03*
X68500Y477838D03*
X58500Y477838D03*
X170100Y477838D03*
X160100Y477838D03*
X170100Y525463D03*
X160100Y525463D03*
X82313Y388938D03*
X92313Y388938D03*
D11*
X115888Y476488D03*
X115888Y466488D03*
D12*
X98663Y515938D03*
X88663Y515938D03*
D21*
X128813Y489597D02*
X128813Y484691D01*
X122313Y484691D02*
X122313Y489597D01*
X115813Y489597D02*
X115813Y484691D01*
X109313Y484691D02*
X109313Y489597D01*
X109313Y513703D02*
X109313Y518609D01*
X115813Y518609D02*
X115813Y513703D01*
X122313Y513703D02*
X122313Y518609D01*
X128813Y518609D02*
X128813Y513703D01*
D22*
X119063Y501650D03*
D23*
X119213Y117850D03*
D24*
X201613Y117850D03*
X39213Y117850D03*
D17*
X119063Y379713D03*
X124063Y379713D03*
X129063Y379713D03*
X114063Y379713D03*
X109063Y379713D03*
D16*
X134063Y378713D03*
X104063Y378713D03*
D15*
X138813Y383463D03*
D14*
X137813Y388463D03*
X137813Y393463D03*
X137813Y398463D03*
X137813Y403463D03*
X137813Y408463D03*
D15*
X138813Y413463D03*
D16*
X134063Y418213D03*
D17*
X129063Y417213D03*
X124063Y417213D03*
X119063Y417213D03*
X114063Y417213D03*
X109063Y417213D03*
D16*
X104063Y418213D03*
D15*
X99313Y413463D03*
D14*
X100313Y408463D03*
X100313Y403463D03*
X100313Y398463D03*
X100313Y393463D03*
X100313Y388463D03*
D15*
X99313Y383463D03*
D25*
X15875Y434975D03*
X15875Y450215D03*
X15875Y419735D03*
D11*
X144463Y374888D03*
X144463Y364888D03*
X177800Y409813D03*
X177800Y399813D03*
D18*
X15875Y358775D03*
X15875Y307975D03*
X15875Y346075D03*
X15875Y333375D03*
X15875Y320675D03*
D26*
X160363Y514183D03*
X169863Y514183D03*
X179363Y514183D03*
X179363Y489117D03*
X160363Y489117D03*
X58763Y514183D03*
X68263Y514183D03*
X77763Y514183D03*
X77763Y489117D03*
X58763Y489117D03*
D20*
X155675Y398150D03*
X155675Y414650D03*
X168175Y414650D03*
X168175Y398150D03*
D12*
X309800Y525463D03*
X299800Y525463D03*
X398225Y425450D03*
X408225Y425450D03*
X408225Y387350D03*
X398225Y387350D03*
X309800Y477838D03*
X299800Y477838D03*
X411400Y477838D03*
X401400Y477838D03*
X411400Y525463D03*
X401400Y525463D03*
X323613Y388938D03*
X333613Y388938D03*
D11*
X357188Y476488D03*
X357188Y466488D03*
D12*
X339963Y515938D03*
X329963Y515938D03*
D21*
X370113Y489597D02*
X370113Y484691D01*
X363613Y484691D02*
X363613Y489597D01*
X357113Y489597D02*
X357113Y484691D01*
X350613Y484691D02*
X350613Y489597D01*
X350613Y513703D02*
X350613Y518609D01*
X357113Y518609D02*
X357113Y513703D01*
X363613Y513703D02*
X363613Y518609D01*
X370113Y518609D02*
X370113Y513703D01*
D22*
X360363Y501650D03*
D23*
X360513Y117850D03*
D24*
X442913Y117850D03*
X280513Y117850D03*
D17*
X360363Y379713D03*
X365363Y379713D03*
X370363Y379713D03*
X355363Y379713D03*
X350363Y379713D03*
D16*
X375363Y378713D03*
X345363Y378713D03*
D15*
X380113Y383463D03*
D14*
X379113Y388463D03*
X379113Y393463D03*
X379113Y398463D03*
X379113Y403463D03*
X379113Y408463D03*
D15*
X380113Y413463D03*
D16*
X375363Y418213D03*
D17*
X370363Y417213D03*
X365363Y417213D03*
X360363Y417213D03*
X355363Y417213D03*
X350363Y417213D03*
D16*
X345363Y418213D03*
D15*
X340613Y413463D03*
D14*
X341613Y408463D03*
X341613Y403463D03*
X341613Y398463D03*
X341613Y393463D03*
X341613Y388463D03*
D15*
X340613Y383463D03*
D25*
X257175Y434975D03*
X257175Y450215D03*
X257175Y419735D03*
D11*
X385763Y374888D03*
X385763Y364888D03*
X419100Y409813D03*
X419100Y399813D03*
D18*
X257175Y358775D03*
X257175Y307975D03*
X257175Y346075D03*
X257175Y333375D03*
X257175Y320675D03*
D26*
X401663Y514183D03*
X411163Y514183D03*
X420663Y514183D03*
X420663Y489117D03*
X401663Y489117D03*
X300063Y514183D03*
X309563Y514183D03*
X319063Y514183D03*
X319063Y489117D03*
X300063Y489117D03*
D20*
X396975Y398150D03*
X396975Y414650D03*
X409475Y414650D03*
X409475Y398150D03*
D11*
X787441Y712077D03*
X787441Y722077D03*
D12*
X869714Y743797D03*
X859714Y743797D03*
X796792Y735088D03*
X786792Y735088D03*
D14*
X853740Y717449D03*
X853740Y712449D03*
X853740Y707449D03*
X853740Y722449D03*
X853740Y727449D03*
D15*
X852740Y702449D03*
X852740Y732449D03*
D16*
X857490Y697699D03*
D17*
X862490Y698699D03*
X867490Y698699D03*
X872490Y698699D03*
X877490Y698699D03*
X882490Y698699D03*
D16*
X887490Y697699D03*
D15*
X892240Y702449D03*
D14*
X891240Y707449D03*
X891240Y712449D03*
X891240Y717449D03*
X891240Y722449D03*
X891240Y727449D03*
D15*
X892240Y732449D03*
D16*
X887490Y737199D03*
D17*
X882490Y736199D03*
X877490Y736199D03*
X872490Y736199D03*
X867490Y736199D03*
X862490Y736199D03*
D16*
X857490Y737199D03*
D11*
X909930Y660989D03*
X909930Y650989D03*
D18*
X909796Y721418D03*
X909796Y670618D03*
X909796Y708718D03*
X909796Y696018D03*
X909796Y683318D03*
D25*
X908591Y759518D03*
X908591Y744278D03*
X908591Y774758D03*
D20*
X867565Y678299D03*
X884065Y678299D03*
X884065Y665799D03*
X867565Y665799D03*
D11*
X894071Y666255D03*
X894071Y676255D03*
X857848Y677966D03*
X857848Y667966D03*
D12*
X887933Y688718D03*
X877933Y688718D03*
D27*
X824014Y678448D02*
X824014Y671362D01*
X824014Y671362D01*
X824014Y678448D01*
X824014Y678448D01*
X824014Y676495D02*
X824014Y676495D01*
X817514Y678448D02*
X817514Y671362D01*
X817514Y671362D01*
X817514Y678448D01*
X817514Y678448D01*
X817514Y676495D02*
X817514Y676495D01*
X811014Y678448D02*
X811014Y671362D01*
X811014Y671362D01*
X811014Y678448D01*
X811014Y678448D01*
X811014Y676495D02*
X811014Y676495D01*
X804514Y678448D02*
X804514Y671362D01*
X804514Y671362D01*
X804514Y678448D01*
X804514Y678448D01*
X804514Y676495D02*
X804514Y676495D01*
X799184Y683778D02*
X792098Y683778D01*
X792098Y683778D01*
X799184Y683778D01*
X799184Y683778D01*
X799184Y690278D02*
X792098Y690278D01*
X792098Y690278D01*
X799184Y690278D01*
X799184Y690278D01*
X799184Y696778D02*
X792098Y696778D01*
X792098Y696778D01*
X799184Y696778D01*
X799184Y696778D01*
X799184Y703278D02*
X792098Y703278D01*
X792098Y703278D01*
X799184Y703278D01*
X799184Y703278D01*
X804514Y708608D02*
X804514Y715694D01*
X804514Y708608D02*
X804514Y708608D01*
X804514Y715694D01*
X804514Y715694D01*
X804514Y713741D02*
X804514Y713741D01*
X811014Y715694D02*
X811014Y708608D01*
X811014Y708608D01*
X811014Y715694D01*
X811014Y715694D01*
X811014Y713741D02*
X811014Y713741D01*
X817514Y715694D02*
X817514Y708608D01*
X817514Y708608D01*
X817514Y715694D01*
X817514Y715694D01*
X817514Y713741D02*
X817514Y713741D01*
X824014Y715694D02*
X824014Y708608D01*
X824014Y708608D01*
X824014Y715694D01*
X824014Y715694D01*
X824014Y713741D02*
X824014Y713741D01*
X829344Y703278D02*
X836430Y703278D01*
X829344Y703278D02*
X829344Y703278D01*
X836430Y703278D01*
X836430Y703278D01*
X836430Y696778D02*
X829344Y696778D01*
X829344Y696778D01*
X836430Y696778D01*
X836430Y696778D01*
X836430Y690278D02*
X829344Y690278D01*
X829344Y690278D01*
X836430Y690278D01*
X836430Y690278D01*
X836430Y683778D02*
X829344Y683778D01*
X829344Y683778D01*
X836430Y683778D01*
X836430Y683778D01*
D28*
X814264Y693528D03*
D11*
X825434Y721746D03*
X825434Y731746D03*
X545759Y712460D03*
X545759Y722460D03*
D12*
X628414Y743797D03*
X618414Y743797D03*
X555492Y735088D03*
X545492Y735088D03*
D14*
X612440Y717449D03*
X612440Y712449D03*
X612440Y707449D03*
X612440Y722449D03*
X612440Y727449D03*
D15*
X611440Y702449D03*
X611440Y732449D03*
D16*
X616190Y697699D03*
D17*
X621190Y698699D03*
X626190Y698699D03*
X631190Y698699D03*
X636190Y698699D03*
X641190Y698699D03*
D16*
X646190Y697699D03*
D15*
X650940Y702449D03*
D14*
X649940Y707449D03*
X649940Y712449D03*
X649940Y717449D03*
X649940Y722449D03*
X649940Y727449D03*
D15*
X650940Y732449D03*
D16*
X646190Y737199D03*
D17*
X641190Y736199D03*
X636190Y736199D03*
X631190Y736199D03*
X626190Y736199D03*
X621190Y736199D03*
D16*
X616190Y737199D03*
D11*
X668630Y660989D03*
X668630Y650989D03*
D18*
X668496Y721418D03*
X668496Y670618D03*
X668496Y708718D03*
X668496Y696018D03*
X668496Y683318D03*
D25*
X667291Y759518D03*
X667291Y744278D03*
X667291Y774758D03*
D20*
X626265Y678299D03*
X642765Y678299D03*
X642765Y665799D03*
X626265Y665799D03*
D11*
X652771Y666255D03*
X652771Y676255D03*
X616548Y677966D03*
X616548Y667966D03*
D12*
X646633Y688718D03*
X636633Y688718D03*
D27*
X582714Y678448D02*
X582714Y671362D01*
X582714Y671362D01*
X582714Y678448D01*
X582714Y678448D01*
X582714Y676495D02*
X582714Y676495D01*
X576214Y678448D02*
X576214Y671362D01*
X576214Y671362D01*
X576214Y678448D01*
X576214Y678448D01*
X576214Y676495D02*
X576214Y676495D01*
X569714Y678448D02*
X569714Y671362D01*
X569714Y671362D01*
X569714Y678448D01*
X569714Y678448D01*
X569714Y676495D02*
X569714Y676495D01*
X563214Y678448D02*
X563214Y671362D01*
X563214Y671362D01*
X563214Y678448D01*
X563214Y678448D01*
X563214Y676495D02*
X563214Y676495D01*
X557884Y683778D02*
X550798Y683778D01*
X550798Y683778D01*
X557884Y683778D01*
X557884Y683778D01*
X557884Y690278D02*
X550798Y690278D01*
X550798Y690278D01*
X557884Y690278D01*
X557884Y690278D01*
X557884Y696778D02*
X550798Y696778D01*
X550798Y696778D01*
X557884Y696778D01*
X557884Y696778D01*
X557884Y703278D02*
X550798Y703278D01*
X550798Y703278D01*
X557884Y703278D01*
X557884Y703278D01*
X563214Y708608D02*
X563214Y715694D01*
X563214Y708608D02*
X563214Y708608D01*
X563214Y715694D01*
X563214Y715694D01*
X563214Y713741D02*
X563214Y713741D01*
X569714Y715694D02*
X569714Y708608D01*
X569714Y708608D01*
X569714Y715694D01*
X569714Y715694D01*
X569714Y713741D02*
X569714Y713741D01*
X576214Y715694D02*
X576214Y708608D01*
X576214Y708608D01*
X576214Y715694D01*
X576214Y715694D01*
X576214Y713741D02*
X576214Y713741D01*
X582714Y715694D02*
X582714Y708608D01*
X582714Y708608D01*
X582714Y715694D01*
X582714Y715694D01*
X582714Y713741D02*
X582714Y713741D01*
X588044Y703278D02*
X595130Y703278D01*
X588044Y703278D02*
X588044Y703278D01*
X595130Y703278D01*
X595130Y703278D01*
X595130Y696778D02*
X588044Y696778D01*
X588044Y696778D01*
X595130Y696778D01*
X595130Y696778D01*
X595130Y690278D02*
X588044Y690278D01*
X588044Y690278D01*
X595130Y690278D01*
X595130Y690278D01*
X595130Y683778D02*
X588044Y683778D01*
X588044Y683778D01*
X595130Y683778D01*
X595130Y683778D01*
D28*
X572964Y693528D03*
D11*
X584134Y721746D03*
X584134Y731746D03*
X304841Y713608D03*
X304841Y723608D03*
D12*
X387114Y743797D03*
X377114Y743797D03*
X314192Y735088D03*
X304192Y735088D03*
D14*
X371140Y717449D03*
X371140Y712449D03*
X371140Y707449D03*
X371140Y722449D03*
X371140Y727449D03*
D15*
X370140Y702449D03*
X370140Y732449D03*
D16*
X374890Y697699D03*
D17*
X379890Y698699D03*
X384890Y698699D03*
X389890Y698699D03*
X394890Y698699D03*
X399890Y698699D03*
D16*
X404890Y697699D03*
D15*
X409640Y702449D03*
D14*
X408640Y707449D03*
X408640Y712449D03*
X408640Y717449D03*
X408640Y722449D03*
X408640Y727449D03*
D15*
X409640Y732449D03*
D16*
X404890Y737199D03*
D17*
X399890Y736199D03*
X394890Y736199D03*
X389890Y736199D03*
X384890Y736199D03*
X379890Y736199D03*
D16*
X374890Y737199D03*
D11*
X427330Y660989D03*
X427330Y650989D03*
D18*
X427196Y721418D03*
X427196Y670618D03*
X427196Y708718D03*
X427196Y696018D03*
X427196Y683318D03*
D25*
X425991Y759518D03*
X425991Y744278D03*
X425991Y774758D03*
D20*
X384965Y678299D03*
X401465Y678299D03*
X401465Y665799D03*
X384965Y665799D03*
D11*
X411471Y666255D03*
X411471Y676255D03*
X375248Y677966D03*
X375248Y667966D03*
D12*
X405333Y688718D03*
X395333Y688718D03*
D27*
X341414Y678448D02*
X341414Y671362D01*
X341414Y671362D01*
X341414Y678448D01*
X341414Y678448D01*
X341414Y676495D02*
X341414Y676495D01*
X334914Y678448D02*
X334914Y671362D01*
X334914Y671362D01*
X334914Y678448D01*
X334914Y678448D01*
X334914Y676495D02*
X334914Y676495D01*
X328414Y678448D02*
X328414Y671362D01*
X328414Y671362D01*
X328414Y678448D01*
X328414Y678448D01*
X328414Y676495D02*
X328414Y676495D01*
X321914Y678448D02*
X321914Y671362D01*
X321914Y671362D01*
X321914Y678448D01*
X321914Y678448D01*
X321914Y676495D02*
X321914Y676495D01*
X316584Y683778D02*
X309498Y683778D01*
X309498Y683778D01*
X316584Y683778D01*
X316584Y683778D01*
X316584Y690278D02*
X309498Y690278D01*
X309498Y690278D01*
X316584Y690278D01*
X316584Y690278D01*
X316584Y696778D02*
X309498Y696778D01*
X309498Y696778D01*
X316584Y696778D01*
X316584Y696778D01*
X316584Y703278D02*
X309498Y703278D01*
X309498Y703278D01*
X316584Y703278D01*
X316584Y703278D01*
X321914Y708608D02*
X321914Y715694D01*
X321914Y708608D02*
X321914Y708608D01*
X321914Y715694D01*
X321914Y715694D01*
X321914Y713741D02*
X321914Y713741D01*
X328414Y715694D02*
X328414Y708608D01*
X328414Y708608D01*
X328414Y715694D01*
X328414Y715694D01*
X328414Y713741D02*
X328414Y713741D01*
X334914Y715694D02*
X334914Y708608D01*
X334914Y708608D01*
X334914Y715694D01*
X334914Y715694D01*
X334914Y713741D02*
X334914Y713741D01*
X341414Y715694D02*
X341414Y708608D01*
X341414Y708608D01*
X341414Y715694D01*
X341414Y715694D01*
X341414Y713741D02*
X341414Y713741D01*
X346744Y703278D02*
X353830Y703278D01*
X346744Y703278D02*
X346744Y703278D01*
X353830Y703278D01*
X353830Y703278D01*
X353830Y696778D02*
X346744Y696778D01*
X346744Y696778D01*
X353830Y696778D01*
X353830Y696778D01*
X353830Y690278D02*
X346744Y690278D01*
X346744Y690278D01*
X353830Y690278D01*
X353830Y690278D01*
X353830Y683778D02*
X346744Y683778D01*
X346744Y683778D01*
X353830Y683778D01*
X353830Y683778D01*
D28*
X331664Y693528D03*
D11*
X342834Y721746D03*
X342834Y731746D03*
D29*
X176213Y688975D03*
X177006Y714375D03*
X82090Y681469D03*
X176213Y641350D03*
X63500Y663575D03*
X101981Y719356D03*
X78666Y739775D03*
X120650Y692150D03*
X119967Y700738D03*
X171450Y722313D03*
D30*
X571500Y523875D03*
X573088Y365125D03*
D29*
X573088Y378576D03*
X604838Y467159D03*
X619125Y436563D03*
X604814Y427038D03*
D30*
X674688Y222250D03*
X673100Y211138D03*
X663575Y211138D03*
X654050Y222250D03*
X654050Y211138D03*
X663575Y222250D03*
X644525Y222250D03*
X644525Y211138D03*
X635000Y211138D03*
X635000Y222250D03*
X625475Y222250D03*
X625475Y211138D03*
X615950Y211138D03*
X615950Y222250D03*
X563563Y220663D03*
X561975Y209550D03*
X554038Y220663D03*
X552450Y209550D03*
X542925Y209550D03*
X546100Y220663D03*
X536575Y220663D03*
X527050Y220663D03*
X533400Y209550D03*
X636588Y538163D03*
D29*
X557382Y350838D03*
X612775Y393700D03*
X627063Y355600D03*
X581263Y490538D03*
D30*
X592364Y476660D03*
X617989Y476250D03*
D29*
X587375Y436563D03*
X604838Y436563D03*
X585865Y463550D03*
X585788Y446088D03*
D30*
X607576Y525463D03*
X598488Y525463D03*
D29*
X504825Y401638D03*
X604838Y354013D03*
X601663Y403225D03*
X587553Y355600D03*
X604838Y387519D03*
X560388Y333375D03*
X558993Y372269D03*
X589495Y371475D03*
X504825Y393050D03*
X596163Y410312D03*
D30*
X812800Y523875D03*
X814388Y365125D03*
D29*
X814388Y378576D03*
X846138Y467159D03*
X860425Y436563D03*
X846114Y427038D03*
D30*
X915988Y222250D03*
X914400Y211138D03*
X904875Y211138D03*
X895350Y222250D03*
X895350Y211138D03*
X904875Y222250D03*
X885825Y222250D03*
X885825Y211138D03*
X876300Y211138D03*
X876300Y222250D03*
X866775Y222250D03*
X866775Y211138D03*
X857250Y211138D03*
X857250Y222250D03*
X804863Y220663D03*
X803275Y209550D03*
X795338Y220663D03*
X793750Y209550D03*
X784225Y209550D03*
X787400Y220663D03*
X777875Y220663D03*
X768350Y220663D03*
X774700Y209550D03*
X877888Y538163D03*
D29*
X798682Y350838D03*
X854075Y393700D03*
X868363Y355600D03*
X822563Y490538D03*
D30*
X833664Y476660D03*
X859289Y476250D03*
D29*
X828675Y436563D03*
X846138Y436563D03*
X827165Y463550D03*
X827088Y446088D03*
D30*
X848876Y525463D03*
X839788Y525463D03*
D29*
X746125Y401638D03*
X846138Y354013D03*
X842963Y403225D03*
X828853Y355600D03*
X846138Y387519D03*
X801688Y333375D03*
X800293Y372269D03*
X830795Y371475D03*
X746125Y393050D03*
X837463Y410312D03*
D30*
X88900Y523875D03*
X90488Y365125D03*
D29*
X90488Y378576D03*
X122238Y467159D03*
X136525Y436563D03*
X122214Y427038D03*
D30*
X192088Y222250D03*
X190500Y211138D03*
X180975Y211138D03*
X171450Y222250D03*
X171450Y211138D03*
X180975Y222250D03*
X161925Y222250D03*
X161925Y211138D03*
X152400Y211138D03*
X152400Y222250D03*
X142875Y222250D03*
X142875Y211138D03*
X133350Y211138D03*
X133350Y222250D03*
X80963Y220663D03*
X79375Y209550D03*
X71438Y220663D03*
X69850Y209550D03*
X60325Y209550D03*
X63500Y220663D03*
X53975Y220663D03*
X44450Y220663D03*
X50800Y209550D03*
X153988Y538163D03*
D29*
X74782Y350838D03*
X130175Y393700D03*
X144463Y355600D03*
X98663Y490538D03*
D30*
X109764Y476660D03*
X135389Y476250D03*
D29*
X104775Y436563D03*
X122238Y436563D03*
X103265Y463550D03*
X103188Y446088D03*
D30*
X124976Y525463D03*
X115888Y525463D03*
D29*
X22225Y401638D03*
X122238Y354013D03*
X119063Y403225D03*
X104953Y355600D03*
X122238Y387519D03*
X77788Y333375D03*
X76393Y372269D03*
X106895Y371475D03*
X22225Y393050D03*
X113563Y410312D03*
D30*
X330200Y523875D03*
X331788Y365125D03*
D29*
X331788Y378576D03*
X363538Y467159D03*
X377825Y436563D03*
X363514Y427038D03*
D30*
X433388Y222250D03*
X431800Y211138D03*
X422275Y211138D03*
X412750Y222250D03*
X412750Y211138D03*
X422275Y222250D03*
X403225Y222250D03*
X403225Y211138D03*
X393700Y211138D03*
X393700Y222250D03*
X384175Y222250D03*
X384175Y211138D03*
X374650Y211138D03*
X374650Y222250D03*
X322263Y220663D03*
X320675Y209550D03*
X312738Y220663D03*
X311150Y209550D03*
X301625Y209550D03*
X304800Y220663D03*
X295275Y220663D03*
X285750Y220663D03*
X292100Y209550D03*
X395288Y538163D03*
D29*
X316082Y350838D03*
X371475Y393700D03*
X385763Y355600D03*
X339963Y490538D03*
D30*
X351064Y476660D03*
X376689Y476250D03*
D29*
X346075Y436563D03*
X363538Y436563D03*
X344565Y463550D03*
X344488Y446088D03*
D30*
X366276Y525463D03*
X357188Y525463D03*
D29*
X263525Y401638D03*
X363538Y354013D03*
X360363Y403225D03*
X346253Y355600D03*
X363538Y387519D03*
X319088Y333375D03*
X317693Y372269D03*
X348195Y371475D03*
X263525Y393050D03*
X354863Y410312D03*
D31*
X814696Y757774D03*
X814696Y743486D03*
X808346Y750637D03*
X777737Y777003D03*
X777737Y768192D03*
D29*
X889351Y675804D03*
X865853Y717458D03*
X857575Y664322D03*
D32*
X865471Y769445D03*
X877380Y769445D03*
X888905Y769445D03*
D29*
X883288Y717560D03*
X869714Y736530D03*
X777779Y712578D03*
X774731Y664743D03*
X778440Y673180D03*
X843805Y703532D03*
X835389Y674430D03*
X846468Y718334D03*
X785376Y691332D03*
X830816Y710019D03*
X839210Y728269D03*
X845811Y734589D03*
X905604Y731344D03*
X781158Y683672D03*
X838403Y696778D03*
D33*
X856635Y646125D03*
X867007Y646125D03*
X877380Y646125D03*
X818601Y635752D03*
X818986Y648430D03*
X818601Y623074D03*
D29*
X794895Y674430D03*
X837346Y715635D03*
D31*
X573396Y757774D03*
X573396Y743486D03*
X567046Y750637D03*
X536437Y777003D03*
X536437Y768192D03*
D29*
X648051Y675804D03*
X624553Y717458D03*
X616275Y664322D03*
D32*
X624171Y769445D03*
X636080Y769445D03*
X647605Y769445D03*
D29*
X641988Y717560D03*
X628414Y736530D03*
X536479Y712578D03*
X533431Y664743D03*
X537140Y673180D03*
X602505Y703532D03*
X594089Y674430D03*
X605168Y718334D03*
X544076Y691332D03*
X589516Y710019D03*
X597910Y728269D03*
X604511Y734589D03*
X664304Y731344D03*
X539858Y683672D03*
X597103Y696778D03*
D33*
X615335Y646125D03*
X625707Y646125D03*
X636080Y646125D03*
X577301Y635752D03*
X577686Y648430D03*
X577301Y623074D03*
D29*
X553595Y674430D03*
X596046Y715635D03*
D31*
X332096Y757774D03*
X332096Y743486D03*
X325746Y750637D03*
X295137Y777003D03*
X295137Y768192D03*
D29*
X406751Y675804D03*
X383253Y717458D03*
X374975Y664322D03*
D32*
X382871Y769445D03*
X394780Y769445D03*
X406305Y769445D03*
D29*
X400688Y717560D03*
X387114Y736530D03*
X295179Y712578D03*
X292131Y664743D03*
X295840Y673180D03*
X361205Y703532D03*
X352789Y674430D03*
X363868Y718334D03*
X302776Y691332D03*
X348216Y710019D03*
X356610Y728269D03*
X363211Y734589D03*
X423004Y731344D03*
X298558Y683672D03*
X355803Y696778D03*
D33*
X374035Y646125D03*
X384407Y646125D03*
X394780Y646125D03*
X336001Y635752D03*
X336386Y648430D03*
X336001Y623074D03*
D29*
X312295Y674430D03*
X354746Y715635D03*
M02*
