G04 EAGLE Gerber RS-274X export*
G75*
%MOMM*%
%FSLAX34Y34*%
%LPD*%
%INSolderpaste Bottom*%
%IPPOS*%
%AMOC8*
5,1,8,0,0,1.08239X$1,22.5*%
G01*
%ADD10R,0.611800X0.511800*%
%ADD11R,0.511800X0.611800*%
%ADD12R,0.550000X0.300000*%
%ADD13R,0.350000X0.300000*%
%ADD14R,0.300000X0.350000*%
%ADD15R,0.300000X0.550000*%
%ADD16R,1.208800X0.680200*%
%ADD17R,0.961800X0.961800*%
%ADD18C,0.320000*%
%ADD19R,2.500000X1.700000*%
%ADD20R,3.000000X7.000000*%
%ADD21R,0.680200X1.208800*%
%ADD22C,0.337100*%
%ADD23R,2.200000X2.200000*%

G36*
X829467Y414962D02*
X829467Y414962D01*
X829468Y414963D01*
X829468Y416463D01*
X829463Y416467D01*
X829463Y416468D01*
X826463Y416468D01*
X826461Y416466D01*
X826459Y416466D01*
X826459Y416465D01*
X826458Y416463D01*
X826459Y416461D01*
X826459Y416459D01*
X827959Y414959D01*
X827961Y414959D01*
X827963Y414958D01*
X829463Y414958D01*
X829467Y414962D01*
G37*
G36*
X376395Y733948D02*
X376395Y733948D01*
X376395Y733949D01*
X376395Y735449D01*
X376391Y735454D01*
X376390Y735453D01*
X376390Y735454D01*
X373390Y735454D01*
X373389Y735453D01*
X373387Y735453D01*
X373387Y735451D01*
X373385Y735449D01*
X373387Y735448D01*
X373386Y735445D01*
X374886Y733945D01*
X374889Y733945D01*
X374890Y733944D01*
X376390Y733944D01*
X376395Y733948D01*
G37*
G36*
X346867Y414962D02*
X346867Y414962D01*
X346868Y414963D01*
X346868Y416463D01*
X346863Y416467D01*
X346863Y416468D01*
X343863Y416468D01*
X343861Y416466D01*
X343859Y416466D01*
X343859Y416465D01*
X343858Y416463D01*
X343859Y416461D01*
X343859Y416459D01*
X345359Y414959D01*
X345361Y414959D01*
X345363Y414958D01*
X346863Y414958D01*
X346867Y414962D01*
G37*
G36*
X617695Y733948D02*
X617695Y733948D01*
X617695Y733949D01*
X617695Y735449D01*
X617691Y735454D01*
X617690Y735453D01*
X617690Y735454D01*
X614690Y735454D01*
X614689Y735453D01*
X614687Y735453D01*
X614687Y735451D01*
X614685Y735449D01*
X614687Y735448D01*
X614686Y735445D01*
X616186Y733945D01*
X616189Y733945D01*
X616190Y733944D01*
X617690Y733944D01*
X617695Y733948D01*
G37*
G36*
X858995Y733948D02*
X858995Y733948D01*
X858995Y733949D01*
X858995Y735449D01*
X858991Y735454D01*
X858990Y735453D01*
X858990Y735454D01*
X855990Y735454D01*
X855989Y735453D01*
X855987Y735453D01*
X855987Y735451D01*
X855985Y735449D01*
X855987Y735448D01*
X855986Y735445D01*
X857486Y733945D01*
X857489Y733945D01*
X857490Y733944D01*
X858990Y733944D01*
X858995Y733948D01*
G37*
G36*
X588167Y414962D02*
X588167Y414962D01*
X588168Y414963D01*
X588168Y416463D01*
X588163Y416467D01*
X588163Y416468D01*
X585163Y416468D01*
X585161Y416466D01*
X585159Y416466D01*
X585159Y416465D01*
X585158Y416463D01*
X585159Y416461D01*
X585159Y416459D01*
X586659Y414959D01*
X586661Y414959D01*
X586663Y414958D01*
X588163Y414958D01*
X588167Y414962D01*
G37*
G36*
X105567Y414962D02*
X105567Y414962D01*
X105568Y414963D01*
X105568Y416463D01*
X105563Y416467D01*
X105563Y416468D01*
X102563Y416468D01*
X102561Y416466D01*
X102559Y416466D01*
X102559Y416465D01*
X102558Y416463D01*
X102559Y416461D01*
X102559Y416459D01*
X104059Y414959D01*
X104061Y414959D01*
X104063Y414958D01*
X105563Y414958D01*
X105567Y414962D01*
G37*
G36*
X78580Y724524D02*
X78580Y724524D01*
X78580Y724525D01*
X78580Y726025D01*
X78576Y726030D01*
X78575Y726030D01*
X75575Y726030D01*
X75574Y726029D01*
X75572Y726029D01*
X75572Y726027D01*
X75570Y726026D01*
X75572Y726024D01*
X75571Y726021D01*
X77071Y724521D01*
X77074Y724521D01*
X77075Y724520D01*
X78575Y724520D01*
X78580Y724524D01*
G37*
G36*
X110076Y691521D02*
X110076Y691521D01*
X110078Y691521D01*
X110078Y691523D01*
X110080Y691525D01*
X110080Y694525D01*
X110076Y694530D01*
X110075Y694530D01*
X108575Y694530D01*
X108570Y694526D01*
X108570Y694525D01*
X108570Y693025D01*
X108572Y693023D01*
X108571Y693021D01*
X110071Y691521D01*
X110073Y691521D01*
X110074Y691520D01*
X110076Y691521D01*
G37*
G36*
X407891Y700945D02*
X407891Y700945D01*
X407893Y700945D01*
X407893Y700947D01*
X407895Y700949D01*
X407895Y703949D01*
X407891Y703954D01*
X407890Y703953D01*
X407890Y703954D01*
X406390Y703954D01*
X406385Y703949D01*
X406385Y702449D01*
X406386Y702447D01*
X406386Y702445D01*
X407886Y700945D01*
X407888Y700945D01*
X407889Y700944D01*
X407891Y700945D01*
G37*
G36*
X649191Y700945D02*
X649191Y700945D01*
X649193Y700945D01*
X649193Y700947D01*
X649195Y700949D01*
X649195Y703949D01*
X649191Y703954D01*
X649190Y703953D01*
X649190Y703954D01*
X647690Y703954D01*
X647685Y703949D01*
X647685Y702449D01*
X647686Y702447D01*
X647686Y702445D01*
X649186Y700945D01*
X649188Y700945D01*
X649189Y700944D01*
X649191Y700945D01*
G37*
G36*
X890491Y700945D02*
X890491Y700945D01*
X890493Y700945D01*
X890493Y700947D01*
X890495Y700949D01*
X890495Y703949D01*
X890491Y703954D01*
X890490Y703953D01*
X890490Y703954D01*
X888990Y703954D01*
X888985Y703949D01*
X888985Y702449D01*
X888986Y702447D01*
X888986Y702445D01*
X890486Y700945D01*
X890488Y700945D01*
X890489Y700944D01*
X890491Y700945D01*
G37*
G36*
X860963Y381959D02*
X860963Y381959D01*
X860966Y381959D01*
X860966Y381961D01*
X860968Y381963D01*
X860968Y384963D01*
X860963Y384967D01*
X860963Y384968D01*
X859463Y384968D01*
X859458Y384963D01*
X859458Y383463D01*
X859459Y383461D01*
X859459Y383459D01*
X860959Y381959D01*
X860961Y381959D01*
X860962Y381958D01*
X860963Y381959D01*
G37*
G36*
X378363Y381959D02*
X378363Y381959D01*
X378366Y381959D01*
X378366Y381961D01*
X378368Y381963D01*
X378368Y384963D01*
X378363Y384967D01*
X378363Y384968D01*
X376863Y384968D01*
X376858Y384963D01*
X376858Y383463D01*
X376859Y383461D01*
X376859Y383459D01*
X378359Y381959D01*
X378361Y381959D01*
X378362Y381958D01*
X378363Y381959D01*
G37*
G36*
X619663Y381959D02*
X619663Y381959D01*
X619666Y381959D01*
X619666Y381961D01*
X619668Y381963D01*
X619668Y384963D01*
X619663Y384967D01*
X619663Y384968D01*
X618163Y384968D01*
X618158Y384963D01*
X618158Y383463D01*
X618159Y383461D01*
X618159Y383459D01*
X619659Y381959D01*
X619661Y381959D01*
X619662Y381958D01*
X619663Y381959D01*
G37*
G36*
X137063Y381959D02*
X137063Y381959D01*
X137066Y381959D01*
X137066Y381961D01*
X137068Y381963D01*
X137068Y384963D01*
X137063Y384967D01*
X137063Y384968D01*
X135563Y384968D01*
X135558Y384963D01*
X135558Y383463D01*
X135559Y383461D01*
X135559Y383459D01*
X137059Y381959D01*
X137061Y381959D01*
X137062Y381958D01*
X137063Y381959D01*
G37*
G36*
X407895Y730948D02*
X407895Y730948D01*
X407895Y730949D01*
X407895Y733949D01*
X407894Y733950D01*
X407894Y733952D01*
X407892Y733952D01*
X407891Y733954D01*
X407889Y733952D01*
X407886Y733952D01*
X406386Y732452D01*
X406386Y732451D01*
X406385Y732450D01*
X406386Y732450D01*
X406385Y732449D01*
X406385Y730949D01*
X406389Y730944D01*
X406390Y730944D01*
X407890Y730944D01*
X407895Y730948D01*
G37*
G36*
X137067Y411962D02*
X137067Y411962D01*
X137068Y411963D01*
X137068Y414963D01*
X137066Y414964D01*
X137066Y414966D01*
X137065Y414966D01*
X137063Y414967D01*
X137061Y414966D01*
X137059Y414966D01*
X135559Y413466D01*
X135559Y413464D01*
X135558Y413464D01*
X135558Y413463D01*
X135558Y411963D01*
X135562Y411958D01*
X135563Y411958D01*
X137063Y411958D01*
X137067Y411962D01*
G37*
G36*
X110080Y721524D02*
X110080Y721524D01*
X110080Y721525D01*
X110080Y724525D01*
X110079Y724526D01*
X110079Y724528D01*
X110077Y724528D01*
X110076Y724530D01*
X110074Y724528D01*
X110071Y724529D01*
X108571Y723029D01*
X108571Y723027D01*
X108571Y723026D01*
X108570Y723025D01*
X108570Y721525D01*
X108574Y721520D01*
X108575Y721520D01*
X110075Y721520D01*
X110080Y721524D01*
G37*
G36*
X378367Y411962D02*
X378367Y411962D01*
X378368Y411963D01*
X378368Y414963D01*
X378366Y414964D01*
X378366Y414966D01*
X378365Y414966D01*
X378363Y414967D01*
X378361Y414966D01*
X378359Y414966D01*
X376859Y413466D01*
X376859Y413464D01*
X376858Y413464D01*
X376858Y413463D01*
X376858Y411963D01*
X376862Y411958D01*
X376863Y411958D01*
X378363Y411958D01*
X378367Y411962D01*
G37*
G36*
X860967Y411962D02*
X860967Y411962D01*
X860968Y411963D01*
X860968Y414963D01*
X860966Y414964D01*
X860966Y414966D01*
X860965Y414966D01*
X860963Y414967D01*
X860961Y414966D01*
X860959Y414966D01*
X859459Y413466D01*
X859459Y413464D01*
X859458Y413464D01*
X859458Y413463D01*
X859458Y411963D01*
X859462Y411958D01*
X859463Y411958D01*
X860963Y411958D01*
X860967Y411962D01*
G37*
G36*
X619667Y411962D02*
X619667Y411962D01*
X619668Y411963D01*
X619668Y414963D01*
X619666Y414964D01*
X619666Y414966D01*
X619665Y414966D01*
X619663Y414967D01*
X619661Y414966D01*
X619659Y414966D01*
X618159Y413466D01*
X618159Y413464D01*
X618158Y413464D01*
X618158Y413463D01*
X618158Y411963D01*
X618162Y411958D01*
X618163Y411958D01*
X619663Y411958D01*
X619667Y411962D01*
G37*
G36*
X890495Y730948D02*
X890495Y730948D01*
X890495Y730949D01*
X890495Y733949D01*
X890494Y733950D01*
X890494Y733952D01*
X890492Y733952D01*
X890491Y733954D01*
X890489Y733952D01*
X890486Y733952D01*
X888986Y732452D01*
X888986Y732451D01*
X888985Y732450D01*
X888986Y732450D01*
X888985Y732449D01*
X888985Y730949D01*
X888989Y730944D01*
X888990Y730944D01*
X890490Y730944D01*
X890495Y730948D01*
G37*
G36*
X649195Y730948D02*
X649195Y730948D01*
X649195Y730949D01*
X649195Y733949D01*
X649194Y733950D01*
X649194Y733952D01*
X649192Y733952D01*
X649191Y733954D01*
X649189Y733952D01*
X649186Y733952D01*
X647686Y732452D01*
X647686Y732451D01*
X647685Y732450D01*
X647686Y732450D01*
X647685Y732449D01*
X647685Y730949D01*
X647689Y730944D01*
X647690Y730944D01*
X649190Y730944D01*
X649195Y730948D01*
G37*
G36*
X854491Y700945D02*
X854491Y700945D01*
X854493Y700945D01*
X855993Y702445D01*
X855994Y702448D01*
X855995Y702449D01*
X855995Y703949D01*
X855991Y703954D01*
X855990Y703953D01*
X855990Y703954D01*
X854490Y703954D01*
X854485Y703949D01*
X854485Y700949D01*
X854486Y700947D01*
X854486Y700946D01*
X854488Y700946D01*
X854489Y700944D01*
X854491Y700945D01*
G37*
G36*
X583664Y381959D02*
X583664Y381959D01*
X583666Y381959D01*
X585166Y383459D01*
X585166Y383461D01*
X585167Y383462D01*
X585168Y383463D01*
X585168Y384963D01*
X585163Y384967D01*
X585163Y384968D01*
X583663Y384968D01*
X583658Y384963D01*
X583658Y381963D01*
X583659Y381961D01*
X583659Y381959D01*
X583660Y381959D01*
X583662Y381958D01*
X583664Y381959D01*
G37*
G36*
X101064Y381959D02*
X101064Y381959D01*
X101066Y381959D01*
X102566Y383459D01*
X102566Y383461D01*
X102567Y383462D01*
X102568Y383463D01*
X102568Y384963D01*
X102563Y384967D01*
X102563Y384968D01*
X101063Y384968D01*
X101058Y384963D01*
X101058Y381963D01*
X101059Y381961D01*
X101059Y381959D01*
X101060Y381959D01*
X101062Y381958D01*
X101064Y381959D01*
G37*
G36*
X342364Y381959D02*
X342364Y381959D01*
X342366Y381959D01*
X343866Y383459D01*
X343866Y383461D01*
X343867Y383462D01*
X343868Y383463D01*
X343868Y384963D01*
X343863Y384967D01*
X343863Y384968D01*
X342363Y384968D01*
X342358Y384963D01*
X342358Y381963D01*
X342359Y381961D01*
X342359Y381959D01*
X342360Y381959D01*
X342362Y381958D01*
X342364Y381959D01*
G37*
G36*
X371891Y700945D02*
X371891Y700945D01*
X371893Y700945D01*
X373393Y702445D01*
X373394Y702448D01*
X373395Y702449D01*
X373395Y703949D01*
X373391Y703954D01*
X373390Y703953D01*
X373390Y703954D01*
X371890Y703954D01*
X371885Y703949D01*
X371885Y700949D01*
X371886Y700947D01*
X371886Y700946D01*
X371888Y700946D01*
X371889Y700944D01*
X371891Y700945D01*
G37*
G36*
X613191Y700945D02*
X613191Y700945D01*
X613193Y700945D01*
X614693Y702445D01*
X614694Y702448D01*
X614695Y702449D01*
X614695Y703949D01*
X614691Y703954D01*
X614690Y703953D01*
X614690Y703954D01*
X613190Y703954D01*
X613185Y703949D01*
X613185Y700949D01*
X613186Y700947D01*
X613186Y700946D01*
X613188Y700946D01*
X613189Y700944D01*
X613191Y700945D01*
G37*
G36*
X74076Y691522D02*
X74076Y691522D01*
X74079Y691521D01*
X75579Y693021D01*
X75579Y693024D01*
X75580Y693025D01*
X75580Y694525D01*
X75576Y694530D01*
X75575Y694530D01*
X74075Y694530D01*
X74070Y694526D01*
X74070Y694525D01*
X74070Y691525D01*
X74071Y691524D01*
X74071Y691522D01*
X74073Y691522D01*
X74074Y691520D01*
X74076Y691522D01*
G37*
G36*
X824964Y381959D02*
X824964Y381959D01*
X824966Y381959D01*
X826466Y383459D01*
X826466Y383461D01*
X826467Y383462D01*
X826468Y383463D01*
X826468Y384963D01*
X826463Y384967D01*
X826463Y384968D01*
X824963Y384968D01*
X824958Y384963D01*
X824958Y381963D01*
X824959Y381961D01*
X824959Y381959D01*
X824960Y381959D01*
X824962Y381958D01*
X824964Y381959D01*
G37*
G36*
X858995Y699448D02*
X858995Y699448D01*
X858995Y699449D01*
X858995Y700949D01*
X858991Y700954D01*
X858990Y700953D01*
X858990Y700954D01*
X857490Y700954D01*
X857488Y700952D01*
X857486Y700952D01*
X855986Y699452D01*
X855986Y699451D01*
X855985Y699449D01*
X855986Y699448D01*
X855986Y699446D01*
X855988Y699446D01*
X855990Y699444D01*
X858990Y699444D01*
X858995Y699448D01*
G37*
G36*
X78580Y690024D02*
X78580Y690024D01*
X78580Y690025D01*
X78580Y691525D01*
X78576Y691530D01*
X78575Y691530D01*
X77075Y691530D01*
X77073Y691528D01*
X77071Y691529D01*
X75571Y690029D01*
X75571Y690027D01*
X75570Y690026D01*
X75571Y690024D01*
X75571Y690022D01*
X75573Y690022D01*
X75575Y690020D01*
X78575Y690020D01*
X78580Y690024D01*
G37*
G36*
X376395Y699448D02*
X376395Y699448D01*
X376395Y699449D01*
X376395Y700949D01*
X376391Y700954D01*
X376390Y700953D01*
X376390Y700954D01*
X374890Y700954D01*
X374888Y700952D01*
X374886Y700952D01*
X373386Y699452D01*
X373386Y699451D01*
X373385Y699449D01*
X373386Y699448D01*
X373386Y699446D01*
X373388Y699446D01*
X373390Y699444D01*
X376390Y699444D01*
X376395Y699448D01*
G37*
G36*
X617695Y699448D02*
X617695Y699448D01*
X617695Y699449D01*
X617695Y700949D01*
X617691Y700954D01*
X617690Y700953D01*
X617690Y700954D01*
X616190Y700954D01*
X616188Y700952D01*
X616186Y700952D01*
X614686Y699452D01*
X614686Y699451D01*
X614685Y699449D01*
X614686Y699448D01*
X614686Y699446D01*
X614688Y699446D01*
X614690Y699444D01*
X617690Y699444D01*
X617695Y699448D01*
G37*
G36*
X105567Y380462D02*
X105567Y380462D01*
X105568Y380463D01*
X105568Y381963D01*
X105563Y381967D01*
X105563Y381968D01*
X104063Y381968D01*
X104061Y381966D01*
X104059Y381966D01*
X102559Y380466D01*
X102559Y380464D01*
X102558Y380463D01*
X102559Y380462D01*
X102559Y380459D01*
X102561Y380459D01*
X102563Y380458D01*
X105563Y380458D01*
X105567Y380462D01*
G37*
G36*
X588167Y380462D02*
X588167Y380462D01*
X588168Y380463D01*
X588168Y381963D01*
X588163Y381967D01*
X588163Y381968D01*
X586663Y381968D01*
X586661Y381966D01*
X586659Y381966D01*
X585159Y380466D01*
X585159Y380464D01*
X585158Y380463D01*
X585159Y380462D01*
X585159Y380459D01*
X585161Y380459D01*
X585163Y380458D01*
X588163Y380458D01*
X588167Y380462D01*
G37*
G36*
X346867Y380462D02*
X346867Y380462D01*
X346868Y380463D01*
X346868Y381963D01*
X346863Y381967D01*
X346863Y381968D01*
X345363Y381968D01*
X345361Y381966D01*
X345359Y381966D01*
X343859Y380466D01*
X343859Y380464D01*
X343858Y380463D01*
X343859Y380462D01*
X343859Y380459D01*
X343861Y380459D01*
X343863Y380458D01*
X346863Y380458D01*
X346867Y380462D01*
G37*
G36*
X829467Y380462D02*
X829467Y380462D01*
X829468Y380463D01*
X829468Y381963D01*
X829463Y381967D01*
X829463Y381968D01*
X827963Y381968D01*
X827961Y381966D01*
X827959Y381966D01*
X826459Y380466D01*
X826459Y380464D01*
X826458Y380463D01*
X826459Y380462D01*
X826459Y380459D01*
X826461Y380459D01*
X826463Y380458D01*
X829463Y380458D01*
X829467Y380462D01*
G37*
G36*
X404892Y733945D02*
X404892Y733945D01*
X404893Y733945D01*
X406393Y735445D01*
X406394Y735447D01*
X406395Y735448D01*
X406394Y735449D01*
X406394Y735452D01*
X406391Y735452D01*
X406390Y735454D01*
X403390Y735454D01*
X403385Y735449D01*
X403385Y733949D01*
X403389Y733944D01*
X403390Y733944D01*
X404890Y733944D01*
X404892Y733945D01*
G37*
G36*
X887492Y733945D02*
X887492Y733945D01*
X887493Y733945D01*
X888993Y735445D01*
X888994Y735447D01*
X888995Y735448D01*
X888994Y735449D01*
X888994Y735452D01*
X888991Y735452D01*
X888990Y735454D01*
X885990Y735454D01*
X885985Y735449D01*
X885985Y733949D01*
X885989Y733944D01*
X885990Y733944D01*
X887490Y733944D01*
X887492Y733945D01*
G37*
G36*
X107077Y724522D02*
X107077Y724522D01*
X107079Y724521D01*
X108579Y726021D01*
X108579Y726023D01*
X108580Y726024D01*
X108579Y726026D01*
X108579Y726028D01*
X108577Y726028D01*
X108575Y726030D01*
X105575Y726030D01*
X105570Y726026D01*
X105570Y726025D01*
X105570Y724525D01*
X105574Y724520D01*
X105575Y724520D01*
X107075Y724520D01*
X107077Y724522D01*
G37*
G36*
X616664Y414959D02*
X616664Y414959D01*
X616666Y414959D01*
X618166Y416459D01*
X618166Y416461D01*
X618167Y416462D01*
X618166Y416463D01*
X618166Y416466D01*
X618164Y416466D01*
X618163Y416468D01*
X615163Y416468D01*
X615158Y416463D01*
X615158Y414963D01*
X615162Y414958D01*
X615163Y414958D01*
X616663Y414958D01*
X616664Y414959D01*
G37*
G36*
X134064Y414959D02*
X134064Y414959D01*
X134066Y414959D01*
X135566Y416459D01*
X135566Y416461D01*
X135567Y416462D01*
X135566Y416463D01*
X135566Y416466D01*
X135564Y416466D01*
X135563Y416468D01*
X132563Y416468D01*
X132558Y416463D01*
X132558Y414963D01*
X132562Y414958D01*
X132563Y414958D01*
X134063Y414958D01*
X134064Y414959D01*
G37*
G36*
X375364Y414959D02*
X375364Y414959D01*
X375366Y414959D01*
X376866Y416459D01*
X376866Y416461D01*
X376867Y416462D01*
X376866Y416463D01*
X376866Y416466D01*
X376864Y416466D01*
X376863Y416468D01*
X373863Y416468D01*
X373858Y416463D01*
X373858Y414963D01*
X373862Y414958D01*
X373863Y414958D01*
X375363Y414958D01*
X375364Y414959D01*
G37*
G36*
X857964Y414959D02*
X857964Y414959D01*
X857966Y414959D01*
X859466Y416459D01*
X859466Y416461D01*
X859467Y416462D01*
X859466Y416463D01*
X859466Y416466D01*
X859464Y416466D01*
X859463Y416468D01*
X856463Y416468D01*
X856458Y416463D01*
X856458Y414963D01*
X856462Y414958D01*
X856463Y414958D01*
X857963Y414958D01*
X857964Y414959D01*
G37*
G36*
X646192Y733945D02*
X646192Y733945D01*
X646193Y733945D01*
X647693Y735445D01*
X647694Y735447D01*
X647695Y735448D01*
X647694Y735449D01*
X647694Y735452D01*
X647691Y735452D01*
X647690Y735454D01*
X644690Y735454D01*
X644685Y735449D01*
X644685Y733949D01*
X644689Y733944D01*
X644690Y733944D01*
X646190Y733944D01*
X646192Y733945D01*
G37*
G36*
X647691Y699445D02*
X647691Y699445D01*
X647693Y699445D01*
X647693Y699447D01*
X647695Y699448D01*
X647693Y699450D01*
X647693Y699452D01*
X646193Y700952D01*
X646191Y700952D01*
X646190Y700954D01*
X644690Y700954D01*
X644685Y700949D01*
X644685Y699449D01*
X644689Y699444D01*
X644690Y699444D01*
X647690Y699444D01*
X647691Y699445D01*
G37*
G36*
X859464Y380459D02*
X859464Y380459D01*
X859466Y380459D01*
X859466Y380460D01*
X859467Y380462D01*
X859466Y380464D01*
X859466Y380466D01*
X857966Y381966D01*
X857964Y381966D01*
X857963Y381968D01*
X856463Y381968D01*
X856458Y381963D01*
X856458Y380463D01*
X856462Y380458D01*
X856463Y380458D01*
X859463Y380458D01*
X859464Y380459D01*
G37*
G36*
X376864Y380459D02*
X376864Y380459D01*
X376866Y380459D01*
X376866Y380460D01*
X376867Y380462D01*
X376866Y380464D01*
X376866Y380466D01*
X375366Y381966D01*
X375364Y381966D01*
X375363Y381968D01*
X373863Y381968D01*
X373858Y381963D01*
X373858Y380463D01*
X373862Y380458D01*
X373863Y380458D01*
X376863Y380458D01*
X376864Y380459D01*
G37*
G36*
X618164Y380459D02*
X618164Y380459D01*
X618166Y380459D01*
X618166Y380460D01*
X618167Y380462D01*
X618166Y380464D01*
X618166Y380466D01*
X616666Y381966D01*
X616664Y381966D01*
X616663Y381968D01*
X615163Y381968D01*
X615158Y381963D01*
X615158Y380463D01*
X615162Y380458D01*
X615163Y380458D01*
X618163Y380458D01*
X618164Y380459D01*
G37*
G36*
X135564Y380459D02*
X135564Y380459D01*
X135566Y380459D01*
X135566Y380460D01*
X135567Y380462D01*
X135566Y380464D01*
X135566Y380466D01*
X134066Y381966D01*
X134064Y381966D01*
X134063Y381968D01*
X132563Y381968D01*
X132558Y381963D01*
X132558Y380463D01*
X132562Y380458D01*
X132563Y380458D01*
X135563Y380458D01*
X135564Y380459D01*
G37*
G36*
X406391Y699445D02*
X406391Y699445D01*
X406393Y699445D01*
X406393Y699447D01*
X406395Y699448D01*
X406393Y699450D01*
X406393Y699452D01*
X404893Y700952D01*
X404891Y700952D01*
X404890Y700954D01*
X403390Y700954D01*
X403385Y700949D01*
X403385Y699449D01*
X403389Y699444D01*
X403390Y699444D01*
X406390Y699444D01*
X406391Y699445D01*
G37*
G36*
X888991Y699445D02*
X888991Y699445D01*
X888993Y699445D01*
X888993Y699447D01*
X888995Y699448D01*
X888993Y699450D01*
X888993Y699452D01*
X887493Y700952D01*
X887491Y700952D01*
X887490Y700954D01*
X885990Y700954D01*
X885985Y700949D01*
X885985Y699449D01*
X885989Y699444D01*
X885990Y699444D01*
X888990Y699444D01*
X888991Y699445D01*
G37*
G36*
X108576Y690021D02*
X108576Y690021D01*
X108578Y690021D01*
X108578Y690023D01*
X108580Y690024D01*
X108578Y690026D01*
X108579Y690029D01*
X107079Y691529D01*
X107076Y691529D01*
X107075Y691530D01*
X105575Y691530D01*
X105570Y691526D01*
X105570Y691525D01*
X105570Y690025D01*
X105574Y690020D01*
X105575Y690020D01*
X108575Y690020D01*
X108576Y690021D01*
G37*
G36*
X75580Y721524D02*
X75580Y721524D01*
X75580Y721525D01*
X75580Y723025D01*
X75578Y723027D01*
X75579Y723029D01*
X74079Y724529D01*
X74077Y724529D01*
X74076Y724530D01*
X74074Y724529D01*
X74072Y724529D01*
X74072Y724527D01*
X74070Y724525D01*
X74070Y721525D01*
X74074Y721520D01*
X74075Y721520D01*
X75575Y721520D01*
X75580Y721524D01*
G37*
G36*
X826467Y411962D02*
X826467Y411962D01*
X826468Y411963D01*
X826468Y413463D01*
X826466Y413464D01*
X826466Y413466D01*
X824966Y414966D01*
X824964Y414966D01*
X824963Y414967D01*
X824962Y414966D01*
X824959Y414966D01*
X824959Y414964D01*
X824958Y414963D01*
X824958Y411963D01*
X824962Y411958D01*
X824963Y411958D01*
X826463Y411958D01*
X826467Y411962D01*
G37*
G36*
X373395Y730948D02*
X373395Y730948D01*
X373395Y730949D01*
X373395Y732449D01*
X373393Y732451D01*
X373393Y732452D01*
X371893Y733952D01*
X371892Y733952D01*
X371891Y733954D01*
X371889Y733953D01*
X371887Y733953D01*
X371887Y733950D01*
X371885Y733949D01*
X371885Y730949D01*
X371889Y730944D01*
X371890Y730944D01*
X373390Y730944D01*
X373395Y730948D01*
G37*
G36*
X855995Y730948D02*
X855995Y730948D01*
X855995Y730949D01*
X855995Y732449D01*
X855993Y732451D01*
X855993Y732452D01*
X854493Y733952D01*
X854492Y733952D01*
X854491Y733954D01*
X854489Y733953D01*
X854487Y733953D01*
X854487Y733950D01*
X854485Y733949D01*
X854485Y730949D01*
X854489Y730944D01*
X854490Y730944D01*
X855990Y730944D01*
X855995Y730948D01*
G37*
G36*
X585167Y411962D02*
X585167Y411962D01*
X585168Y411963D01*
X585168Y413463D01*
X585166Y413464D01*
X585166Y413466D01*
X583666Y414966D01*
X583664Y414966D01*
X583663Y414967D01*
X583662Y414966D01*
X583659Y414966D01*
X583659Y414964D01*
X583658Y414963D01*
X583658Y411963D01*
X583662Y411958D01*
X583663Y411958D01*
X585163Y411958D01*
X585167Y411962D01*
G37*
G36*
X343867Y411962D02*
X343867Y411962D01*
X343868Y411963D01*
X343868Y413463D01*
X343866Y413464D01*
X343866Y413466D01*
X342366Y414966D01*
X342364Y414966D01*
X342363Y414967D01*
X342362Y414966D01*
X342359Y414966D01*
X342359Y414964D01*
X342358Y414963D01*
X342358Y411963D01*
X342362Y411958D01*
X342363Y411958D01*
X343863Y411958D01*
X343867Y411962D01*
G37*
G36*
X614695Y730948D02*
X614695Y730948D01*
X614695Y730949D01*
X614695Y732449D01*
X614693Y732451D01*
X614693Y732452D01*
X613193Y733952D01*
X613192Y733952D01*
X613191Y733954D01*
X613189Y733953D01*
X613187Y733953D01*
X613187Y733950D01*
X613185Y733949D01*
X613185Y730949D01*
X613189Y730944D01*
X613190Y730944D01*
X614690Y730944D01*
X614695Y730948D01*
G37*
G36*
X102567Y411962D02*
X102567Y411962D01*
X102568Y411963D01*
X102568Y413463D01*
X102566Y413464D01*
X102566Y413466D01*
X101066Y414966D01*
X101064Y414966D01*
X101063Y414967D01*
X101062Y414966D01*
X101059Y414966D01*
X101059Y414964D01*
X101058Y414963D01*
X101058Y411963D01*
X101062Y411958D01*
X101063Y411958D01*
X102563Y411958D01*
X102567Y411962D01*
G37*
D10*
X139700Y643175D03*
X139700Y633175D03*
D11*
X75963Y663575D03*
X85963Y663575D03*
X143431Y682625D03*
X153431Y682625D03*
X155019Y723900D03*
X145019Y723900D03*
X167244Y662781D03*
X177244Y662781D03*
X90250Y736600D03*
X100250Y736600D03*
D10*
X114300Y651113D03*
X114300Y641113D03*
D12*
X73325Y708025D03*
X73325Y703025D03*
X73325Y698025D03*
X73325Y713025D03*
X73325Y718025D03*
D13*
X72325Y693025D03*
X72325Y723025D03*
D14*
X77075Y688275D03*
D15*
X82075Y689275D03*
X87075Y689275D03*
X92075Y689275D03*
X97075Y689275D03*
X102075Y689275D03*
D14*
X107075Y688275D03*
D13*
X111825Y693025D03*
D12*
X110825Y698025D03*
X110825Y703025D03*
X110825Y708025D03*
X110825Y713025D03*
X110825Y718025D03*
D13*
X111825Y723025D03*
D14*
X107075Y727775D03*
D15*
X102075Y726775D03*
X97075Y726775D03*
X92075Y726775D03*
X87075Y726775D03*
X82075Y726775D03*
D14*
X77075Y727775D03*
D11*
X89931Y675481D03*
X79931Y675481D03*
X126763Y682625D03*
X136763Y682625D03*
D16*
X103021Y650850D03*
X103021Y641350D03*
X103021Y631850D03*
X77955Y631850D03*
X77955Y650850D03*
X150980Y631850D03*
X150980Y641350D03*
X150980Y650850D03*
X176046Y650850D03*
X176046Y631850D03*
D17*
X155475Y712306D03*
X155475Y695806D03*
X142975Y695806D03*
X142975Y712306D03*
D11*
X551100Y525463D03*
X541100Y525463D03*
X639525Y425450D03*
X649525Y425450D03*
X649525Y387350D03*
X639525Y387350D03*
X551100Y477838D03*
X541100Y477838D03*
X652700Y477838D03*
X642700Y477838D03*
X652700Y525463D03*
X642700Y525463D03*
X564913Y388938D03*
X574913Y388938D03*
D10*
X598488Y476488D03*
X598488Y466488D03*
D11*
X581263Y515938D03*
X571263Y515938D03*
D18*
X611413Y489597D02*
X611413Y484691D01*
X604913Y484691D02*
X604913Y489597D01*
X598413Y489597D02*
X598413Y484691D01*
X591913Y484691D02*
X591913Y489597D01*
X591913Y513703D02*
X591913Y518609D01*
X598413Y518609D02*
X598413Y513703D01*
X604913Y513703D02*
X604913Y518609D01*
X611413Y518609D02*
X611413Y513703D01*
D19*
X601663Y501650D03*
D20*
X684213Y117850D03*
X521813Y117850D03*
D15*
X601663Y379713D03*
X606663Y379713D03*
X611663Y379713D03*
X596663Y379713D03*
X591663Y379713D03*
D14*
X616663Y378713D03*
X586663Y378713D03*
D13*
X621413Y383463D03*
D12*
X620413Y388463D03*
X620413Y393463D03*
X620413Y398463D03*
X620413Y403463D03*
X620413Y408463D03*
D13*
X621413Y413463D03*
D14*
X616663Y418213D03*
D15*
X611663Y417213D03*
X606663Y417213D03*
X601663Y417213D03*
X596663Y417213D03*
X591663Y417213D03*
D14*
X586663Y418213D03*
D13*
X581913Y413463D03*
D12*
X582913Y408463D03*
X582913Y403463D03*
X582913Y398463D03*
X582913Y393463D03*
X582913Y388463D03*
D13*
X581913Y383463D03*
D10*
X627063Y374888D03*
X627063Y364888D03*
X660400Y409813D03*
X660400Y399813D03*
D21*
X642963Y514183D03*
X652463Y514183D03*
X661963Y514183D03*
X661963Y489117D03*
X642963Y489117D03*
X541363Y514183D03*
X550863Y514183D03*
X560363Y514183D03*
X560363Y489117D03*
X541363Y489117D03*
D17*
X638275Y398150D03*
X638275Y414650D03*
X650775Y414650D03*
X650775Y398150D03*
D11*
X792400Y525463D03*
X782400Y525463D03*
X880825Y425450D03*
X890825Y425450D03*
X890825Y387350D03*
X880825Y387350D03*
X792400Y477838D03*
X782400Y477838D03*
X894000Y477838D03*
X884000Y477838D03*
X894000Y525463D03*
X884000Y525463D03*
X806213Y388938D03*
X816213Y388938D03*
D10*
X839788Y476488D03*
X839788Y466488D03*
D11*
X822563Y515938D03*
X812563Y515938D03*
D18*
X852713Y489597D02*
X852713Y484691D01*
X846213Y484691D02*
X846213Y489597D01*
X839713Y489597D02*
X839713Y484691D01*
X833213Y484691D02*
X833213Y489597D01*
X833213Y513703D02*
X833213Y518609D01*
X839713Y518609D02*
X839713Y513703D01*
X846213Y513703D02*
X846213Y518609D01*
X852713Y518609D02*
X852713Y513703D01*
D19*
X842963Y501650D03*
D20*
X925513Y117850D03*
X763113Y117850D03*
D15*
X842963Y379713D03*
X847963Y379713D03*
X852963Y379713D03*
X837963Y379713D03*
X832963Y379713D03*
D14*
X857963Y378713D03*
X827963Y378713D03*
D13*
X862713Y383463D03*
D12*
X861713Y388463D03*
X861713Y393463D03*
X861713Y398463D03*
X861713Y403463D03*
X861713Y408463D03*
D13*
X862713Y413463D03*
D14*
X857963Y418213D03*
D15*
X852963Y417213D03*
X847963Y417213D03*
X842963Y417213D03*
X837963Y417213D03*
X832963Y417213D03*
D14*
X827963Y418213D03*
D13*
X823213Y413463D03*
D12*
X824213Y408463D03*
X824213Y403463D03*
X824213Y398463D03*
X824213Y393463D03*
X824213Y388463D03*
D13*
X823213Y383463D03*
D10*
X868363Y374888D03*
X868363Y364888D03*
X901700Y409813D03*
X901700Y399813D03*
D21*
X884263Y514183D03*
X893763Y514183D03*
X903263Y514183D03*
X903263Y489117D03*
X884263Y489117D03*
X782663Y514183D03*
X792163Y514183D03*
X801663Y514183D03*
X801663Y489117D03*
X782663Y489117D03*
D17*
X879575Y398150D03*
X879575Y414650D03*
X892075Y414650D03*
X892075Y398150D03*
D11*
X68500Y525463D03*
X58500Y525463D03*
X156925Y425450D03*
X166925Y425450D03*
X166925Y387350D03*
X156925Y387350D03*
X68500Y477838D03*
X58500Y477838D03*
X170100Y477838D03*
X160100Y477838D03*
X170100Y525463D03*
X160100Y525463D03*
X82313Y388938D03*
X92313Y388938D03*
D10*
X115888Y476488D03*
X115888Y466488D03*
D11*
X98663Y515938D03*
X88663Y515938D03*
D18*
X128813Y489597D02*
X128813Y484691D01*
X122313Y484691D02*
X122313Y489597D01*
X115813Y489597D02*
X115813Y484691D01*
X109313Y484691D02*
X109313Y489597D01*
X109313Y513703D02*
X109313Y518609D01*
X115813Y518609D02*
X115813Y513703D01*
X122313Y513703D02*
X122313Y518609D01*
X128813Y518609D02*
X128813Y513703D01*
D19*
X119063Y501650D03*
D20*
X201613Y117850D03*
X39213Y117850D03*
D15*
X119063Y379713D03*
X124063Y379713D03*
X129063Y379713D03*
X114063Y379713D03*
X109063Y379713D03*
D14*
X134063Y378713D03*
X104063Y378713D03*
D13*
X138813Y383463D03*
D12*
X137813Y388463D03*
X137813Y393463D03*
X137813Y398463D03*
X137813Y403463D03*
X137813Y408463D03*
D13*
X138813Y413463D03*
D14*
X134063Y418213D03*
D15*
X129063Y417213D03*
X124063Y417213D03*
X119063Y417213D03*
X114063Y417213D03*
X109063Y417213D03*
D14*
X104063Y418213D03*
D13*
X99313Y413463D03*
D12*
X100313Y408463D03*
X100313Y403463D03*
X100313Y398463D03*
X100313Y393463D03*
X100313Y388463D03*
D13*
X99313Y383463D03*
D10*
X144463Y374888D03*
X144463Y364888D03*
X177800Y409813D03*
X177800Y399813D03*
D21*
X160363Y514183D03*
X169863Y514183D03*
X179363Y514183D03*
X179363Y489117D03*
X160363Y489117D03*
X58763Y514183D03*
X68263Y514183D03*
X77763Y514183D03*
X77763Y489117D03*
X58763Y489117D03*
D17*
X155675Y398150D03*
X155675Y414650D03*
X168175Y414650D03*
X168175Y398150D03*
D11*
X309800Y525463D03*
X299800Y525463D03*
X398225Y425450D03*
X408225Y425450D03*
X408225Y387350D03*
X398225Y387350D03*
X309800Y477838D03*
X299800Y477838D03*
X411400Y477838D03*
X401400Y477838D03*
X411400Y525463D03*
X401400Y525463D03*
X323613Y388938D03*
X333613Y388938D03*
D10*
X357188Y476488D03*
X357188Y466488D03*
D11*
X339963Y515938D03*
X329963Y515938D03*
D18*
X370113Y489597D02*
X370113Y484691D01*
X363613Y484691D02*
X363613Y489597D01*
X357113Y489597D02*
X357113Y484691D01*
X350613Y484691D02*
X350613Y489597D01*
X350613Y513703D02*
X350613Y518609D01*
X357113Y518609D02*
X357113Y513703D01*
X363613Y513703D02*
X363613Y518609D01*
X370113Y518609D02*
X370113Y513703D01*
D19*
X360363Y501650D03*
D20*
X442913Y117850D03*
X280513Y117850D03*
D15*
X360363Y379713D03*
X365363Y379713D03*
X370363Y379713D03*
X355363Y379713D03*
X350363Y379713D03*
D14*
X375363Y378713D03*
X345363Y378713D03*
D13*
X380113Y383463D03*
D12*
X379113Y388463D03*
X379113Y393463D03*
X379113Y398463D03*
X379113Y403463D03*
X379113Y408463D03*
D13*
X380113Y413463D03*
D14*
X375363Y418213D03*
D15*
X370363Y417213D03*
X365363Y417213D03*
X360363Y417213D03*
X355363Y417213D03*
X350363Y417213D03*
D14*
X345363Y418213D03*
D13*
X340613Y413463D03*
D12*
X341613Y408463D03*
X341613Y403463D03*
X341613Y398463D03*
X341613Y393463D03*
X341613Y388463D03*
D13*
X340613Y383463D03*
D10*
X385763Y374888D03*
X385763Y364888D03*
X419100Y409813D03*
X419100Y399813D03*
D21*
X401663Y514183D03*
X411163Y514183D03*
X420663Y514183D03*
X420663Y489117D03*
X401663Y489117D03*
X300063Y514183D03*
X309563Y514183D03*
X319063Y514183D03*
X319063Y489117D03*
X300063Y489117D03*
D17*
X396975Y398150D03*
X396975Y414650D03*
X409475Y414650D03*
X409475Y398150D03*
D10*
X787441Y712077D03*
X787441Y722077D03*
D11*
X869714Y743797D03*
X859714Y743797D03*
X796792Y735088D03*
X786792Y735088D03*
D12*
X853740Y717449D03*
X853740Y712449D03*
X853740Y707449D03*
X853740Y722449D03*
X853740Y727449D03*
D13*
X852740Y702449D03*
X852740Y732449D03*
D14*
X857490Y697699D03*
D15*
X862490Y698699D03*
X867490Y698699D03*
X872490Y698699D03*
X877490Y698699D03*
X882490Y698699D03*
D14*
X887490Y697699D03*
D13*
X892240Y702449D03*
D12*
X891240Y707449D03*
X891240Y712449D03*
X891240Y717449D03*
X891240Y722449D03*
X891240Y727449D03*
D13*
X892240Y732449D03*
D14*
X887490Y737199D03*
D15*
X882490Y736199D03*
X877490Y736199D03*
X872490Y736199D03*
X867490Y736199D03*
X862490Y736199D03*
D14*
X857490Y737199D03*
D10*
X909930Y660989D03*
X909930Y650989D03*
D17*
X867565Y678299D03*
X884065Y678299D03*
X884065Y665799D03*
X867565Y665799D03*
D10*
X894071Y666255D03*
X894071Y676255D03*
X857848Y677966D03*
X857848Y667966D03*
D11*
X887933Y688718D03*
X877933Y688718D03*
D22*
X824014Y678448D02*
X824014Y671362D01*
X824014Y671362D01*
X824014Y678448D01*
X824014Y678448D01*
X824014Y674564D02*
X824014Y674564D01*
X824014Y677766D02*
X824014Y677766D01*
X817514Y678448D02*
X817514Y671362D01*
X817514Y671362D01*
X817514Y678448D01*
X817514Y678448D01*
X817514Y674564D02*
X817514Y674564D01*
X817514Y677766D02*
X817514Y677766D01*
X811014Y678448D02*
X811014Y671362D01*
X811014Y671362D01*
X811014Y678448D01*
X811014Y678448D01*
X811014Y674564D02*
X811014Y674564D01*
X811014Y677766D02*
X811014Y677766D01*
X804514Y678448D02*
X804514Y671362D01*
X804514Y671362D01*
X804514Y678448D01*
X804514Y678448D01*
X804514Y674564D02*
X804514Y674564D01*
X804514Y677766D02*
X804514Y677766D01*
X799184Y683778D02*
X792098Y683778D01*
X792098Y683778D01*
X799184Y683778D01*
X799184Y683778D01*
X799184Y690278D02*
X792098Y690278D01*
X792098Y690278D01*
X799184Y690278D01*
X799184Y690278D01*
X799184Y696778D02*
X792098Y696778D01*
X792098Y696778D01*
X799184Y696778D01*
X799184Y696778D01*
X799184Y703278D02*
X792098Y703278D01*
X792098Y703278D01*
X799184Y703278D01*
X799184Y703278D01*
X804514Y708608D02*
X804514Y715694D01*
X804514Y708608D02*
X804514Y708608D01*
X804514Y715694D01*
X804514Y715694D01*
X804514Y711810D02*
X804514Y711810D01*
X804514Y715012D02*
X804514Y715012D01*
X811014Y715694D02*
X811014Y708608D01*
X811014Y708608D01*
X811014Y715694D01*
X811014Y715694D01*
X811014Y711810D02*
X811014Y711810D01*
X811014Y715012D02*
X811014Y715012D01*
X817514Y715694D02*
X817514Y708608D01*
X817514Y708608D01*
X817514Y715694D01*
X817514Y715694D01*
X817514Y711810D02*
X817514Y711810D01*
X817514Y715012D02*
X817514Y715012D01*
X824014Y715694D02*
X824014Y708608D01*
X824014Y708608D01*
X824014Y715694D01*
X824014Y715694D01*
X824014Y711810D02*
X824014Y711810D01*
X824014Y715012D02*
X824014Y715012D01*
X829344Y703278D02*
X836430Y703278D01*
X829344Y703278D02*
X829344Y703278D01*
X836430Y703278D01*
X836430Y703278D01*
X836430Y696778D02*
X829344Y696778D01*
X829344Y696778D01*
X836430Y696778D01*
X836430Y696778D01*
X836430Y690278D02*
X829344Y690278D01*
X829344Y690278D01*
X836430Y690278D01*
X836430Y690278D01*
X836430Y683778D02*
X829344Y683778D01*
X829344Y683778D01*
X836430Y683778D01*
X836430Y683778D01*
D23*
X814264Y693528D03*
D10*
X825434Y721746D03*
X825434Y731746D03*
X545759Y712460D03*
X545759Y722460D03*
D11*
X628414Y743797D03*
X618414Y743797D03*
X555492Y735088D03*
X545492Y735088D03*
D12*
X612440Y717449D03*
X612440Y712449D03*
X612440Y707449D03*
X612440Y722449D03*
X612440Y727449D03*
D13*
X611440Y702449D03*
X611440Y732449D03*
D14*
X616190Y697699D03*
D15*
X621190Y698699D03*
X626190Y698699D03*
X631190Y698699D03*
X636190Y698699D03*
X641190Y698699D03*
D14*
X646190Y697699D03*
D13*
X650940Y702449D03*
D12*
X649940Y707449D03*
X649940Y712449D03*
X649940Y717449D03*
X649940Y722449D03*
X649940Y727449D03*
D13*
X650940Y732449D03*
D14*
X646190Y737199D03*
D15*
X641190Y736199D03*
X636190Y736199D03*
X631190Y736199D03*
X626190Y736199D03*
X621190Y736199D03*
D14*
X616190Y737199D03*
D10*
X668630Y660989D03*
X668630Y650989D03*
D17*
X626265Y678299D03*
X642765Y678299D03*
X642765Y665799D03*
X626265Y665799D03*
D10*
X652771Y666255D03*
X652771Y676255D03*
X616548Y677966D03*
X616548Y667966D03*
D11*
X646633Y688718D03*
X636633Y688718D03*
D22*
X582714Y678448D02*
X582714Y671362D01*
X582714Y671362D01*
X582714Y678448D01*
X582714Y678448D01*
X582714Y674564D02*
X582714Y674564D01*
X582714Y677766D02*
X582714Y677766D01*
X576214Y678448D02*
X576214Y671362D01*
X576214Y671362D01*
X576214Y678448D01*
X576214Y678448D01*
X576214Y674564D02*
X576214Y674564D01*
X576214Y677766D02*
X576214Y677766D01*
X569714Y678448D02*
X569714Y671362D01*
X569714Y671362D01*
X569714Y678448D01*
X569714Y678448D01*
X569714Y674564D02*
X569714Y674564D01*
X569714Y677766D02*
X569714Y677766D01*
X563214Y678448D02*
X563214Y671362D01*
X563214Y671362D01*
X563214Y678448D01*
X563214Y678448D01*
X563214Y674564D02*
X563214Y674564D01*
X563214Y677766D02*
X563214Y677766D01*
X557884Y683778D02*
X550798Y683778D01*
X550798Y683778D01*
X557884Y683778D01*
X557884Y683778D01*
X557884Y690278D02*
X550798Y690278D01*
X550798Y690278D01*
X557884Y690278D01*
X557884Y690278D01*
X557884Y696778D02*
X550798Y696778D01*
X550798Y696778D01*
X557884Y696778D01*
X557884Y696778D01*
X557884Y703278D02*
X550798Y703278D01*
X550798Y703278D01*
X557884Y703278D01*
X557884Y703278D01*
X563214Y708608D02*
X563214Y715694D01*
X563214Y708608D02*
X563214Y708608D01*
X563214Y715694D01*
X563214Y715694D01*
X563214Y711810D02*
X563214Y711810D01*
X563214Y715012D02*
X563214Y715012D01*
X569714Y715694D02*
X569714Y708608D01*
X569714Y708608D01*
X569714Y715694D01*
X569714Y715694D01*
X569714Y711810D02*
X569714Y711810D01*
X569714Y715012D02*
X569714Y715012D01*
X576214Y715694D02*
X576214Y708608D01*
X576214Y708608D01*
X576214Y715694D01*
X576214Y715694D01*
X576214Y711810D02*
X576214Y711810D01*
X576214Y715012D02*
X576214Y715012D01*
X582714Y715694D02*
X582714Y708608D01*
X582714Y708608D01*
X582714Y715694D01*
X582714Y715694D01*
X582714Y711810D02*
X582714Y711810D01*
X582714Y715012D02*
X582714Y715012D01*
X588044Y703278D02*
X595130Y703278D01*
X588044Y703278D02*
X588044Y703278D01*
X595130Y703278D01*
X595130Y703278D01*
X595130Y696778D02*
X588044Y696778D01*
X588044Y696778D01*
X595130Y696778D01*
X595130Y696778D01*
X595130Y690278D02*
X588044Y690278D01*
X588044Y690278D01*
X595130Y690278D01*
X595130Y690278D01*
X595130Y683778D02*
X588044Y683778D01*
X588044Y683778D01*
X595130Y683778D01*
X595130Y683778D01*
D23*
X572964Y693528D03*
D10*
X584134Y721746D03*
X584134Y731746D03*
X304841Y713608D03*
X304841Y723608D03*
D11*
X387114Y743797D03*
X377114Y743797D03*
X314192Y735088D03*
X304192Y735088D03*
D12*
X371140Y717449D03*
X371140Y712449D03*
X371140Y707449D03*
X371140Y722449D03*
X371140Y727449D03*
D13*
X370140Y702449D03*
X370140Y732449D03*
D14*
X374890Y697699D03*
D15*
X379890Y698699D03*
X384890Y698699D03*
X389890Y698699D03*
X394890Y698699D03*
X399890Y698699D03*
D14*
X404890Y697699D03*
D13*
X409640Y702449D03*
D12*
X408640Y707449D03*
X408640Y712449D03*
X408640Y717449D03*
X408640Y722449D03*
X408640Y727449D03*
D13*
X409640Y732449D03*
D14*
X404890Y737199D03*
D15*
X399890Y736199D03*
X394890Y736199D03*
X389890Y736199D03*
X384890Y736199D03*
X379890Y736199D03*
D14*
X374890Y737199D03*
D10*
X427330Y660989D03*
X427330Y650989D03*
D17*
X384965Y678299D03*
X401465Y678299D03*
X401465Y665799D03*
X384965Y665799D03*
D10*
X411471Y666255D03*
X411471Y676255D03*
X375248Y677966D03*
X375248Y667966D03*
D11*
X405333Y688718D03*
X395333Y688718D03*
D22*
X341414Y678448D02*
X341414Y671362D01*
X341414Y671362D01*
X341414Y678448D01*
X341414Y678448D01*
X341414Y674564D02*
X341414Y674564D01*
X341414Y677766D02*
X341414Y677766D01*
X334914Y678448D02*
X334914Y671362D01*
X334914Y671362D01*
X334914Y678448D01*
X334914Y678448D01*
X334914Y674564D02*
X334914Y674564D01*
X334914Y677766D02*
X334914Y677766D01*
X328414Y678448D02*
X328414Y671362D01*
X328414Y671362D01*
X328414Y678448D01*
X328414Y678448D01*
X328414Y674564D02*
X328414Y674564D01*
X328414Y677766D02*
X328414Y677766D01*
X321914Y678448D02*
X321914Y671362D01*
X321914Y671362D01*
X321914Y678448D01*
X321914Y678448D01*
X321914Y674564D02*
X321914Y674564D01*
X321914Y677766D02*
X321914Y677766D01*
X316584Y683778D02*
X309498Y683778D01*
X309498Y683778D01*
X316584Y683778D01*
X316584Y683778D01*
X316584Y690278D02*
X309498Y690278D01*
X309498Y690278D01*
X316584Y690278D01*
X316584Y690278D01*
X316584Y696778D02*
X309498Y696778D01*
X309498Y696778D01*
X316584Y696778D01*
X316584Y696778D01*
X316584Y703278D02*
X309498Y703278D01*
X309498Y703278D01*
X316584Y703278D01*
X316584Y703278D01*
X321914Y708608D02*
X321914Y715694D01*
X321914Y708608D02*
X321914Y708608D01*
X321914Y715694D01*
X321914Y715694D01*
X321914Y711810D02*
X321914Y711810D01*
X321914Y715012D02*
X321914Y715012D01*
X328414Y715694D02*
X328414Y708608D01*
X328414Y708608D01*
X328414Y715694D01*
X328414Y715694D01*
X328414Y711810D02*
X328414Y711810D01*
X328414Y715012D02*
X328414Y715012D01*
X334914Y715694D02*
X334914Y708608D01*
X334914Y708608D01*
X334914Y715694D01*
X334914Y715694D01*
X334914Y711810D02*
X334914Y711810D01*
X334914Y715012D02*
X334914Y715012D01*
X341414Y715694D02*
X341414Y708608D01*
X341414Y708608D01*
X341414Y715694D01*
X341414Y715694D01*
X341414Y711810D02*
X341414Y711810D01*
X341414Y715012D02*
X341414Y715012D01*
X346744Y703278D02*
X353830Y703278D01*
X346744Y703278D02*
X346744Y703278D01*
X353830Y703278D01*
X353830Y703278D01*
X353830Y696778D02*
X346744Y696778D01*
X346744Y696778D01*
X353830Y696778D01*
X353830Y696778D01*
X353830Y690278D02*
X346744Y690278D01*
X346744Y690278D01*
X353830Y690278D01*
X353830Y690278D01*
X353830Y683778D02*
X346744Y683778D01*
X346744Y683778D01*
X353830Y683778D01*
X353830Y683778D01*
D23*
X331664Y693528D03*
D10*
X342834Y721746D03*
X342834Y731746D03*
M02*
