G04 EAGLE Gerber RS-274X export*
G75*
%MOMM*%
%FSLAX34Y34*%
%LPD*%
%INTop Copper*%
%IPPOS*%
%AMOC8*
5,1,8,0,0,1.08239X$1,22.5*%
G01*
%ADD10R,0.511800X0.611800*%
%ADD11R,0.611800X0.511800*%
%ADD12C,0.320000*%
%ADD13R,2.500000X1.700000*%
%ADD14R,3.810000X3.302000*%
%ADD15R,3.810000X1.016000*%
%ADD16C,1.008000*%
%ADD17R,0.680200X1.208800*%
%ADD18R,1.208800X0.680200*%
%ADD19C,1.108000*%
%ADD20C,0.756400*%
%ADD21C,0.706400*%
%ADD22C,0.254000*%
%ADD23C,0.812800*%
%ADD24C,0.806400*%
%ADD25C,0.203200*%
%ADD26C,0.609600*%
%ADD27C,0.558800*%
%ADD28C,0.152400*%

G36*
X16957Y5092D02*
X16957Y5092D01*
X17029Y5094D01*
X17078Y5112D01*
X17129Y5120D01*
X17193Y5154D01*
X17260Y5179D01*
X17301Y5211D01*
X17347Y5236D01*
X17396Y5288D01*
X17452Y5332D01*
X17480Y5376D01*
X17516Y5414D01*
X17546Y5479D01*
X17585Y5539D01*
X17598Y5590D01*
X17620Y5637D01*
X17627Y5708D01*
X17645Y5778D01*
X17641Y5830D01*
X17647Y5881D01*
X17631Y5952D01*
X17626Y6023D01*
X17605Y6071D01*
X17594Y6122D01*
X17558Y6183D01*
X17530Y6249D01*
X17485Y6305D01*
X17468Y6333D01*
X17450Y6348D01*
X17425Y6380D01*
X15581Y8224D01*
X15581Y12413D01*
X18543Y15375D01*
X22732Y15375D01*
X25694Y12413D01*
X25694Y9398D01*
X25697Y9378D01*
X25695Y9359D01*
X25717Y9257D01*
X25734Y9155D01*
X25743Y9138D01*
X25748Y9118D01*
X25801Y9029D01*
X25849Y8938D01*
X25863Y8924D01*
X25874Y8907D01*
X25952Y8840D01*
X26027Y8768D01*
X26045Y8760D01*
X26061Y8747D01*
X26157Y8708D01*
X26250Y8665D01*
X26270Y8663D01*
X26289Y8655D01*
X26455Y8637D01*
X43675Y8637D01*
X43745Y8648D01*
X43817Y8650D01*
X43866Y8668D01*
X43917Y8676D01*
X43981Y8710D01*
X44048Y8735D01*
X44089Y8767D01*
X44135Y8792D01*
X44184Y8844D01*
X44240Y8888D01*
X44268Y8932D01*
X44304Y8970D01*
X44334Y9035D01*
X44373Y9095D01*
X44386Y9146D01*
X44408Y9193D01*
X44416Y9264D01*
X44433Y9334D01*
X44429Y9386D01*
X44435Y9437D01*
X44420Y9508D01*
X44414Y9579D01*
X44394Y9627D01*
X44383Y9678D01*
X44346Y9739D01*
X44318Y9805D01*
X44273Y9861D01*
X44256Y9889D01*
X44239Y9904D01*
X44213Y9936D01*
X42858Y11291D01*
X42858Y15480D01*
X45820Y18442D01*
X49971Y18442D01*
X49991Y18446D01*
X50011Y18443D01*
X50112Y18465D01*
X50214Y18482D01*
X50231Y18491D01*
X50251Y18496D01*
X50340Y18549D01*
X50431Y18597D01*
X50445Y18612D01*
X50462Y18622D01*
X50529Y18700D01*
X50601Y18775D01*
X50609Y18794D01*
X50622Y18809D01*
X50661Y18905D01*
X50704Y18999D01*
X50706Y19018D01*
X50714Y19037D01*
X50732Y19204D01*
X50732Y19659D01*
X53841Y22768D01*
X58237Y22768D01*
X60911Y20094D01*
X60985Y20041D01*
X61054Y19982D01*
X61084Y19969D01*
X61111Y19951D01*
X61197Y19924D01*
X61282Y19890D01*
X61323Y19885D01*
X61346Y19878D01*
X61378Y19879D01*
X61449Y19871D01*
X68141Y19871D01*
X69112Y18900D01*
X69191Y18843D01*
X69267Y18780D01*
X69291Y18771D01*
X69312Y18756D01*
X69405Y18727D01*
X69497Y18692D01*
X69529Y18689D01*
X69547Y18684D01*
X69580Y18685D01*
X69664Y18677D01*
X74328Y18761D01*
X74341Y18764D01*
X74353Y18762D01*
X74461Y18786D01*
X74570Y18805D01*
X74581Y18812D01*
X74594Y18814D01*
X74688Y18871D01*
X74785Y18924D01*
X74794Y18934D01*
X74805Y18941D01*
X74877Y19024D01*
X74951Y19106D01*
X74956Y19118D01*
X74965Y19128D01*
X75006Y19230D01*
X75051Y19331D01*
X75052Y19344D01*
X75057Y19356D01*
X75075Y19522D01*
X75075Y20048D01*
X76906Y21878D01*
X79494Y21878D01*
X80912Y20461D01*
X80928Y20449D01*
X80940Y20434D01*
X81028Y20378D01*
X81111Y20318D01*
X81130Y20312D01*
X81147Y20301D01*
X81248Y20276D01*
X81347Y20245D01*
X81366Y20246D01*
X81386Y20241D01*
X81489Y20249D01*
X81592Y20252D01*
X81611Y20258D01*
X81631Y20260D01*
X81726Y20300D01*
X81823Y20336D01*
X81839Y20349D01*
X81857Y20356D01*
X81988Y20461D01*
X83406Y21878D01*
X85994Y21878D01*
X87412Y20461D01*
X87428Y20449D01*
X87440Y20434D01*
X87528Y20378D01*
X87611Y20318D01*
X87630Y20312D01*
X87647Y20301D01*
X87748Y20276D01*
X87847Y20245D01*
X87866Y20246D01*
X87886Y20241D01*
X87989Y20249D01*
X88092Y20252D01*
X88111Y20258D01*
X88131Y20260D01*
X88226Y20300D01*
X88323Y20336D01*
X88339Y20349D01*
X88357Y20356D01*
X88488Y20461D01*
X89906Y21878D01*
X92494Y21878D01*
X94325Y20048D01*
X94325Y12552D01*
X93964Y12191D01*
X93911Y12117D01*
X93851Y12048D01*
X93839Y12018D01*
X93820Y11992D01*
X93793Y11905D01*
X93759Y11820D01*
X93755Y11779D01*
X93748Y11757D01*
X93749Y11724D01*
X93741Y11653D01*
X93741Y10305D01*
X89816Y6380D01*
X89774Y6322D01*
X89724Y6270D01*
X89702Y6223D01*
X89672Y6181D01*
X89651Y6112D01*
X89621Y6047D01*
X89615Y5995D01*
X89600Y5945D01*
X89602Y5874D01*
X89594Y5803D01*
X89605Y5752D01*
X89606Y5700D01*
X89631Y5632D01*
X89646Y5562D01*
X89673Y5517D01*
X89691Y5469D01*
X89735Y5413D01*
X89772Y5351D01*
X89812Y5317D01*
X89844Y5277D01*
X89905Y5238D01*
X89959Y5191D01*
X90007Y5172D01*
X90051Y5144D01*
X90121Y5126D01*
X90187Y5099D01*
X90259Y5091D01*
X90290Y5083D01*
X90313Y5085D01*
X90354Y5081D01*
X144158Y5081D01*
X144178Y5084D01*
X144197Y5082D01*
X144299Y5104D01*
X144401Y5120D01*
X144418Y5130D01*
X144438Y5134D01*
X144527Y5187D01*
X144618Y5236D01*
X144632Y5250D01*
X144649Y5260D01*
X144716Y5339D01*
X144788Y5414D01*
X144796Y5432D01*
X144809Y5447D01*
X144848Y5543D01*
X144891Y5637D01*
X144893Y5657D01*
X144901Y5675D01*
X144919Y5842D01*
X144919Y13058D01*
X147864Y22120D01*
X153465Y29829D01*
X161173Y35430D01*
X166694Y37224D01*
X166698Y37226D01*
X166702Y37226D01*
X166806Y37281D01*
X166913Y37337D01*
X166916Y37339D01*
X166919Y37341D01*
X167001Y37427D01*
X167084Y37513D01*
X167086Y37517D01*
X167089Y37520D01*
X167139Y37628D01*
X167190Y37735D01*
X167190Y37739D01*
X167192Y37743D01*
X167205Y37860D01*
X167220Y37979D01*
X167219Y37983D01*
X167219Y37987D01*
X167194Y38104D01*
X167170Y38220D01*
X167168Y38224D01*
X167167Y38228D01*
X167106Y38330D01*
X167046Y38433D01*
X167043Y38435D01*
X167041Y38439D01*
X166949Y38517D01*
X166861Y38594D01*
X166857Y38596D01*
X166854Y38599D01*
X166742Y38644D01*
X166633Y38689D01*
X166629Y38689D01*
X166626Y38691D01*
X166459Y38709D01*
X138747Y38709D01*
X138657Y38694D01*
X138566Y38687D01*
X138537Y38675D01*
X138505Y38669D01*
X138424Y38627D01*
X138340Y38591D01*
X138308Y38565D01*
X138287Y38554D01*
X138265Y38531D01*
X138209Y38486D01*
X137034Y37311D01*
X136981Y37237D01*
X136922Y37168D01*
X136910Y37138D01*
X136891Y37112D01*
X136864Y37025D01*
X136830Y36940D01*
X136825Y36899D01*
X136819Y36877D01*
X136819Y36844D01*
X136811Y36773D01*
X136811Y34181D01*
X132780Y30149D01*
X132727Y30075D01*
X132667Y30006D01*
X132655Y29975D01*
X132636Y29949D01*
X132609Y29862D01*
X132575Y29777D01*
X132571Y29736D01*
X132564Y29714D01*
X132565Y29682D01*
X132557Y29611D01*
X132557Y29057D01*
X131711Y27015D01*
X130148Y25452D01*
X128105Y24606D01*
X125895Y24606D01*
X124644Y25124D01*
X124549Y25146D01*
X124456Y25175D01*
X124430Y25174D01*
X124404Y25180D01*
X124307Y25171D01*
X124210Y25168D01*
X124185Y25160D01*
X124159Y25157D01*
X124070Y25117D01*
X123979Y25084D01*
X123958Y25068D01*
X123935Y25057D01*
X123863Y24991D01*
X123787Y24930D01*
X123773Y24908D01*
X123753Y24891D01*
X123706Y24805D01*
X123654Y24723D01*
X123647Y24698D01*
X123635Y24675D01*
X123618Y24579D01*
X123594Y24485D01*
X123596Y24459D01*
X123591Y24433D01*
X123605Y24337D01*
X123613Y24240D01*
X123623Y24216D01*
X123627Y24190D01*
X123671Y24103D01*
X123709Y24013D01*
X123730Y23988D01*
X123738Y23970D01*
X123762Y23947D01*
X123814Y23882D01*
X125741Y21955D01*
X125815Y21902D01*
X125884Y21843D01*
X125914Y21831D01*
X125941Y21812D01*
X126028Y21785D01*
X126113Y21751D01*
X126153Y21746D01*
X126176Y21740D01*
X126208Y21740D01*
X126279Y21732D01*
X130786Y21732D01*
X133894Y18624D01*
X133894Y14228D01*
X130786Y11119D01*
X126389Y11119D01*
X123281Y14228D01*
X123281Y17632D01*
X123266Y17722D01*
X123259Y17813D01*
X123246Y17843D01*
X123241Y17875D01*
X123198Y17956D01*
X123163Y18040D01*
X123137Y18072D01*
X123126Y18093D01*
X123103Y18115D01*
X123058Y18171D01*
X122244Y18985D01*
X122186Y19027D01*
X122134Y19076D01*
X122086Y19098D01*
X122044Y19128D01*
X121976Y19149D01*
X121910Y19180D01*
X121859Y19185D01*
X121809Y19201D01*
X121737Y19199D01*
X121666Y19207D01*
X121615Y19196D01*
X121563Y19194D01*
X121496Y19170D01*
X121426Y19155D01*
X121381Y19128D01*
X121332Y19110D01*
X121276Y19065D01*
X121215Y19028D01*
X121181Y18989D01*
X121140Y18956D01*
X121101Y18896D01*
X121055Y18841D01*
X121035Y18793D01*
X121007Y18749D01*
X120990Y18680D01*
X120963Y18613D01*
X120955Y18542D01*
X120947Y18511D01*
X120949Y18487D01*
X120944Y18447D01*
X120944Y17749D01*
X117982Y14787D01*
X113793Y14787D01*
X110831Y17749D01*
X110831Y20633D01*
X110816Y20723D01*
X110809Y20814D01*
X110796Y20844D01*
X110791Y20876D01*
X110748Y20956D01*
X110713Y21040D01*
X110687Y21072D01*
X110676Y21093D01*
X110653Y21115D01*
X110608Y21171D01*
X109124Y22655D01*
X109124Y41756D01*
X109121Y41776D01*
X109123Y41796D01*
X109101Y41897D01*
X109084Y41999D01*
X109075Y42017D01*
X109071Y42036D01*
X109018Y42125D01*
X108969Y42216D01*
X108955Y42230D01*
X108945Y42247D01*
X108866Y42315D01*
X108791Y42386D01*
X108773Y42394D01*
X108758Y42407D01*
X108661Y42446D01*
X108568Y42489D01*
X108548Y42492D01*
X108529Y42499D01*
X108363Y42518D01*
X101586Y42518D01*
X101566Y42514D01*
X101547Y42516D01*
X101445Y42494D01*
X101343Y42478D01*
X101326Y42468D01*
X101306Y42464D01*
X101217Y42411D01*
X101126Y42363D01*
X101112Y42348D01*
X101095Y42338D01*
X101028Y42259D01*
X100956Y42184D01*
X100948Y42166D01*
X100935Y42151D01*
X100896Y42055D01*
X100853Y41961D01*
X100851Y41942D01*
X100843Y41923D01*
X100825Y41756D01*
X100825Y41564D01*
X98994Y39734D01*
X96406Y39734D01*
X94575Y41564D01*
X94575Y48604D01*
X94572Y48623D01*
X94574Y48643D01*
X94552Y48744D01*
X94536Y48847D01*
X94526Y48864D01*
X94522Y48884D01*
X94469Y48973D01*
X94420Y49064D01*
X94406Y49078D01*
X94396Y49095D01*
X94317Y49162D01*
X94242Y49233D01*
X94224Y49242D01*
X94209Y49255D01*
X94113Y49293D01*
X94019Y49337D01*
X93999Y49339D01*
X93981Y49347D01*
X93814Y49365D01*
X88586Y49365D01*
X88566Y49362D01*
X88547Y49364D01*
X88445Y49342D01*
X88343Y49325D01*
X88326Y49316D01*
X88306Y49312D01*
X88217Y49259D01*
X88126Y49210D01*
X88112Y49196D01*
X88095Y49186D01*
X88028Y49107D01*
X87956Y49032D01*
X87948Y49014D01*
X87935Y48999D01*
X87896Y48902D01*
X87853Y48809D01*
X87851Y48789D01*
X87843Y48770D01*
X87825Y48604D01*
X87825Y41564D01*
X85994Y39734D01*
X83406Y39734D01*
X81988Y41151D01*
X81972Y41163D01*
X81960Y41179D01*
X81872Y41235D01*
X81789Y41295D01*
X81770Y41301D01*
X81753Y41312D01*
X81652Y41337D01*
X81553Y41367D01*
X81534Y41367D01*
X81514Y41372D01*
X81411Y41364D01*
X81308Y41361D01*
X81289Y41354D01*
X81269Y41353D01*
X81174Y41312D01*
X81077Y41277D01*
X81061Y41264D01*
X81043Y41256D01*
X80912Y41151D01*
X79494Y39734D01*
X76906Y39734D01*
X75075Y41564D01*
X75075Y43885D01*
X75064Y43956D01*
X75062Y44028D01*
X75044Y44077D01*
X75036Y44128D01*
X75002Y44191D01*
X74977Y44259D01*
X74945Y44299D01*
X74920Y44345D01*
X74868Y44395D01*
X74824Y44451D01*
X74780Y44479D01*
X74742Y44515D01*
X74677Y44545D01*
X74617Y44584D01*
X74566Y44596D01*
X74519Y44618D01*
X74448Y44626D01*
X74378Y44644D01*
X74326Y44640D01*
X74275Y44645D01*
X74204Y44630D01*
X74133Y44625D01*
X74085Y44604D01*
X74034Y44593D01*
X73973Y44556D01*
X73907Y44528D01*
X73851Y44483D01*
X73823Y44467D01*
X73808Y44449D01*
X73776Y44423D01*
X70214Y40862D01*
X67899Y40862D01*
X67614Y41147D01*
X67540Y41200D01*
X67470Y41259D01*
X67440Y41271D01*
X67414Y41290D01*
X67327Y41317D01*
X67242Y41351D01*
X67201Y41356D01*
X67179Y41362D01*
X67147Y41362D01*
X67075Y41370D01*
X59925Y41370D01*
X59835Y41355D01*
X59744Y41348D01*
X59714Y41335D01*
X59682Y41330D01*
X59601Y41287D01*
X59517Y41251D01*
X59485Y41226D01*
X59465Y41215D01*
X59442Y41191D01*
X59386Y41147D01*
X59101Y40862D01*
X56786Y40862D01*
X54922Y42726D01*
X54906Y42737D01*
X54893Y42753D01*
X54806Y42809D01*
X54722Y42869D01*
X54703Y42875D01*
X54687Y42886D01*
X54586Y42911D01*
X54487Y42941D01*
X54467Y42941D01*
X54448Y42946D01*
X54345Y42938D01*
X54241Y42935D01*
X54223Y42928D01*
X54203Y42927D01*
X54108Y42886D01*
X54010Y42851D01*
X53995Y42838D01*
X53976Y42830D01*
X53846Y42726D01*
X51307Y40187D01*
X47118Y40187D01*
X44156Y43149D01*
X44156Y47338D01*
X46195Y49377D01*
X46248Y49451D01*
X46307Y49521D01*
X46320Y49551D01*
X46338Y49577D01*
X46365Y49664D01*
X46399Y49749D01*
X46404Y49790D01*
X46411Y49812D01*
X46410Y49844D01*
X46418Y49916D01*
X46418Y54812D01*
X46406Y54883D01*
X46404Y54955D01*
X46386Y55004D01*
X46378Y55055D01*
X46344Y55119D01*
X46320Y55186D01*
X46287Y55227D01*
X46263Y55273D01*
X46211Y55322D01*
X46166Y55378D01*
X46122Y55406D01*
X46085Y55442D01*
X46020Y55472D01*
X45959Y55511D01*
X45909Y55524D01*
X45862Y55546D01*
X45790Y55553D01*
X45721Y55571D01*
X45669Y55567D01*
X45617Y55573D01*
X45547Y55557D01*
X45476Y55552D01*
X45428Y55531D01*
X45377Y55520D01*
X45315Y55484D01*
X45249Y55456D01*
X45193Y55411D01*
X45166Y55394D01*
X45150Y55376D01*
X45118Y55351D01*
X44132Y54364D01*
X5842Y54364D01*
X5822Y54361D01*
X5803Y54363D01*
X5701Y54341D01*
X5599Y54324D01*
X5582Y54315D01*
X5562Y54311D01*
X5473Y54258D01*
X5382Y54209D01*
X5368Y54195D01*
X5351Y54185D01*
X5284Y54106D01*
X5212Y54031D01*
X5204Y54013D01*
X5191Y53998D01*
X5152Y53901D01*
X5109Y53808D01*
X5107Y53788D01*
X5099Y53769D01*
X5081Y53603D01*
X5081Y5842D01*
X5084Y5822D01*
X5082Y5803D01*
X5104Y5701D01*
X5120Y5599D01*
X5130Y5582D01*
X5134Y5562D01*
X5187Y5473D01*
X5236Y5382D01*
X5250Y5368D01*
X5260Y5351D01*
X5339Y5284D01*
X5414Y5212D01*
X5432Y5204D01*
X5447Y5191D01*
X5543Y5152D01*
X5637Y5109D01*
X5657Y5107D01*
X5675Y5099D01*
X5842Y5081D01*
X16886Y5081D01*
X16957Y5092D01*
G37*
G36*
X55366Y109734D02*
X55366Y109734D01*
X55392Y109733D01*
X55485Y109760D01*
X55581Y109781D01*
X55603Y109794D01*
X55628Y109801D01*
X55708Y109857D01*
X55792Y109907D01*
X55809Y109927D01*
X55830Y109942D01*
X55888Y110020D01*
X55952Y110094D01*
X55961Y110118D01*
X55977Y110139D01*
X56007Y110232D01*
X56044Y110322D01*
X56047Y110354D01*
X56053Y110373D01*
X56053Y110406D01*
X56062Y110489D01*
X56062Y111775D01*
X59024Y114737D01*
X59270Y114737D01*
X59289Y114741D01*
X59309Y114739D01*
X59410Y114761D01*
X59512Y114777D01*
X59530Y114787D01*
X59549Y114791D01*
X59638Y114844D01*
X59730Y114892D01*
X59743Y114907D01*
X59760Y114917D01*
X59828Y114996D01*
X59899Y115071D01*
X59907Y115089D01*
X59920Y115104D01*
X59959Y115200D01*
X60003Y115294D01*
X60005Y115313D01*
X60012Y115332D01*
X60031Y115499D01*
X60031Y119570D01*
X62993Y122532D01*
X67182Y122532D01*
X69729Y119985D01*
X69803Y119932D01*
X69872Y119872D01*
X69903Y119860D01*
X69929Y119841D01*
X70016Y119814D01*
X70101Y119780D01*
X70142Y119776D01*
X70164Y119769D01*
X70196Y119770D01*
X70267Y119762D01*
X70746Y119762D01*
X71698Y118810D01*
X71772Y118757D01*
X71841Y118697D01*
X71871Y118685D01*
X71897Y118666D01*
X71984Y118640D01*
X72069Y118605D01*
X72110Y118601D01*
X72132Y118594D01*
X72165Y118595D01*
X72236Y118587D01*
X87395Y118587D01*
X89690Y116292D01*
X89764Y116239D01*
X89833Y116180D01*
X89863Y116167D01*
X89890Y116149D01*
X89976Y116122D01*
X90061Y116088D01*
X90102Y116083D01*
X90125Y116076D01*
X90157Y116077D01*
X90228Y116069D01*
X120098Y116069D01*
X120188Y116084D01*
X120279Y116091D01*
X120309Y116104D01*
X120341Y116109D01*
X120422Y116152D01*
X120506Y116187D01*
X120538Y116213D01*
X120558Y116224D01*
X120581Y116247D01*
X120637Y116292D01*
X129821Y125476D01*
X129832Y125493D01*
X129848Y125505D01*
X129904Y125592D01*
X129964Y125676D01*
X129970Y125695D01*
X129981Y125712D01*
X130006Y125812D01*
X130037Y125911D01*
X130036Y125931D01*
X130041Y125950D01*
X130033Y126053D01*
X130030Y126157D01*
X130023Y126176D01*
X130022Y126196D01*
X129981Y126291D01*
X129946Y126388D01*
X129933Y126404D01*
X129926Y126422D01*
X129821Y126553D01*
X128293Y128080D01*
X128293Y132270D01*
X131255Y135232D01*
X135445Y135232D01*
X136888Y133789D01*
X136904Y133777D01*
X136916Y133762D01*
X137004Y133705D01*
X137087Y133645D01*
X137106Y133639D01*
X137123Y133629D01*
X137224Y133603D01*
X137322Y133573D01*
X137342Y133573D01*
X137362Y133568D01*
X137465Y133577D01*
X137568Y133579D01*
X137587Y133586D01*
X137607Y133588D01*
X137702Y133628D01*
X137799Y133664D01*
X137815Y133676D01*
X137833Y133684D01*
X137964Y133789D01*
X140677Y136501D01*
X144530Y136501D01*
X144546Y136504D01*
X144562Y136502D01*
X144667Y136524D01*
X144773Y136541D01*
X144787Y136549D01*
X144803Y136552D01*
X144896Y136606D01*
X144991Y136656D01*
X145001Y136668D01*
X145015Y136676D01*
X145086Y136757D01*
X145160Y136835D01*
X145167Y136849D01*
X145177Y136861D01*
X145218Y136960D01*
X145264Y137058D01*
X145265Y137074D01*
X145271Y137088D01*
X145279Y137196D01*
X145291Y137302D01*
X145287Y137318D01*
X145288Y137334D01*
X145254Y137498D01*
X144919Y138529D01*
X144919Y145746D01*
X144916Y145765D01*
X144918Y145785D01*
X144896Y145886D01*
X144880Y145988D01*
X144870Y146006D01*
X144866Y146025D01*
X144813Y146114D01*
X144764Y146206D01*
X144750Y146219D01*
X144740Y146236D01*
X144661Y146304D01*
X144586Y146375D01*
X144568Y146383D01*
X144553Y146396D01*
X144457Y146435D01*
X144363Y146479D01*
X144343Y146481D01*
X144325Y146488D01*
X144158Y146507D01*
X118309Y146507D01*
X118238Y146495D01*
X118166Y146493D01*
X118117Y146475D01*
X118066Y146467D01*
X118003Y146433D01*
X117935Y146409D01*
X117895Y146376D01*
X117849Y146352D01*
X117799Y146300D01*
X117743Y146255D01*
X117715Y146211D01*
X117679Y146174D01*
X117649Y146109D01*
X117610Y146048D01*
X117598Y145998D01*
X117576Y145951D01*
X117568Y145879D01*
X117550Y145810D01*
X117554Y145758D01*
X117548Y145706D01*
X117564Y145636D01*
X117569Y145565D01*
X117590Y145517D01*
X117601Y145466D01*
X117638Y145404D01*
X117666Y145338D01*
X117710Y145282D01*
X117727Y145255D01*
X117745Y145239D01*
X117770Y145207D01*
X118915Y144062D01*
X119915Y141650D01*
X119915Y139038D01*
X118915Y136625D01*
X118629Y136339D01*
X118587Y136281D01*
X118538Y136229D01*
X118516Y136181D01*
X118485Y136139D01*
X118464Y136071D01*
X118434Y136005D01*
X118428Y135954D01*
X118413Y135904D01*
X118415Y135832D01*
X118407Y135761D01*
X118418Y135710D01*
X118419Y135658D01*
X118444Y135591D01*
X118459Y135521D01*
X118486Y135476D01*
X118504Y135427D01*
X118549Y135371D01*
X118585Y135310D01*
X118625Y135276D01*
X118658Y135235D01*
X118718Y135196D01*
X118772Y135150D01*
X118821Y135130D01*
X118864Y135102D01*
X118934Y135085D01*
X119000Y135058D01*
X119072Y135050D01*
X119103Y135042D01*
X119126Y135044D01*
X119167Y135039D01*
X121633Y135039D01*
X122526Y134146D01*
X122526Y120795D01*
X121633Y119902D01*
X113556Y119902D01*
X113466Y119887D01*
X113375Y119880D01*
X113345Y119867D01*
X113313Y119862D01*
X113232Y119819D01*
X113148Y119784D01*
X113116Y119758D01*
X113096Y119747D01*
X113073Y119724D01*
X113017Y119679D01*
X111091Y117753D01*
X106695Y117753D01*
X104406Y120042D01*
X104332Y120095D01*
X104262Y120154D01*
X104232Y120166D01*
X104206Y120185D01*
X104119Y120212D01*
X104034Y120246D01*
X103993Y120251D01*
X103971Y120257D01*
X103939Y120257D01*
X103868Y120265D01*
X103311Y120265D01*
X103221Y120250D01*
X103130Y120243D01*
X103100Y120230D01*
X103068Y120225D01*
X102987Y120182D01*
X102903Y120146D01*
X102871Y120121D01*
X102851Y120110D01*
X102828Y120086D01*
X102772Y120042D01*
X102633Y119902D01*
X94567Y119902D01*
X93674Y120795D01*
X93674Y121931D01*
X93663Y122002D01*
X93661Y122073D01*
X93643Y122122D01*
X93635Y122174D01*
X93601Y122237D01*
X93576Y122304D01*
X93544Y122345D01*
X93519Y122391D01*
X93467Y122440D01*
X93423Y122496D01*
X93379Y122525D01*
X93341Y122560D01*
X93276Y122591D01*
X93216Y122629D01*
X93165Y122642D01*
X93118Y122664D01*
X93047Y122672D01*
X92977Y122689D01*
X92925Y122685D01*
X92874Y122691D01*
X92803Y122676D01*
X92732Y122670D01*
X92684Y122650D01*
X92633Y122639D01*
X92572Y122602D01*
X92506Y122574D01*
X92450Y122529D01*
X92422Y122513D01*
X92407Y122495D01*
X92375Y122469D01*
X91378Y121473D01*
X84997Y121473D01*
X84104Y122366D01*
X84104Y129747D01*
X84997Y130640D01*
X91378Y130640D01*
X92375Y129643D01*
X92433Y129601D01*
X92485Y129552D01*
X92532Y129530D01*
X92574Y129500D01*
X92643Y129479D01*
X92708Y129448D01*
X92760Y129443D01*
X92810Y129427D01*
X92881Y129429D01*
X92952Y129421D01*
X93003Y129432D01*
X93055Y129434D01*
X93123Y129458D01*
X93193Y129474D01*
X93238Y129500D01*
X93286Y129518D01*
X93342Y129563D01*
X93404Y129600D01*
X93438Y129639D01*
X93478Y129672D01*
X93517Y129732D01*
X93564Y129787D01*
X93583Y129835D01*
X93611Y129879D01*
X93629Y129948D01*
X93656Y130015D01*
X93664Y130086D01*
X93672Y130117D01*
X93670Y130141D01*
X93674Y130182D01*
X93674Y134146D01*
X94567Y135039D01*
X102633Y135039D01*
X103526Y134146D01*
X103526Y127035D01*
X103537Y126964D01*
X103539Y126892D01*
X103557Y126843D01*
X103565Y126792D01*
X103599Y126729D01*
X103624Y126661D01*
X103656Y126621D01*
X103681Y126575D01*
X103733Y126525D01*
X103777Y126469D01*
X103821Y126441D01*
X103859Y126405D01*
X103924Y126375D01*
X103984Y126336D01*
X104035Y126323D01*
X104082Y126302D01*
X104153Y126294D01*
X104223Y126276D01*
X104275Y126280D01*
X104326Y126274D01*
X104397Y126290D01*
X104468Y126295D01*
X104516Y126316D01*
X104567Y126327D01*
X104628Y126363D01*
X104694Y126392D01*
X104750Y126436D01*
X104778Y126453D01*
X104793Y126471D01*
X104825Y126496D01*
X106695Y128366D01*
X111091Y128366D01*
X111375Y128082D01*
X111433Y128040D01*
X111485Y127991D01*
X111532Y127969D01*
X111574Y127939D01*
X111643Y127918D01*
X111708Y127888D01*
X111760Y127882D01*
X111810Y127866D01*
X111881Y127868D01*
X111952Y127860D01*
X112003Y127871D01*
X112055Y127873D01*
X112123Y127897D01*
X112193Y127913D01*
X112238Y127939D01*
X112286Y127957D01*
X112342Y128002D01*
X112404Y128039D01*
X112438Y128078D01*
X112478Y128111D01*
X112517Y128171D01*
X112564Y128226D01*
X112583Y128274D01*
X112611Y128318D01*
X112629Y128387D01*
X112656Y128454D01*
X112664Y128525D01*
X112672Y128556D01*
X112670Y128580D01*
X112674Y128621D01*
X112674Y133018D01*
X112671Y133037D01*
X112673Y133057D01*
X112651Y133158D01*
X112635Y133261D01*
X112625Y133278D01*
X112621Y133298D01*
X112568Y133387D01*
X112519Y133478D01*
X112505Y133492D01*
X112495Y133509D01*
X112416Y133576D01*
X112341Y133647D01*
X112323Y133656D01*
X112308Y133669D01*
X112212Y133707D01*
X112194Y133715D01*
X112184Y133721D01*
X112167Y133728D01*
X112118Y133751D01*
X112110Y133752D01*
X109631Y134778D01*
X107785Y136625D01*
X106785Y139038D01*
X106785Y141650D01*
X107785Y144062D01*
X108930Y145207D01*
X108971Y145265D01*
X109021Y145317D01*
X109043Y145365D01*
X109073Y145407D01*
X109094Y145475D01*
X109124Y145541D01*
X109130Y145592D01*
X109145Y145642D01*
X109144Y145714D01*
X109152Y145785D01*
X109140Y145836D01*
X109139Y145888D01*
X109114Y145955D01*
X109099Y146025D01*
X109073Y146070D01*
X109055Y146119D01*
X109010Y146175D01*
X108973Y146236D01*
X108934Y146270D01*
X108901Y146311D01*
X108841Y146350D01*
X108786Y146396D01*
X108738Y146416D01*
X108694Y146444D01*
X108625Y146461D01*
X108558Y146488D01*
X108487Y146496D01*
X108456Y146504D01*
X108432Y146502D01*
X108391Y146507D01*
X92909Y146507D01*
X92838Y146495D01*
X92766Y146493D01*
X92717Y146475D01*
X92666Y146467D01*
X92603Y146433D01*
X92535Y146409D01*
X92495Y146376D01*
X92449Y146352D01*
X92399Y146300D01*
X92343Y146255D01*
X92315Y146211D01*
X92279Y146174D01*
X92249Y146109D01*
X92210Y146048D01*
X92198Y145998D01*
X92176Y145951D01*
X92168Y145879D01*
X92150Y145810D01*
X92154Y145758D01*
X92148Y145706D01*
X92164Y145636D01*
X92169Y145565D01*
X92190Y145517D01*
X92201Y145466D01*
X92238Y145404D01*
X92266Y145338D01*
X92310Y145282D01*
X92327Y145255D01*
X92345Y145239D01*
X92370Y145207D01*
X93515Y144062D01*
X94515Y141650D01*
X94515Y139038D01*
X93515Y136625D01*
X91669Y134778D01*
X89256Y133779D01*
X86644Y133779D01*
X85941Y134070D01*
X85827Y134097D01*
X85714Y134126D01*
X85707Y134125D01*
X85701Y134127D01*
X85585Y134116D01*
X85468Y134107D01*
X85463Y134104D01*
X85456Y134104D01*
X85349Y134056D01*
X85242Y134010D01*
X85236Y134006D01*
X85232Y134004D01*
X85218Y133991D01*
X85111Y133905D01*
X82932Y131727D01*
X81221Y130016D01*
X54654Y130016D01*
X52636Y132033D01*
X52620Y132045D01*
X52608Y132060D01*
X52520Y132116D01*
X52437Y132176D01*
X52418Y132182D01*
X52401Y132193D01*
X52300Y132218D01*
X52201Y132249D01*
X52181Y132248D01*
X52162Y132253D01*
X52059Y132245D01*
X51956Y132242D01*
X51937Y132236D01*
X51917Y132234D01*
X51822Y132194D01*
X51725Y132158D01*
X51709Y132145D01*
X51691Y132138D01*
X51560Y132033D01*
X50356Y130829D01*
X45960Y130829D01*
X42728Y134061D01*
X42712Y134072D01*
X42700Y134088D01*
X42612Y134144D01*
X42528Y134204D01*
X42509Y134210D01*
X42493Y134221D01*
X42392Y134246D01*
X42293Y134276D01*
X42273Y134276D01*
X42254Y134281D01*
X42151Y134273D01*
X42047Y134270D01*
X42029Y134263D01*
X42009Y134262D01*
X41914Y134221D01*
X41816Y134186D01*
X41801Y134173D01*
X41783Y134165D01*
X41652Y134061D01*
X41152Y133561D01*
X40415Y133255D01*
X40315Y133194D01*
X40215Y133134D01*
X40211Y133129D01*
X40206Y133126D01*
X40131Y133036D01*
X40055Y132947D01*
X40053Y132941D01*
X40049Y132936D01*
X40007Y132828D01*
X39963Y132719D01*
X39962Y132711D01*
X39961Y132707D01*
X39960Y132688D01*
X39945Y132552D01*
X39945Y131242D01*
X37149Y128447D01*
X36630Y127928D01*
X36588Y127870D01*
X36539Y127818D01*
X36517Y127771D01*
X36487Y127728D01*
X36466Y127660D01*
X36436Y127595D01*
X36430Y127543D01*
X36414Y127493D01*
X36416Y127421D01*
X36408Y127350D01*
X36419Y127299D01*
X36421Y127247D01*
X36445Y127180D01*
X36461Y127110D01*
X36487Y127065D01*
X36505Y127016D01*
X36550Y126960D01*
X36587Y126899D01*
X36626Y126865D01*
X36659Y126824D01*
X36719Y126786D01*
X36774Y126739D01*
X36822Y126719D01*
X36866Y126691D01*
X36935Y126674D01*
X37002Y126647D01*
X37073Y126639D01*
X37104Y126631D01*
X37128Y126633D01*
X37169Y126628D01*
X44132Y126628D01*
X45025Y125735D01*
X45025Y114944D01*
X45028Y114924D01*
X45026Y114904D01*
X45048Y114803D01*
X45064Y114701D01*
X45074Y114683D01*
X45078Y114664D01*
X45131Y114575D01*
X45180Y114484D01*
X45194Y114470D01*
X45204Y114453D01*
X45283Y114385D01*
X45358Y114314D01*
X45376Y114306D01*
X45391Y114293D01*
X45487Y114254D01*
X45581Y114211D01*
X45601Y114208D01*
X45619Y114201D01*
X45786Y114182D01*
X50324Y114182D01*
X52378Y113332D01*
X53950Y111760D01*
X54597Y110197D01*
X54649Y110114D01*
X54694Y110029D01*
X54713Y110011D01*
X54727Y109988D01*
X54802Y109926D01*
X54873Y109859D01*
X54896Y109848D01*
X54917Y109831D01*
X55007Y109797D01*
X55096Y109756D01*
X55122Y109753D01*
X55146Y109743D01*
X55243Y109739D01*
X55340Y109728D01*
X55366Y109734D01*
G37*
G36*
X79543Y77360D02*
X79543Y77360D01*
X79595Y77361D01*
X79663Y77386D01*
X79733Y77401D01*
X79778Y77428D01*
X79826Y77446D01*
X79882Y77491D01*
X79944Y77527D01*
X79978Y77567D01*
X80018Y77599D01*
X80057Y77660D01*
X80104Y77714D01*
X80123Y77763D01*
X80151Y77806D01*
X80169Y77876D01*
X80196Y77942D01*
X80204Y78014D01*
X80212Y78045D01*
X80210Y78068D01*
X80214Y78109D01*
X80214Y84820D01*
X81107Y85713D01*
X83044Y85713D01*
X83064Y85716D01*
X83083Y85714D01*
X83185Y85736D01*
X83287Y85753D01*
X83304Y85762D01*
X83324Y85767D01*
X83413Y85820D01*
X83504Y85868D01*
X83518Y85882D01*
X83535Y85893D01*
X83602Y85971D01*
X83674Y86046D01*
X83682Y86064D01*
X83695Y86080D01*
X83734Y86176D01*
X83777Y86269D01*
X83779Y86289D01*
X83787Y86308D01*
X83805Y86474D01*
X83805Y86630D01*
X83791Y86720D01*
X83783Y86811D01*
X83771Y86841D01*
X83766Y86873D01*
X83723Y86954D01*
X83687Y87037D01*
X83661Y87070D01*
X83650Y87090D01*
X83627Y87112D01*
X83582Y87168D01*
X82516Y88234D01*
X82516Y95616D01*
X83409Y96509D01*
X89791Y96509D01*
X90684Y95616D01*
X90684Y90718D01*
X90687Y90699D01*
X90685Y90679D01*
X90707Y90578D01*
X90723Y90476D01*
X90733Y90458D01*
X90737Y90439D01*
X90790Y90350D01*
X90839Y90258D01*
X90853Y90245D01*
X90863Y90228D01*
X90942Y90160D01*
X91017Y90089D01*
X91035Y90081D01*
X91050Y90068D01*
X91146Y90029D01*
X91240Y89985D01*
X91260Y89983D01*
X91278Y89976D01*
X91445Y89957D01*
X100771Y89957D01*
X100861Y89972D01*
X100952Y89979D01*
X100982Y89992D01*
X101014Y89997D01*
X101094Y90040D01*
X101178Y90075D01*
X101210Y90101D01*
X101231Y90112D01*
X101253Y90135D01*
X101309Y90180D01*
X104411Y93282D01*
X106100Y93282D01*
X106190Y93297D01*
X106281Y93304D01*
X106310Y93317D01*
X106342Y93322D01*
X106423Y93365D01*
X106507Y93400D01*
X106539Y93426D01*
X106560Y93437D01*
X106582Y93460D01*
X106638Y93505D01*
X108927Y95794D01*
X113323Y95794D01*
X116432Y92686D01*
X116432Y88289D01*
X115937Y87795D01*
X115896Y87737D01*
X115846Y87685D01*
X115824Y87638D01*
X115794Y87595D01*
X115773Y87527D01*
X115743Y87462D01*
X115737Y87410D01*
X115721Y87360D01*
X115723Y87288D01*
X115715Y87217D01*
X115726Y87166D01*
X115728Y87114D01*
X115752Y87047D01*
X115768Y86977D01*
X115794Y86932D01*
X115812Y86883D01*
X115857Y86827D01*
X115894Y86766D01*
X115933Y86732D01*
X115966Y86691D01*
X116026Y86653D01*
X116081Y86606D01*
X116129Y86586D01*
X116173Y86558D01*
X116242Y86541D01*
X116309Y86514D01*
X116380Y86506D01*
X116411Y86498D01*
X116435Y86500D01*
X116476Y86495D01*
X121138Y86495D01*
X126290Y81344D01*
X128126Y79508D01*
X128184Y79466D01*
X128236Y79417D01*
X128283Y79395D01*
X128325Y79365D01*
X128394Y79344D01*
X128459Y79313D01*
X128511Y79308D01*
X128561Y79292D01*
X128632Y79294D01*
X128703Y79286D01*
X128754Y79297D01*
X128806Y79299D01*
X128874Y79323D01*
X128944Y79338D01*
X128989Y79365D01*
X129037Y79383D01*
X129093Y79428D01*
X129155Y79465D01*
X129189Y79504D01*
X129229Y79537D01*
X129268Y79597D01*
X129315Y79652D01*
X129334Y79700D01*
X129362Y79744D01*
X129380Y79813D01*
X129407Y79880D01*
X129415Y79951D01*
X129423Y79982D01*
X129421Y80005D01*
X129425Y80046D01*
X129425Y110501D01*
X129414Y110571D01*
X129412Y110643D01*
X129394Y110692D01*
X129386Y110743D01*
X129352Y110807D01*
X129327Y110874D01*
X129295Y110915D01*
X129270Y110961D01*
X129218Y111010D01*
X129174Y111066D01*
X129130Y111094D01*
X129092Y111130D01*
X129027Y111160D01*
X128967Y111199D01*
X128916Y111212D01*
X128869Y111234D01*
X128798Y111242D01*
X128728Y111259D01*
X128676Y111255D01*
X128625Y111261D01*
X128554Y111246D01*
X128483Y111240D01*
X128435Y111220D01*
X128384Y111209D01*
X128323Y111172D01*
X128257Y111144D01*
X128201Y111099D01*
X128173Y111082D01*
X128158Y111065D01*
X128126Y111039D01*
X126731Y109644D01*
X126687Y109644D01*
X126597Y109629D01*
X126506Y109622D01*
X126476Y109609D01*
X126444Y109604D01*
X126363Y109561D01*
X126279Y109526D01*
X126247Y109500D01*
X126227Y109489D01*
X126204Y109466D01*
X126148Y109421D01*
X125175Y108448D01*
X104287Y108448D01*
X104267Y108445D01*
X104248Y108447D01*
X104146Y108425D01*
X104044Y108408D01*
X104027Y108399D01*
X104007Y108394D01*
X103918Y108341D01*
X103827Y108293D01*
X103813Y108279D01*
X103796Y108268D01*
X103729Y108190D01*
X103657Y108115D01*
X103649Y108097D01*
X103636Y108081D01*
X103597Y107985D01*
X103554Y107892D01*
X103552Y107872D01*
X103544Y107853D01*
X103526Y107687D01*
X103526Y95729D01*
X102633Y94836D01*
X94567Y94836D01*
X93674Y95729D01*
X93674Y99782D01*
X93671Y99801D01*
X93673Y99821D01*
X93651Y99922D01*
X93635Y100024D01*
X93625Y100042D01*
X93621Y100061D01*
X93568Y100150D01*
X93519Y100242D01*
X93505Y100255D01*
X93495Y100272D01*
X93416Y100340D01*
X93341Y100411D01*
X93323Y100419D01*
X93308Y100432D01*
X93212Y100471D01*
X93118Y100515D01*
X93098Y100517D01*
X93080Y100524D01*
X92913Y100543D01*
X90964Y100543D01*
X90944Y100540D01*
X90924Y100542D01*
X90823Y100520D01*
X90721Y100503D01*
X90703Y100494D01*
X90684Y100489D01*
X90595Y100436D01*
X90504Y100388D01*
X90490Y100374D01*
X90473Y100363D01*
X90405Y100285D01*
X90334Y100210D01*
X90326Y100192D01*
X90313Y100176D01*
X90274Y100080D01*
X90231Y99987D01*
X90228Y99967D01*
X90221Y99948D01*
X90202Y99782D01*
X90202Y99647D01*
X89309Y98754D01*
X82928Y98754D01*
X82035Y99647D01*
X82035Y104991D01*
X82020Y105081D01*
X82013Y105172D01*
X82001Y105202D01*
X81995Y105234D01*
X81953Y105315D01*
X81917Y105398D01*
X81891Y105431D01*
X81880Y105451D01*
X81857Y105473D01*
X81812Y105529D01*
X80937Y106405D01*
X80863Y106458D01*
X80793Y106517D01*
X80763Y106529D01*
X80737Y106548D01*
X80650Y106575D01*
X80565Y106609D01*
X80524Y106614D01*
X80502Y106620D01*
X80470Y106620D01*
X80399Y106628D01*
X72867Y106628D01*
X72777Y106613D01*
X72686Y106606D01*
X72656Y106593D01*
X72624Y106588D01*
X72544Y106545D01*
X72460Y106509D01*
X72428Y106484D01*
X72407Y106473D01*
X72385Y106449D01*
X72329Y106405D01*
X66484Y100560D01*
X55562Y100560D01*
X55543Y100557D01*
X55523Y100559D01*
X55422Y100537D01*
X55320Y100520D01*
X55302Y100511D01*
X55283Y100507D01*
X55194Y100454D01*
X55102Y100405D01*
X55089Y100391D01*
X55072Y100381D01*
X55004Y100302D01*
X54933Y100227D01*
X54925Y100209D01*
X54912Y100194D01*
X54873Y100097D01*
X54829Y100004D01*
X54827Y99984D01*
X54820Y99965D01*
X54801Y99799D01*
X54801Y96407D01*
X54803Y96397D01*
X54802Y96391D01*
X54809Y96362D01*
X54813Y96336D01*
X54815Y96265D01*
X54833Y96216D01*
X54841Y96164D01*
X54875Y96101D01*
X54899Y96034D01*
X54932Y95993D01*
X54956Y95947D01*
X55008Y95898D01*
X55053Y95842D01*
X55097Y95813D01*
X55134Y95778D01*
X55199Y95747D01*
X55260Y95709D01*
X55310Y95696D01*
X55357Y95674D01*
X55429Y95666D01*
X55498Y95649D01*
X55550Y95653D01*
X55602Y95647D01*
X55672Y95662D01*
X55743Y95668D01*
X55791Y95688D01*
X55842Y95699D01*
X55904Y95736D01*
X55970Y95764D01*
X56026Y95809D01*
X56053Y95825D01*
X56069Y95843D01*
X56101Y95869D01*
X56741Y96509D01*
X63122Y96509D01*
X64015Y95616D01*
X64015Y88234D01*
X63101Y87320D01*
X63093Y87318D01*
X62990Y87302D01*
X62973Y87292D01*
X62953Y87288D01*
X62864Y87235D01*
X62773Y87186D01*
X62759Y87172D01*
X62742Y87162D01*
X62675Y87083D01*
X62604Y87008D01*
X62595Y86990D01*
X62582Y86975D01*
X62544Y86879D01*
X62500Y86785D01*
X62498Y86765D01*
X62490Y86747D01*
X62472Y86580D01*
X62472Y86474D01*
X62475Y86455D01*
X62473Y86435D01*
X62495Y86334D01*
X62512Y86232D01*
X62521Y86214D01*
X62525Y86195D01*
X62578Y86106D01*
X62627Y86014D01*
X62641Y86001D01*
X62651Y85984D01*
X62730Y85916D01*
X62805Y85845D01*
X62823Y85837D01*
X62838Y85824D01*
X62935Y85785D01*
X63028Y85741D01*
X63048Y85739D01*
X63067Y85732D01*
X63233Y85713D01*
X69393Y85713D01*
X69523Y85583D01*
X69597Y85530D01*
X69666Y85471D01*
X69696Y85459D01*
X69722Y85440D01*
X69809Y85413D01*
X69894Y85379D01*
X69935Y85374D01*
X69957Y85367D01*
X69990Y85368D01*
X70061Y85360D01*
X71125Y85360D01*
X78915Y77571D01*
X78973Y77529D01*
X79025Y77480D01*
X79072Y77458D01*
X79114Y77427D01*
X79183Y77406D01*
X79248Y77376D01*
X79300Y77370D01*
X79350Y77355D01*
X79421Y77357D01*
X79492Y77349D01*
X79543Y77360D01*
G37*
G36*
X79473Y58233D02*
X79473Y58233D01*
X79492Y58231D01*
X79594Y58253D01*
X79696Y58270D01*
X79713Y58279D01*
X79733Y58284D01*
X79822Y58337D01*
X79913Y58385D01*
X79927Y58399D01*
X79944Y58410D01*
X80011Y58488D01*
X80083Y58563D01*
X80091Y58581D01*
X80104Y58597D01*
X80143Y58693D01*
X80186Y58786D01*
X80188Y58806D01*
X80196Y58825D01*
X80214Y58991D01*
X80214Y65820D01*
X81107Y66713D01*
X94459Y66713D01*
X95352Y65820D01*
X95352Y58991D01*
X95355Y58972D01*
X95353Y58952D01*
X95375Y58851D01*
X95391Y58749D01*
X95401Y58731D01*
X95405Y58712D01*
X95458Y58623D01*
X95507Y58531D01*
X95521Y58518D01*
X95531Y58501D01*
X95610Y58433D01*
X95685Y58362D01*
X95703Y58354D01*
X95718Y58341D01*
X95814Y58302D01*
X95908Y58258D01*
X95928Y58256D01*
X95946Y58249D01*
X96113Y58230D01*
X96750Y58230D01*
X96840Y58245D01*
X96931Y58252D01*
X96961Y58265D01*
X96992Y58270D01*
X97073Y58313D01*
X97157Y58348D01*
X97189Y58374D01*
X97210Y58385D01*
X97232Y58408D01*
X97288Y58453D01*
X102265Y63430D01*
X102318Y63504D01*
X102378Y63574D01*
X102390Y63604D01*
X102409Y63630D01*
X102436Y63717D01*
X102470Y63802D01*
X102474Y63843D01*
X102481Y63865D01*
X102480Y63897D01*
X102488Y63969D01*
X102488Y70719D01*
X102477Y70790D01*
X102475Y70862D01*
X102457Y70911D01*
X102449Y70962D01*
X102415Y71026D01*
X102390Y71093D01*
X102358Y71134D01*
X102333Y71180D01*
X102281Y71229D01*
X102237Y71285D01*
X102193Y71313D01*
X102155Y71349D01*
X102090Y71379D01*
X102030Y71418D01*
X101979Y71431D01*
X101932Y71453D01*
X101861Y71460D01*
X101791Y71478D01*
X101739Y71474D01*
X101688Y71480D01*
X101617Y71464D01*
X101546Y71459D01*
X101498Y71439D01*
X101447Y71427D01*
X101386Y71391D01*
X101320Y71363D01*
X101264Y71318D01*
X101236Y71301D01*
X101221Y71283D01*
X101189Y71258D01*
X98383Y68452D01*
X94595Y68452D01*
X94564Y68483D01*
X94490Y68536D01*
X94421Y68596D01*
X94390Y68608D01*
X94364Y68627D01*
X94277Y68654D01*
X94192Y68688D01*
X94152Y68692D01*
X94129Y68699D01*
X94097Y68698D01*
X94026Y68706D01*
X79457Y68706D01*
X79367Y68692D01*
X79276Y68684D01*
X79246Y68672D01*
X79214Y68667D01*
X79134Y68624D01*
X79050Y68588D01*
X79018Y68562D01*
X78997Y68551D01*
X78975Y68528D01*
X78919Y68483D01*
X78888Y68452D01*
X75100Y68452D01*
X67913Y75639D01*
X67839Y75692D01*
X67770Y75751D01*
X67740Y75764D01*
X67713Y75782D01*
X67626Y75809D01*
X67542Y75843D01*
X67501Y75848D01*
X67478Y75855D01*
X67446Y75854D01*
X67375Y75862D01*
X60807Y75862D01*
X60743Y75851D01*
X60677Y75851D01*
X60597Y75827D01*
X60565Y75822D01*
X60548Y75813D01*
X60516Y75804D01*
X59055Y75199D01*
X52768Y75199D01*
X52749Y75196D01*
X52729Y75198D01*
X52628Y75176D01*
X52526Y75159D01*
X52508Y75150D01*
X52489Y75145D01*
X52400Y75092D01*
X52308Y75044D01*
X52295Y75030D01*
X52278Y75019D01*
X52210Y74941D01*
X52139Y74866D01*
X52131Y74848D01*
X52118Y74832D01*
X52079Y74736D01*
X52035Y74643D01*
X52033Y74623D01*
X52026Y74604D01*
X52007Y74438D01*
X52007Y65343D01*
X52010Y65324D01*
X52008Y65304D01*
X52030Y65203D01*
X52047Y65101D01*
X52056Y65083D01*
X52061Y65064D01*
X52114Y64975D01*
X52162Y64883D01*
X52176Y64870D01*
X52187Y64853D01*
X52265Y64785D01*
X52340Y64714D01*
X52358Y64706D01*
X52374Y64693D01*
X52470Y64654D01*
X52563Y64610D01*
X52583Y64608D01*
X52602Y64601D01*
X52768Y64582D01*
X54387Y64582D01*
X54407Y64585D01*
X54426Y64583D01*
X54528Y64605D01*
X54630Y64622D01*
X54647Y64631D01*
X54667Y64636D01*
X54756Y64689D01*
X54847Y64737D01*
X54861Y64751D01*
X54878Y64762D01*
X54945Y64840D01*
X55017Y64915D01*
X55025Y64933D01*
X55038Y64949D01*
X55077Y65045D01*
X55120Y65138D01*
X55122Y65158D01*
X55130Y65177D01*
X55148Y65343D01*
X55148Y65820D01*
X56041Y66713D01*
X69393Y66713D01*
X70286Y65820D01*
X70286Y58991D01*
X70289Y58972D01*
X70287Y58952D01*
X70309Y58851D01*
X70325Y58749D01*
X70335Y58731D01*
X70339Y58712D01*
X70392Y58623D01*
X70441Y58531D01*
X70455Y58518D01*
X70465Y58501D01*
X70544Y58433D01*
X70619Y58362D01*
X70637Y58354D01*
X70652Y58341D01*
X70748Y58302D01*
X70842Y58258D01*
X70862Y58256D01*
X70880Y58249D01*
X71047Y58230D01*
X79453Y58230D01*
X79473Y58233D01*
G37*
G36*
X12458Y126640D02*
X12458Y126640D01*
X12529Y126642D01*
X12578Y126660D01*
X12630Y126668D01*
X12693Y126702D01*
X12760Y126726D01*
X12801Y126759D01*
X12847Y126783D01*
X12896Y126835D01*
X12952Y126880D01*
X12981Y126924D01*
X13016Y126962D01*
X13047Y127027D01*
X13085Y127087D01*
X13098Y127137D01*
X13120Y127185D01*
X13128Y127256D01*
X13145Y127326D01*
X13141Y127377D01*
X13147Y127429D01*
X13132Y127499D01*
X13126Y127571D01*
X13106Y127619D01*
X13095Y127670D01*
X13058Y127731D01*
X13030Y127797D01*
X12985Y127853D01*
X12969Y127881D01*
X12951Y127896D01*
X12925Y127928D01*
X12642Y128212D01*
X12642Y132608D01*
X15750Y135716D01*
X17252Y135716D01*
X17297Y135724D01*
X17343Y135722D01*
X17418Y135744D01*
X17495Y135756D01*
X17535Y135778D01*
X17579Y135790D01*
X17643Y135835D01*
X17712Y135871D01*
X17744Y135905D01*
X17781Y135931D01*
X17828Y135993D01*
X17881Y136050D01*
X17901Y136091D01*
X17928Y136128D01*
X17952Y136202D01*
X17985Y136273D01*
X17990Y136318D01*
X18004Y136362D01*
X18003Y136440D01*
X18012Y136517D01*
X18002Y136562D01*
X18002Y136608D01*
X17964Y136739D01*
X17960Y136758D01*
X17957Y136762D01*
X17955Y136769D01*
X17385Y138145D01*
X17385Y140955D01*
X18461Y143552D01*
X20116Y145207D01*
X20158Y145265D01*
X20207Y145317D01*
X20229Y145365D01*
X20260Y145407D01*
X20281Y145475D01*
X20311Y145541D01*
X20317Y145592D01*
X20332Y145642D01*
X20330Y145714D01*
X20338Y145785D01*
X20327Y145836D01*
X20326Y145888D01*
X20301Y145955D01*
X20286Y146025D01*
X20259Y146070D01*
X20241Y146119D01*
X20196Y146175D01*
X20160Y146236D01*
X20120Y146270D01*
X20088Y146311D01*
X20027Y146350D01*
X19973Y146396D01*
X19924Y146416D01*
X19881Y146444D01*
X19811Y146461D01*
X19745Y146488D01*
X19673Y146496D01*
X19642Y146504D01*
X19619Y146502D01*
X19578Y146507D01*
X5842Y146507D01*
X5822Y146504D01*
X5803Y146506D01*
X5701Y146484D01*
X5599Y146467D01*
X5582Y146458D01*
X5562Y146453D01*
X5473Y146400D01*
X5382Y146352D01*
X5368Y146338D01*
X5351Y146327D01*
X5284Y146249D01*
X5212Y146174D01*
X5204Y146156D01*
X5191Y146140D01*
X5152Y146044D01*
X5109Y145951D01*
X5107Y145931D01*
X5099Y145912D01*
X5081Y145746D01*
X5081Y127390D01*
X5084Y127370D01*
X5082Y127350D01*
X5104Y127249D01*
X5120Y127147D01*
X5130Y127129D01*
X5134Y127110D01*
X5187Y127021D01*
X5236Y126930D01*
X5250Y126916D01*
X5260Y126899D01*
X5339Y126831D01*
X5414Y126760D01*
X5432Y126752D01*
X5447Y126739D01*
X5543Y126700D01*
X5637Y126657D01*
X5657Y126654D01*
X5675Y126647D01*
X5842Y126628D01*
X12387Y126628D01*
X12458Y126640D01*
G37*
D10*
X69931Y91925D03*
X59931Y91925D03*
X76600Y91925D03*
X86600Y91925D03*
X78188Y126056D03*
X88188Y126056D03*
X76119Y103338D03*
X86119Y103338D03*
D11*
X63656Y48806D03*
X63656Y38806D03*
X64450Y15788D03*
X64450Y25788D03*
D12*
X97700Y42859D02*
X97700Y47765D01*
X91200Y47765D02*
X91200Y42859D01*
X84700Y42859D02*
X84700Y47765D01*
X78200Y47765D02*
X78200Y42859D01*
X78200Y18753D02*
X78200Y13847D01*
X84700Y13847D02*
X84700Y18753D01*
X91200Y18753D02*
X91200Y13847D01*
X97700Y13847D02*
X97700Y18753D01*
D13*
X87950Y30806D03*
D14*
X24450Y32394D03*
X24450Y108594D03*
D15*
X24450Y60969D03*
X24450Y80019D03*
D14*
X150000Y94844D03*
X150000Y56744D03*
D16*
X62550Y140344D03*
X113350Y140344D03*
X75250Y140344D03*
X87950Y140344D03*
X100650Y140344D03*
D17*
X98600Y102405D03*
X108100Y102405D03*
X117600Y102405D03*
X117600Y127471D03*
X98600Y127471D03*
D18*
X62717Y80788D03*
X62717Y71288D03*
X62717Y61788D03*
X87783Y61788D03*
X87783Y80788D03*
D19*
X24450Y139550D03*
X37150Y139550D03*
X11750Y139550D03*
D20*
X9525Y45244D03*
X9525Y36513D03*
X9525Y19844D03*
X9525Y28575D03*
X108744Y10319D03*
X116681Y10319D03*
D21*
X70644Y99219D03*
X125809Y92869D03*
X126206Y141288D03*
X134144Y141288D03*
X76200Y61913D03*
X140494Y34925D03*
D22*
X62717Y61788D02*
X49213Y61788D01*
D23*
X49213Y108594D02*
X24450Y108594D01*
D24*
X123031Y39035D03*
D22*
X49213Y61788D02*
X49213Y80788D01*
X49213Y83169D01*
X57944Y80788D02*
X62717Y80788D01*
D23*
X57944Y80788D02*
X49213Y80788D01*
D22*
X49213Y61788D02*
X49213Y45244D01*
D21*
X49213Y45244D03*
D25*
X59931Y82775D02*
X59931Y91925D01*
X59931Y82775D02*
X57944Y80788D01*
D23*
X49213Y83169D02*
X49213Y103355D01*
X49213Y108594D01*
D26*
X62717Y80788D02*
X69231Y80788D01*
X76994Y73025D01*
D27*
X96489Y73025D01*
D26*
X105387Y81923D01*
X119244Y81923D01*
X124619Y76548D01*
X124619Y40623D01*
X123031Y39035D01*
D22*
X98600Y102405D02*
X97667Y103338D01*
X86119Y103338D01*
X84931Y104525D01*
X84931Y106363D01*
X81872Y109422D01*
X71394Y109422D02*
X65327Y103355D01*
X49213Y103355D01*
X71394Y109422D02*
X81872Y109422D01*
X86600Y91925D02*
X86600Y81971D01*
X87783Y80788D01*
X37950Y139550D02*
X37150Y139550D01*
X37950Y139550D02*
X41275Y142875D01*
X60019Y142875D01*
X62550Y140344D01*
X86600Y91925D02*
X86600Y87163D01*
X105569Y90488D02*
X111125Y90488D01*
X105569Y90488D02*
X102244Y87163D01*
X86600Y87163D01*
D20*
X111125Y90488D03*
D22*
X78200Y16300D02*
X77931Y16031D01*
X64450Y15788D01*
X37150Y132400D02*
X37150Y139550D01*
X37150Y132400D02*
X34131Y129381D01*
X18977Y129381D01*
X17948Y130410D01*
D20*
X17948Y130410D03*
X56039Y17461D03*
D22*
X57481Y15788D02*
X64450Y15788D01*
X57481Y15788D02*
X56039Y17230D01*
X56039Y17461D01*
X88188Y126056D02*
X97186Y126056D01*
X98600Y127471D01*
X68459Y48806D02*
X63656Y48806D01*
X68459Y48806D02*
X71812Y52160D01*
X84700Y52160D01*
X84700Y45312D01*
X84700Y52160D02*
X106929Y52160D01*
X112713Y57944D02*
X112713Y69698D01*
D20*
X112713Y69698D03*
D22*
X112713Y57944D02*
X106929Y52160D01*
D20*
X108893Y123059D03*
D22*
X98600Y123059D01*
X98600Y127471D01*
D21*
X65088Y117475D03*
D22*
X97700Y45312D02*
X110263Y45312D01*
X111919Y43656D02*
X111919Y23813D01*
X115888Y19844D01*
D21*
X115888Y19844D03*
X133350Y130175D03*
D22*
X110263Y45312D02*
X111919Y43656D01*
D28*
X70973Y116300D02*
X69799Y117475D01*
X86448Y116300D02*
X88966Y113783D01*
X86448Y116300D02*
X70973Y116300D01*
D25*
X133350Y125413D02*
X133350Y130175D01*
X133350Y125413D02*
X121974Y114037D01*
D28*
X121720Y113783D02*
X88966Y113783D01*
X121720Y113783D02*
X121974Y114037D01*
X69799Y117475D02*
X65088Y117475D01*
D21*
X61119Y109681D03*
D22*
X75887Y47625D02*
X78200Y45312D01*
X75887Y47625D02*
X73025Y47625D01*
X69056Y43656D01*
D28*
X57944Y43656D01*
D22*
X56356Y45244D01*
X56356Y51594D01*
X59531Y54769D01*
X66675Y54769D01*
D28*
X68790Y54769D01*
X69965Y55944D01*
X108744Y76200D02*
X115888Y76200D01*
X119285Y72803D01*
X119285Y49780D02*
X116713Y47209D01*
X116713Y27749D01*
X128037Y16426D02*
X128588Y16426D01*
D20*
X128588Y16426D03*
D28*
X119285Y49780D02*
X119285Y72803D01*
X116713Y27749D02*
X128037Y16426D01*
D20*
X142875Y131195D03*
D22*
X142875Y129381D01*
D25*
X125678Y112185D01*
D28*
X65881Y109681D02*
X61119Y109681D01*
X69965Y55944D02*
X98012Y55944D01*
X104775Y72231D02*
X108744Y76200D01*
X104775Y62706D02*
X98012Y55944D01*
X104775Y62706D02*
X104775Y72231D01*
X65881Y109681D02*
X69453Y113252D01*
X85185Y113252D01*
X87703Y110735D01*
X124228Y110735D02*
X125678Y112185D01*
X124228Y110735D02*
X87703Y110735D01*
D24*
X127000Y30163D03*
D26*
X127000Y30836D01*
X132239Y38983D02*
X150000Y56744D01*
X132239Y36075D02*
X127000Y30836D01*
X132239Y36075D02*
X132239Y38983D01*
D24*
X136525Y113506D03*
D26*
X136525Y108319D01*
X150000Y94844D01*
D25*
X91200Y16300D02*
X91200Y11358D01*
X85938Y6096D01*
X24860Y6096D02*
X20638Y10319D01*
D21*
X20638Y10319D03*
X17463Y71105D03*
D25*
X17463Y80019D01*
X24450Y80019D01*
X24860Y6096D02*
X85938Y6096D01*
X84700Y11358D02*
X84700Y16300D01*
X84700Y11358D02*
X82994Y9652D01*
X51649Y9652D02*
X47915Y13386D01*
D21*
X47915Y13386D03*
X27781Y69835D03*
D25*
X27781Y60969D01*
X24450Y60969D01*
X51649Y9652D02*
X82994Y9652D01*
X87950Y140338D02*
X87950Y140344D01*
X87950Y140338D02*
X80169Y132556D01*
X55706Y132556D01*
X52126Y136136D02*
X48158Y136136D01*
X52126Y136136D02*
X55706Y132556D01*
D20*
X48158Y136136D03*
M02*
