G04 EAGLE Gerber RS-274X export*
G75*
%MOMM*%
%FSLAX34Y34*%
%LPD*%
%INSilkscreen Bottom*%
%IPPOS*%
%AMOC8*
5,1,8,0,0,1.08239X$1,22.5*%
G01*
%ADD10C,0.120000*%
%ADD11C,0.076200*%
%ADD12C,0.050800*%

G36*
X40046Y100599D02*
X40046Y100599D01*
X40097Y100601D01*
X40129Y100618D01*
X40165Y100627D01*
X40204Y100659D01*
X40249Y100684D01*
X40270Y100714D01*
X40299Y100737D01*
X40320Y100784D01*
X40349Y100825D01*
X40357Y100867D01*
X40370Y100895D01*
X40368Y100926D01*
X40377Y100968D01*
X40377Y103508D01*
X40365Y103557D01*
X40363Y103608D01*
X40345Y103640D01*
X40337Y103676D01*
X40305Y103716D01*
X40280Y103760D01*
X40250Y103782D01*
X40227Y103810D01*
X40180Y103831D01*
X40139Y103860D01*
X40097Y103868D01*
X40069Y103881D01*
X40038Y103880D01*
X39996Y103888D01*
X34916Y103888D01*
X34867Y103876D01*
X34816Y103874D01*
X34783Y103857D01*
X34748Y103848D01*
X34708Y103816D01*
X34663Y103791D01*
X34642Y103761D01*
X34614Y103738D01*
X34593Y103691D01*
X34564Y103650D01*
X34556Y103608D01*
X34543Y103580D01*
X34544Y103549D01*
X34536Y103508D01*
X34536Y100968D01*
X34548Y100918D01*
X34550Y100867D01*
X34567Y100835D01*
X34575Y100799D01*
X34608Y100759D01*
X34632Y100715D01*
X34662Y100694D01*
X34686Y100665D01*
X34732Y100644D01*
X34774Y100615D01*
X34816Y100607D01*
X34844Y100594D01*
X34874Y100595D01*
X34916Y100587D01*
X39996Y100587D01*
X40046Y100599D01*
G37*
G36*
X130545Y42185D02*
X130545Y42185D01*
X130596Y42187D01*
X130628Y42205D01*
X130664Y42213D01*
X130703Y42245D01*
X130748Y42270D01*
X130769Y42300D01*
X130797Y42323D01*
X130818Y42370D01*
X130848Y42412D01*
X130856Y42453D01*
X130868Y42481D01*
X130867Y42512D01*
X130875Y42554D01*
X130875Y47634D01*
X130864Y47683D01*
X130862Y47734D01*
X130844Y47767D01*
X130836Y47802D01*
X130803Y47842D01*
X130779Y47887D01*
X130749Y47908D01*
X130726Y47936D01*
X130679Y47957D01*
X130637Y47986D01*
X130595Y47995D01*
X130567Y48007D01*
X130537Y48006D01*
X130495Y48014D01*
X127955Y48014D01*
X127905Y48002D01*
X127854Y48000D01*
X127822Y47983D01*
X127786Y47975D01*
X127747Y47942D01*
X127702Y47918D01*
X127681Y47888D01*
X127653Y47864D01*
X127632Y47818D01*
X127602Y47776D01*
X127594Y47734D01*
X127582Y47706D01*
X127583Y47676D01*
X127575Y47634D01*
X127575Y42554D01*
X127586Y42504D01*
X127588Y42453D01*
X127606Y42421D01*
X127614Y42385D01*
X127647Y42346D01*
X127671Y42301D01*
X127701Y42280D01*
X127724Y42251D01*
X127771Y42230D01*
X127813Y42201D01*
X127855Y42193D01*
X127883Y42180D01*
X127913Y42182D01*
X127955Y42174D01*
X130495Y42174D01*
X130545Y42185D01*
G37*
G36*
X95620Y8848D02*
X95620Y8848D01*
X95671Y8850D01*
X95703Y8867D01*
X95739Y8875D01*
X95778Y8908D01*
X95823Y8932D01*
X95844Y8962D01*
X95872Y8986D01*
X95893Y9032D01*
X95923Y9074D01*
X95931Y9116D01*
X95943Y9144D01*
X95942Y9174D01*
X95950Y9216D01*
X95950Y14296D01*
X95939Y14346D01*
X95937Y14397D01*
X95919Y14429D01*
X95911Y14465D01*
X95878Y14504D01*
X95854Y14549D01*
X95824Y14570D01*
X95801Y14599D01*
X95754Y14620D01*
X95712Y14649D01*
X95670Y14657D01*
X95642Y14670D01*
X95612Y14668D01*
X95570Y14677D01*
X93030Y14677D01*
X92980Y14665D01*
X92929Y14663D01*
X92897Y14645D01*
X92861Y14637D01*
X92822Y14605D01*
X92777Y14580D01*
X92756Y14550D01*
X92728Y14527D01*
X92707Y14480D01*
X92677Y14439D01*
X92669Y14397D01*
X92657Y14369D01*
X92658Y14338D01*
X92650Y14296D01*
X92650Y9216D01*
X92661Y9167D01*
X92663Y9116D01*
X92681Y9083D01*
X92689Y9048D01*
X92722Y9008D01*
X92746Y8963D01*
X92776Y8942D01*
X92799Y8914D01*
X92846Y8893D01*
X92888Y8864D01*
X92930Y8856D01*
X92958Y8843D01*
X92988Y8844D01*
X93030Y8836D01*
X95570Y8836D01*
X95620Y8848D01*
G37*
G36*
X71013Y7260D02*
X71013Y7260D01*
X71064Y7262D01*
X71097Y7280D01*
X71132Y7288D01*
X71172Y7320D01*
X71217Y7345D01*
X71238Y7375D01*
X71266Y7398D01*
X71287Y7445D01*
X71316Y7487D01*
X71325Y7528D01*
X71337Y7556D01*
X71336Y7587D01*
X71344Y7629D01*
X71344Y12709D01*
X71332Y12758D01*
X71330Y12809D01*
X71313Y12842D01*
X71305Y12877D01*
X71272Y12917D01*
X71248Y12962D01*
X71218Y12983D01*
X71194Y13011D01*
X71148Y13032D01*
X71106Y13061D01*
X71064Y13070D01*
X71036Y13082D01*
X71006Y13081D01*
X70964Y13089D01*
X68424Y13089D01*
X68374Y13077D01*
X68323Y13075D01*
X68291Y13058D01*
X68255Y13050D01*
X68216Y13017D01*
X68171Y12993D01*
X68150Y12963D01*
X68121Y12939D01*
X68100Y12893D01*
X68071Y12851D01*
X68063Y12809D01*
X68050Y12781D01*
X68052Y12751D01*
X68044Y12709D01*
X68044Y7629D01*
X68055Y7579D01*
X68057Y7528D01*
X68075Y7496D01*
X68083Y7460D01*
X68115Y7421D01*
X68140Y7376D01*
X68170Y7355D01*
X68193Y7326D01*
X68240Y7305D01*
X68282Y7276D01*
X68323Y7268D01*
X68351Y7255D01*
X68382Y7257D01*
X68424Y7249D01*
X70964Y7249D01*
X71013Y7260D01*
G37*
D10*
X67560Y70594D02*
X62450Y70594D01*
X62450Y65484D01*
X62450Y19594D02*
X67560Y19594D01*
X62450Y19594D02*
X62450Y24704D01*
X108340Y19594D02*
X113450Y19594D01*
X113450Y24704D01*
X113450Y70594D02*
X108340Y70594D01*
X113450Y70594D02*
X113450Y65484D01*
D11*
X71938Y57286D02*
X71940Y57401D01*
X71946Y57516D01*
X71956Y57630D01*
X71970Y57744D01*
X71988Y57858D01*
X72010Y57971D01*
X72035Y58083D01*
X72065Y58194D01*
X72098Y58304D01*
X72136Y58413D01*
X72177Y58520D01*
X72221Y58626D01*
X72270Y58730D01*
X72321Y58833D01*
X72377Y58934D01*
X72436Y59032D01*
X72498Y59129D01*
X72564Y59223D01*
X72633Y59315D01*
X72705Y59405D01*
X72780Y59492D01*
X72858Y59577D01*
X72939Y59658D01*
X73022Y59737D01*
X73109Y59813D01*
X73198Y59886D01*
X73289Y59955D01*
X73383Y60022D01*
X73479Y60085D01*
X73577Y60145D01*
X73678Y60201D01*
X73780Y60254D01*
X73884Y60303D01*
X73989Y60349D01*
X74096Y60391D01*
X74205Y60429D01*
X74314Y60463D01*
X74425Y60494D01*
X74537Y60520D01*
X74650Y60543D01*
X74763Y60562D01*
X74877Y60577D01*
X74992Y60588D01*
X75106Y60595D01*
X75221Y60598D01*
X75336Y60597D01*
X75451Y60592D01*
X75566Y60583D01*
X75680Y60570D01*
X75794Y60553D01*
X75907Y60532D01*
X76019Y60507D01*
X76130Y60479D01*
X76241Y60446D01*
X76350Y60410D01*
X76457Y60370D01*
X76564Y60326D01*
X76668Y60279D01*
X76772Y60228D01*
X76873Y60173D01*
X76972Y60115D01*
X77069Y60054D01*
X77164Y59989D01*
X77257Y59921D01*
X77347Y59850D01*
X77435Y59775D01*
X77520Y59698D01*
X77602Y59618D01*
X77682Y59535D01*
X77758Y59449D01*
X77832Y59361D01*
X77902Y59270D01*
X77969Y59177D01*
X78033Y59081D01*
X78094Y58983D01*
X78151Y58884D01*
X78205Y58782D01*
X78255Y58678D01*
X78302Y58573D01*
X78344Y58467D01*
X78384Y58359D01*
X78419Y58249D01*
X78450Y58139D01*
X78478Y58027D01*
X78502Y57915D01*
X78522Y57801D01*
X78538Y57687D01*
X78550Y57573D01*
X78558Y57458D01*
X78562Y57343D01*
X78562Y57229D01*
X78558Y57114D01*
X78550Y56999D01*
X78538Y56885D01*
X78522Y56771D01*
X78502Y56657D01*
X78478Y56545D01*
X78450Y56433D01*
X78419Y56323D01*
X78384Y56213D01*
X78344Y56105D01*
X78302Y55999D01*
X78255Y55894D01*
X78205Y55790D01*
X78151Y55688D01*
X78094Y55589D01*
X78033Y55491D01*
X77969Y55395D01*
X77902Y55302D01*
X77832Y55211D01*
X77758Y55123D01*
X77682Y55037D01*
X77602Y54954D01*
X77520Y54874D01*
X77435Y54797D01*
X77347Y54722D01*
X77257Y54651D01*
X77164Y54583D01*
X77069Y54518D01*
X76972Y54457D01*
X76873Y54399D01*
X76772Y54344D01*
X76668Y54293D01*
X76564Y54246D01*
X76457Y54202D01*
X76350Y54162D01*
X76241Y54126D01*
X76130Y54093D01*
X76019Y54065D01*
X75907Y54040D01*
X75794Y54019D01*
X75680Y54002D01*
X75566Y53989D01*
X75451Y53980D01*
X75336Y53975D01*
X75221Y53974D01*
X75106Y53977D01*
X74992Y53984D01*
X74877Y53995D01*
X74763Y54010D01*
X74650Y54029D01*
X74537Y54052D01*
X74425Y54078D01*
X74314Y54109D01*
X74205Y54143D01*
X74096Y54181D01*
X73989Y54223D01*
X73884Y54269D01*
X73780Y54318D01*
X73678Y54371D01*
X73577Y54427D01*
X73479Y54487D01*
X73383Y54550D01*
X73289Y54617D01*
X73198Y54686D01*
X73109Y54759D01*
X73022Y54835D01*
X72939Y54914D01*
X72858Y54995D01*
X72780Y55080D01*
X72705Y55167D01*
X72633Y55257D01*
X72564Y55349D01*
X72498Y55443D01*
X72436Y55540D01*
X72377Y55638D01*
X72321Y55739D01*
X72270Y55842D01*
X72221Y55946D01*
X72177Y56052D01*
X72136Y56159D01*
X72098Y56268D01*
X72065Y56378D01*
X72035Y56489D01*
X72010Y56601D01*
X71988Y56714D01*
X71970Y56828D01*
X71956Y56942D01*
X71946Y57056D01*
X71940Y57171D01*
X71938Y57286D01*
X86225Y125006D02*
X86225Y127506D01*
X83725Y127506D01*
X86225Y89006D02*
X86225Y86506D01*
X83725Y86506D01*
X47725Y86506D02*
X45225Y86506D01*
X45225Y89006D01*
X45225Y125006D02*
X45225Y127506D01*
X47725Y127506D01*
X75225Y117506D02*
X75227Y117595D01*
X75233Y117684D01*
X75243Y117773D01*
X75257Y117861D01*
X75274Y117948D01*
X75296Y118034D01*
X75322Y118120D01*
X75351Y118204D01*
X75384Y118287D01*
X75420Y118368D01*
X75461Y118448D01*
X75504Y118525D01*
X75551Y118601D01*
X75602Y118674D01*
X75655Y118745D01*
X75712Y118814D01*
X75772Y118880D01*
X75835Y118944D01*
X75900Y119004D01*
X75968Y119062D01*
X76039Y119116D01*
X76112Y119167D01*
X76187Y119215D01*
X76264Y119260D01*
X76343Y119301D01*
X76424Y119338D01*
X76506Y119372D01*
X76590Y119403D01*
X76675Y119429D01*
X76761Y119452D01*
X76848Y119470D01*
X76936Y119485D01*
X77025Y119496D01*
X77114Y119503D01*
X77203Y119506D01*
X77292Y119505D01*
X77381Y119500D01*
X77469Y119491D01*
X77558Y119478D01*
X77645Y119461D01*
X77732Y119441D01*
X77818Y119416D01*
X77902Y119388D01*
X77985Y119356D01*
X78067Y119320D01*
X78147Y119281D01*
X78225Y119238D01*
X78301Y119192D01*
X78375Y119142D01*
X78447Y119089D01*
X78516Y119033D01*
X78583Y118974D01*
X78647Y118912D01*
X78708Y118848D01*
X78767Y118780D01*
X78822Y118710D01*
X78874Y118638D01*
X78923Y118563D01*
X78968Y118487D01*
X79010Y118408D01*
X79048Y118328D01*
X79083Y118246D01*
X79114Y118162D01*
X79142Y118077D01*
X79165Y117991D01*
X79185Y117904D01*
X79201Y117817D01*
X79213Y117728D01*
X79221Y117640D01*
X79225Y117551D01*
X79225Y117461D01*
X79221Y117372D01*
X79213Y117284D01*
X79201Y117195D01*
X79185Y117108D01*
X79165Y117021D01*
X79142Y116935D01*
X79114Y116850D01*
X79083Y116766D01*
X79048Y116684D01*
X79010Y116604D01*
X78968Y116525D01*
X78923Y116449D01*
X78874Y116374D01*
X78822Y116302D01*
X78767Y116232D01*
X78708Y116164D01*
X78647Y116100D01*
X78583Y116038D01*
X78516Y115979D01*
X78447Y115923D01*
X78375Y115870D01*
X78301Y115820D01*
X78225Y115774D01*
X78147Y115731D01*
X78067Y115692D01*
X77985Y115656D01*
X77902Y115624D01*
X77818Y115596D01*
X77732Y115571D01*
X77645Y115551D01*
X77558Y115534D01*
X77469Y115521D01*
X77381Y115512D01*
X77292Y115507D01*
X77203Y115506D01*
X77114Y115509D01*
X77025Y115516D01*
X76936Y115527D01*
X76848Y115542D01*
X76761Y115560D01*
X76675Y115583D01*
X76590Y115609D01*
X76506Y115640D01*
X76424Y115674D01*
X76343Y115711D01*
X76264Y115752D01*
X76187Y115797D01*
X76112Y115845D01*
X76039Y115896D01*
X75968Y115950D01*
X75900Y116008D01*
X75835Y116068D01*
X75772Y116132D01*
X75712Y116198D01*
X75655Y116267D01*
X75602Y116338D01*
X75551Y116411D01*
X75504Y116487D01*
X75461Y116564D01*
X75420Y116644D01*
X75384Y116725D01*
X75351Y116808D01*
X75322Y116892D01*
X75296Y116978D01*
X75274Y117064D01*
X75257Y117151D01*
X75243Y117239D01*
X75233Y117328D01*
X75227Y117417D01*
X75225Y117506D01*
D12*
X79471Y99348D02*
X79471Y93760D01*
X77608Y96244D02*
X79471Y99348D01*
X77608Y96244D02*
X75746Y99348D01*
X75746Y93760D01*
X71900Y93760D02*
X70658Y93760D01*
X71900Y93760D02*
X71970Y93762D01*
X72039Y93768D01*
X72108Y93778D01*
X72176Y93791D01*
X72244Y93809D01*
X72310Y93830D01*
X72375Y93855D01*
X72439Y93883D01*
X72501Y93915D01*
X72561Y93950D01*
X72619Y93989D01*
X72674Y94031D01*
X72728Y94076D01*
X72778Y94124D01*
X72826Y94174D01*
X72871Y94228D01*
X72913Y94283D01*
X72952Y94341D01*
X72987Y94401D01*
X73019Y94463D01*
X73047Y94527D01*
X73072Y94592D01*
X73093Y94658D01*
X73111Y94726D01*
X73124Y94794D01*
X73134Y94863D01*
X73140Y94932D01*
X73142Y95002D01*
X73142Y98106D01*
X73140Y98176D01*
X73134Y98245D01*
X73124Y98314D01*
X73111Y98382D01*
X73093Y98450D01*
X73072Y98516D01*
X73047Y98581D01*
X73019Y98645D01*
X72987Y98707D01*
X72952Y98767D01*
X72913Y98825D01*
X72871Y98880D01*
X72826Y98934D01*
X72778Y98984D01*
X72728Y99032D01*
X72674Y99077D01*
X72619Y99119D01*
X72561Y99158D01*
X72501Y99193D01*
X72439Y99225D01*
X72375Y99253D01*
X72310Y99278D01*
X72244Y99299D01*
X72176Y99317D01*
X72108Y99330D01*
X72039Y99340D01*
X71970Y99346D01*
X71900Y99348D01*
X70658Y99348D01*
X68371Y99348D02*
X68371Y95312D01*
X68369Y95235D01*
X68363Y95157D01*
X68354Y95081D01*
X68340Y95004D01*
X68323Y94929D01*
X68302Y94855D01*
X68277Y94781D01*
X68249Y94709D01*
X68217Y94639D01*
X68182Y94570D01*
X68143Y94503D01*
X68101Y94438D01*
X68056Y94375D01*
X68008Y94314D01*
X67957Y94256D01*
X67903Y94201D01*
X67846Y94148D01*
X67787Y94099D01*
X67725Y94052D01*
X67661Y94008D01*
X67595Y93968D01*
X67527Y93931D01*
X67457Y93897D01*
X67386Y93867D01*
X67313Y93841D01*
X67239Y93818D01*
X67164Y93799D01*
X67089Y93784D01*
X67012Y93772D01*
X66935Y93764D01*
X66858Y93760D01*
X66780Y93760D01*
X66703Y93764D01*
X66626Y93772D01*
X66549Y93784D01*
X66474Y93799D01*
X66399Y93818D01*
X66325Y93841D01*
X66252Y93867D01*
X66181Y93897D01*
X66111Y93931D01*
X66043Y93968D01*
X65977Y94008D01*
X65913Y94052D01*
X65851Y94099D01*
X65792Y94148D01*
X65735Y94201D01*
X65681Y94256D01*
X65630Y94314D01*
X65582Y94375D01*
X65537Y94438D01*
X65495Y94503D01*
X65456Y94570D01*
X65421Y94639D01*
X65389Y94709D01*
X65361Y94781D01*
X65336Y94855D01*
X65315Y94929D01*
X65298Y95004D01*
X65284Y95081D01*
X65275Y95157D01*
X65269Y95235D01*
X65267Y95312D01*
X65266Y95312D02*
X65266Y99348D01*
X62701Y98106D02*
X61149Y99348D01*
X61149Y93760D01*
X62701Y93760D02*
X59597Y93760D01*
D11*
X110810Y110658D02*
X115890Y110658D01*
X115890Y108118D01*
X110810Y108118D01*
X110810Y110658D01*
X130495Y57159D02*
X130495Y52079D01*
X127955Y52079D01*
X127955Y57159D01*
X130495Y57159D01*
M02*
