* source CONSTANT CURRENT SOURCE
.EXTERNAL OUTPUT VREG
.EXTERNAL INPUT VIN
.EXTERNAL OUTPUT VOUT
X_U1         VREG 0 N15001 N15016 VOUT N15005 N15052 N15056 N14997 N15226
+  N15283 N15329 0 TPS53819A_TRANS PARAMS: HICLOFF=0 VOA=0 VOLH=0 VDDINUVLO=5
+  FREQ_SEL=1 CM=0 FASTSTART=1 FAST=1 SST=0 VOM=0
V_V1         VIN 0 DC 10  
R_R1         N15001 VREG  100k TC=0,0 
R_R2         N14997 VREG  100k TC=0,0 
R_R3         0 N15329  39.2k TC=0,0 
R_R4         VOUT N15283  10k TC=0,0 
R_R5         0 N15283  10k TC=0,0 
R_R6         VIN N15226  0.1 TC=0,0 
R_R7         N15040 N15052  4.7 TC=0,0 
R_R8         N15016 N15012  0.1 TC=0,0 
C_C3         N15005 N15012  1n  TC=0,0 
C_C4         0 VREG  1uF  TC=0,0 
C_C5         0 N15226  1uF  TC=0,0 
X_U2         VIN VIN N15040 N15016 N15056 N15081 N15081 N15081 0 CSD87350Q5D
C_C6         0 VIN  100nF  TC=0,0 
C_C7         N15142 N15081  100pF  TC=0,0 
R_R9         0 N15142  3 TC=0,0 
L_L1         N15081 VOUT  440nH  
R_R10         VOUT 0  1k TC=0,0 
