G04 EAGLE Gerber RS-274X export*
G75*
%MOMM*%
%FSLAX34Y34*%
%LPD*%
%INBottom Copper*%
%IPPOS*%
%AMOC8*
5,1,8,0,0,1.08239X$1,22.5*%
G01*
%ADD10C,1.008000*%
%ADD11R,3.000000X1.000000*%
%ADD12R,1.208800X0.680200*%
%ADD13R,0.511800X0.611800*%
%ADD14C,0.706400*%
%ADD15C,0.254000*%
%ADD16C,0.756400*%
%ADD17C,0.152400*%
%ADD18C,0.203200*%
%ADD19C,0.304800*%
%ADD20C,0.609600*%

G36*
X83175Y-759D02*
X83175Y-759D01*
X83191Y-761D01*
X83357Y-735D01*
X88641Y681D01*
X95509Y681D01*
X100793Y-735D01*
X100809Y-737D01*
X100824Y-743D01*
X100990Y-761D01*
X117983Y-761D01*
X118003Y-758D01*
X118022Y-760D01*
X118124Y-738D01*
X118226Y-722D01*
X118243Y-712D01*
X118263Y-708D01*
X118352Y-655D01*
X118443Y-606D01*
X118457Y-592D01*
X118474Y-582D01*
X118541Y-503D01*
X118613Y-428D01*
X118621Y-410D01*
X118634Y-395D01*
X118673Y-299D01*
X118716Y-205D01*
X118718Y-185D01*
X118726Y-167D01*
X118744Y0D01*
X118744Y2105D01*
X121720Y5081D01*
X178308Y5081D01*
X178328Y5084D01*
X178347Y5082D01*
X178449Y5104D01*
X178551Y5120D01*
X178568Y5130D01*
X178588Y5134D01*
X178677Y5187D01*
X178768Y5236D01*
X178782Y5250D01*
X178799Y5260D01*
X178866Y5339D01*
X178938Y5414D01*
X178946Y5432D01*
X178959Y5447D01*
X178998Y5543D01*
X179041Y5637D01*
X179043Y5657D01*
X179051Y5675D01*
X179069Y5842D01*
X179069Y197358D01*
X179066Y197378D01*
X179068Y197397D01*
X179046Y197499D01*
X179030Y197601D01*
X179020Y197618D01*
X179016Y197638D01*
X178963Y197727D01*
X178914Y197818D01*
X178900Y197832D01*
X178890Y197849D01*
X178811Y197916D01*
X178736Y197988D01*
X178718Y197996D01*
X178703Y198009D01*
X178607Y198048D01*
X178513Y198091D01*
X178493Y198093D01*
X178475Y198101D01*
X178308Y198119D01*
X121720Y198119D01*
X118744Y201095D01*
X118744Y203200D01*
X118741Y203220D01*
X118743Y203239D01*
X118721Y203341D01*
X118705Y203443D01*
X118695Y203460D01*
X118691Y203480D01*
X118638Y203569D01*
X118589Y203660D01*
X118575Y203674D01*
X118565Y203691D01*
X118486Y203758D01*
X118411Y203830D01*
X118393Y203838D01*
X118378Y203851D01*
X118282Y203890D01*
X118188Y203933D01*
X118168Y203935D01*
X118150Y203943D01*
X117983Y203961D01*
X100990Y203961D01*
X100975Y203959D01*
X100959Y203961D01*
X100793Y203935D01*
X95509Y202519D01*
X88641Y202519D01*
X83357Y203935D01*
X83341Y203937D01*
X83326Y203943D01*
X83160Y203961D01*
X66167Y203961D01*
X66147Y203958D01*
X66128Y203960D01*
X66026Y203938D01*
X65924Y203921D01*
X65907Y203912D01*
X65887Y203908D01*
X65798Y203855D01*
X65707Y203806D01*
X65693Y203792D01*
X65676Y203782D01*
X65609Y203703D01*
X65537Y203628D01*
X65529Y203610D01*
X65516Y203595D01*
X65477Y203499D01*
X65434Y203405D01*
X65432Y203385D01*
X65424Y203367D01*
X65406Y203200D01*
X65406Y201095D01*
X64746Y200436D01*
X64705Y200378D01*
X64655Y200326D01*
X64633Y200279D01*
X64603Y200237D01*
X64582Y200168D01*
X64552Y200103D01*
X64546Y200051D01*
X64531Y200001D01*
X64532Y199930D01*
X64525Y199859D01*
X64536Y199808D01*
X64537Y199756D01*
X64562Y199688D01*
X64577Y199618D01*
X64604Y199573D01*
X64621Y199525D01*
X64666Y199469D01*
X64703Y199407D01*
X64743Y199373D01*
X64775Y199333D01*
X64835Y199294D01*
X64890Y199247D01*
X64938Y199228D01*
X64982Y199200D01*
X65052Y199182D01*
X65118Y199155D01*
X65189Y199147D01*
X65221Y199139D01*
X65244Y199141D01*
X65285Y199137D01*
X106544Y199137D01*
X109623Y196058D01*
X109697Y196005D01*
X109766Y195945D01*
X109796Y195933D01*
X109823Y195914D01*
X109910Y195887D01*
X109995Y195853D01*
X110035Y195849D01*
X110058Y195842D01*
X110090Y195843D01*
X110161Y195835D01*
X114117Y195835D01*
X117225Y192726D01*
X117225Y188330D01*
X114117Y185221D01*
X109721Y185221D01*
X106849Y188092D01*
X106833Y188104D01*
X106821Y188120D01*
X106733Y188176D01*
X106650Y188236D01*
X106631Y188242D01*
X106614Y188253D01*
X106513Y188278D01*
X106415Y188308D01*
X106395Y188308D01*
X106375Y188313D01*
X106272Y188305D01*
X106169Y188302D01*
X106150Y188295D01*
X106130Y188294D01*
X106035Y188253D01*
X105938Y188218D01*
X105922Y188205D01*
X105904Y188197D01*
X105773Y188092D01*
X102648Y184967D01*
X98130Y184967D01*
X98098Y184982D01*
X98046Y184988D01*
X97997Y185003D01*
X97925Y185001D01*
X97854Y185009D01*
X97803Y184998D01*
X97751Y184997D01*
X97683Y184972D01*
X97613Y184957D01*
X97569Y184930D01*
X97520Y184913D01*
X97464Y184868D01*
X97402Y184831D01*
X97368Y184791D01*
X97328Y184759D01*
X97289Y184699D01*
X97242Y184644D01*
X97223Y184596D01*
X97195Y184552D01*
X97177Y184483D01*
X97177Y184482D01*
X94170Y181475D01*
X91286Y181475D01*
X91196Y181460D01*
X91105Y181453D01*
X91075Y181440D01*
X91043Y181435D01*
X90963Y181392D01*
X90879Y181356D01*
X90847Y181331D01*
X90826Y181320D01*
X90804Y181296D01*
X90748Y181252D01*
X90104Y180608D01*
X90051Y180534D01*
X89992Y180465D01*
X89979Y180435D01*
X89961Y180408D01*
X89934Y180321D01*
X89900Y180237D01*
X89895Y180196D01*
X89888Y180173D01*
X89889Y180141D01*
X89881Y180070D01*
X89881Y175424D01*
X89893Y175353D01*
X89895Y175281D01*
X89913Y175232D01*
X89921Y175181D01*
X89954Y175118D01*
X89979Y175050D01*
X90012Y175010D01*
X90036Y174964D01*
X90088Y174914D01*
X90133Y174858D01*
X90177Y174830D01*
X90214Y174794D01*
X90280Y174764D01*
X90340Y174725D01*
X90390Y174713D01*
X90437Y174691D01*
X90509Y174683D01*
X90578Y174665D01*
X90630Y174669D01*
X90682Y174664D01*
X90752Y174679D01*
X90824Y174684D01*
X90871Y174705D01*
X90922Y174716D01*
X90984Y174753D01*
X91050Y174781D01*
X91106Y174826D01*
X91133Y174842D01*
X91149Y174860D01*
X91181Y174886D01*
X91464Y175169D01*
X95888Y175169D01*
X95912Y175149D01*
X95942Y175137D01*
X95968Y175118D01*
X96055Y175091D01*
X96140Y175057D01*
X96181Y175052D01*
X96203Y175046D01*
X96235Y175046D01*
X96307Y175038D01*
X104345Y175038D01*
X113126Y166258D01*
X113126Y143900D01*
X113138Y143829D01*
X113139Y143757D01*
X113157Y143708D01*
X113166Y143657D01*
X113199Y143594D01*
X113224Y143526D01*
X113256Y143486D01*
X113281Y143440D01*
X113333Y143390D01*
X113378Y143334D01*
X113421Y143306D01*
X113459Y143270D01*
X113524Y143240D01*
X113585Y143201D01*
X113635Y143189D01*
X113682Y143167D01*
X113754Y143159D01*
X113823Y143141D01*
X113875Y143145D01*
X113927Y143140D01*
X113997Y143155D01*
X114068Y143160D01*
X114116Y143181D01*
X114167Y143192D01*
X114229Y143229D01*
X114295Y143257D01*
X114351Y143302D01*
X114378Y143318D01*
X114393Y143336D01*
X114426Y143362D01*
X114711Y143647D01*
X114764Y143721D01*
X114824Y143791D01*
X114836Y143821D01*
X114855Y143847D01*
X114882Y143934D01*
X114916Y144019D01*
X114920Y144060D01*
X114927Y144082D01*
X114926Y144114D01*
X114934Y144186D01*
X114934Y175177D01*
X125948Y186191D01*
X126788Y186191D01*
X126903Y186210D01*
X127019Y186227D01*
X127025Y186229D01*
X127031Y186230D01*
X127134Y186285D01*
X127238Y186338D01*
X127243Y186343D01*
X127248Y186346D01*
X127328Y186430D01*
X127411Y186514D01*
X127414Y186520D01*
X127418Y186524D01*
X127425Y186541D01*
X127491Y186661D01*
X127785Y187369D01*
X129631Y189215D01*
X132044Y190215D01*
X134656Y190215D01*
X137069Y189215D01*
X138915Y187369D01*
X139915Y184956D01*
X139915Y182344D01*
X138915Y179931D01*
X137047Y178063D01*
X136987Y178036D01*
X136949Y178001D01*
X136904Y177974D01*
X136859Y177918D01*
X136806Y177870D01*
X136781Y177824D01*
X136748Y177784D01*
X136722Y177717D01*
X136687Y177654D01*
X136678Y177603D01*
X136659Y177555D01*
X136656Y177483D01*
X136644Y177412D01*
X136651Y177361D01*
X136649Y177309D01*
X136669Y177240D01*
X136680Y177169D01*
X136703Y177123D01*
X136718Y177073D01*
X136759Y177014D01*
X136791Y176950D01*
X136828Y176913D01*
X136858Y176871D01*
X136915Y176828D01*
X136967Y176777D01*
X137029Y176743D01*
X137055Y176724D01*
X137063Y176721D01*
X138915Y174869D01*
X139915Y172456D01*
X139915Y169844D01*
X138915Y167431D01*
X137543Y166059D01*
X137488Y165983D01*
X137428Y165911D01*
X137417Y165884D01*
X137400Y165860D01*
X137372Y165770D01*
X137338Y165682D01*
X137336Y165653D01*
X137327Y165625D01*
X137330Y165530D01*
X137325Y165436D01*
X137333Y165408D01*
X137334Y165379D01*
X137366Y165290D01*
X137392Y165199D01*
X137408Y165175D01*
X137418Y165148D01*
X137477Y165074D01*
X137530Y164996D01*
X137559Y164973D01*
X137572Y164956D01*
X137600Y164938D01*
X137659Y164888D01*
X138182Y164538D01*
X139238Y163482D01*
X140068Y162241D01*
X140639Y160861D01*
X140831Y159899D01*
X133838Y159899D01*
X133819Y159896D01*
X133799Y159898D01*
X133697Y159876D01*
X133595Y159860D01*
X133578Y159850D01*
X133558Y159846D01*
X133469Y159793D01*
X133378Y159744D01*
X133364Y159730D01*
X133347Y159720D01*
X133344Y159716D01*
X133290Y159768D01*
X133272Y159776D01*
X133257Y159789D01*
X133160Y159828D01*
X133067Y159871D01*
X133047Y159873D01*
X133029Y159881D01*
X132862Y159899D01*
X125869Y159899D01*
X126061Y160861D01*
X126632Y162241D01*
X127300Y163241D01*
X127462Y163482D01*
X128518Y164538D01*
X129041Y164888D01*
X129110Y164953D01*
X129184Y165012D01*
X129200Y165036D01*
X129221Y165056D01*
X129266Y165139D01*
X129317Y165218D01*
X129324Y165247D01*
X129338Y165273D01*
X129354Y165365D01*
X129377Y165457D01*
X129375Y165486D01*
X129380Y165515D01*
X129365Y165608D01*
X129358Y165702D01*
X129346Y165729D01*
X129342Y165758D01*
X129298Y165842D01*
X129261Y165929D01*
X129238Y165957D01*
X129229Y165976D01*
X129205Y165999D01*
X129157Y166059D01*
X127785Y167431D01*
X126785Y169844D01*
X126785Y172456D01*
X127785Y174869D01*
X129653Y176737D01*
X129713Y176764D01*
X129751Y176799D01*
X129795Y176826D01*
X129841Y176882D01*
X129894Y176930D01*
X129919Y176976D01*
X129952Y177016D01*
X129978Y177083D01*
X130013Y177146D01*
X130022Y177197D01*
X130041Y177245D01*
X130044Y177317D01*
X130056Y177388D01*
X130049Y177439D01*
X130051Y177491D01*
X130031Y177560D01*
X130021Y177631D01*
X129997Y177677D01*
X129983Y177727D01*
X129942Y177786D01*
X129909Y177850D01*
X129872Y177887D01*
X129842Y177929D01*
X129785Y177972D01*
X129733Y178022D01*
X129671Y178057D01*
X129645Y178076D01*
X129638Y178079D01*
X127868Y179848D01*
X127852Y179860D01*
X127839Y179875D01*
X127752Y179931D01*
X127668Y179992D01*
X127649Y179998D01*
X127632Y180008D01*
X127532Y180034D01*
X127433Y180064D01*
X127413Y180064D01*
X127394Y180068D01*
X127291Y180060D01*
X127187Y180058D01*
X127168Y180051D01*
X127149Y180049D01*
X127054Y180009D01*
X126956Y179973D01*
X126941Y179961D01*
X126922Y179953D01*
X126791Y179848D01*
X120239Y173296D01*
X120186Y173222D01*
X120126Y173152D01*
X120114Y173122D01*
X120095Y173096D01*
X120068Y173009D01*
X120034Y172924D01*
X120030Y172883D01*
X120023Y172861D01*
X120024Y172829D01*
X120016Y172757D01*
X120016Y144186D01*
X120030Y144096D01*
X120038Y144005D01*
X120050Y143975D01*
X120055Y143943D01*
X120098Y143862D01*
X120134Y143778D01*
X120160Y143746D01*
X120171Y143726D01*
X120194Y143703D01*
X120239Y143647D01*
X122782Y141104D01*
X122782Y136708D01*
X119673Y133600D01*
X115277Y133600D01*
X114426Y134451D01*
X114367Y134493D01*
X114315Y134542D01*
X114268Y134564D01*
X114226Y134594D01*
X114157Y134616D01*
X114092Y134646D01*
X114040Y134651D01*
X113991Y134667D01*
X113919Y134665D01*
X113848Y134673D01*
X113797Y134662D01*
X113745Y134660D01*
X113677Y134636D01*
X113607Y134621D01*
X113563Y134594D01*
X113514Y134576D01*
X113458Y134531D01*
X113396Y134494D01*
X113362Y134455D01*
X113322Y134422D01*
X113283Y134362D01*
X113236Y134307D01*
X113217Y134259D01*
X113189Y134215D01*
X113171Y134146D01*
X113144Y134079D01*
X113137Y134008D01*
X113129Y133977D01*
X113131Y133954D01*
X113126Y133913D01*
X113126Y115357D01*
X113141Y115267D01*
X113148Y115176D01*
X113160Y115146D01*
X113166Y115114D01*
X113208Y115033D01*
X113244Y114949D01*
X113270Y114917D01*
X113281Y114897D01*
X113304Y114874D01*
X113349Y114818D01*
X115638Y112529D01*
X115638Y108133D01*
X112529Y105025D01*
X108133Y105025D01*
X105025Y108133D01*
X105025Y112529D01*
X107314Y114818D01*
X107367Y114892D01*
X107426Y114962D01*
X107438Y114992D01*
X107457Y115018D01*
X107484Y115105D01*
X107518Y115190D01*
X107523Y115231D01*
X107529Y115253D01*
X107529Y115285D01*
X107537Y115357D01*
X107537Y163627D01*
X107522Y163717D01*
X107515Y163808D01*
X107502Y163838D01*
X107497Y163870D01*
X107454Y163950D01*
X107418Y164034D01*
X107393Y164067D01*
X107382Y164087D01*
X107358Y164109D01*
X107314Y164165D01*
X107163Y164316D01*
X107104Y164358D01*
X107052Y164408D01*
X107005Y164430D01*
X106963Y164460D01*
X106894Y164481D01*
X106829Y164511D01*
X106778Y164517D01*
X106728Y164532D01*
X106656Y164530D01*
X106585Y164538D01*
X106534Y164527D01*
X106482Y164526D01*
X106415Y164501D01*
X106344Y164486D01*
X106300Y164459D01*
X106251Y164442D01*
X106195Y164397D01*
X106133Y164360D01*
X106099Y164320D01*
X106059Y164288D01*
X106020Y164228D01*
X105973Y164173D01*
X105954Y164125D01*
X105926Y164081D01*
X105908Y164011D01*
X105881Y163945D01*
X105874Y163874D01*
X105866Y163842D01*
X105868Y163819D01*
X105863Y163778D01*
X105863Y162212D01*
X103030Y159379D01*
X102977Y159305D01*
X102918Y159235D01*
X102905Y159205D01*
X102887Y159179D01*
X102860Y159092D01*
X102826Y159007D01*
X102821Y158966D01*
X102814Y158944D01*
X102815Y158912D01*
X102807Y158841D01*
X102807Y106792D01*
X96702Y100687D01*
X96691Y100671D01*
X96675Y100659D01*
X96619Y100572D01*
X96559Y100488D01*
X96553Y100469D01*
X96542Y100452D01*
X96517Y100351D01*
X96486Y100253D01*
X96487Y100233D01*
X96482Y100213D01*
X96490Y100110D01*
X96493Y100007D01*
X96500Y99988D01*
X96501Y99968D01*
X96541Y99873D01*
X96577Y99776D01*
X96590Y99760D01*
X96597Y99742D01*
X96702Y99611D01*
X98175Y98138D01*
X98175Y93949D01*
X95213Y90987D01*
X91023Y90987D01*
X88061Y93949D01*
X88061Y98138D01*
X90100Y100177D01*
X90153Y100251D01*
X90213Y100321D01*
X90225Y100351D01*
X90244Y100377D01*
X90271Y100464D01*
X90305Y100549D01*
X90309Y100590D01*
X90316Y100612D01*
X90315Y100644D01*
X90323Y100716D01*
X90323Y102213D01*
X96995Y108885D01*
X97048Y108959D01*
X97107Y109028D01*
X97120Y109058D01*
X97138Y109084D01*
X97165Y109171D01*
X97199Y109256D01*
X97204Y109297D01*
X97211Y109319D01*
X97210Y109352D01*
X97218Y109423D01*
X97218Y117836D01*
X97206Y117907D01*
X97204Y117979D01*
X97186Y118028D01*
X97178Y118079D01*
X97145Y118142D01*
X97120Y118210D01*
X97087Y118251D01*
X97063Y118297D01*
X97011Y118346D01*
X96966Y118402D01*
X96922Y118430D01*
X96885Y118466D01*
X96820Y118496D01*
X96759Y118535D01*
X96709Y118548D01*
X96662Y118570D01*
X96590Y118578D01*
X96521Y118595D01*
X96469Y118591D01*
X96417Y118597D01*
X96347Y118581D01*
X96276Y118576D01*
X96228Y118556D01*
X96177Y118544D01*
X96115Y118508D01*
X96049Y118480D01*
X95993Y118435D01*
X95966Y118418D01*
X95950Y118400D01*
X95918Y118375D01*
X95263Y117719D01*
X95210Y117645D01*
X95150Y117576D01*
X95138Y117546D01*
X95119Y117520D01*
X95092Y117433D01*
X95058Y117348D01*
X95054Y117307D01*
X95047Y117284D01*
X95048Y117252D01*
X95040Y117181D01*
X95040Y114297D01*
X92078Y111335D01*
X87888Y111335D01*
X84926Y114297D01*
X84926Y118487D01*
X87888Y121449D01*
X90772Y121449D01*
X90862Y121463D01*
X90953Y121471D01*
X90983Y121483D01*
X91015Y121488D01*
X91096Y121531D01*
X91179Y121567D01*
X91212Y121593D01*
X91232Y121603D01*
X91254Y121627D01*
X91310Y121672D01*
X92018Y122379D01*
X92071Y122453D01*
X92130Y122522D01*
X92142Y122552D01*
X92161Y122579D01*
X92188Y122666D01*
X92222Y122750D01*
X92227Y122791D01*
X92234Y122814D01*
X92233Y122846D01*
X92241Y122917D01*
X92241Y129613D01*
X92229Y129684D01*
X92227Y129756D01*
X92209Y129805D01*
X92201Y129856D01*
X92167Y129919D01*
X92143Y129987D01*
X92110Y130027D01*
X92086Y130074D01*
X92034Y130123D01*
X91989Y130179D01*
X91945Y130207D01*
X91907Y130243D01*
X91842Y130273D01*
X91782Y130312D01*
X91732Y130325D01*
X91684Y130347D01*
X91613Y130354D01*
X91544Y130372D01*
X91492Y130368D01*
X91440Y130374D01*
X91370Y130358D01*
X91298Y130353D01*
X91251Y130332D01*
X91200Y130321D01*
X91138Y130285D01*
X91072Y130256D01*
X91016Y130212D01*
X90988Y130195D01*
X90973Y130177D01*
X90941Y130152D01*
X75503Y114713D01*
X75459Y114653D01*
X75424Y114616D01*
X75418Y114602D01*
X75390Y114570D01*
X75378Y114540D01*
X75359Y114514D01*
X75333Y114427D01*
X75298Y114342D01*
X75294Y114301D01*
X75287Y114279D01*
X75288Y114246D01*
X75280Y114175D01*
X75280Y95279D01*
X75295Y95188D01*
X75302Y95098D01*
X75314Y95068D01*
X75320Y95036D01*
X75362Y94955D01*
X75398Y94871D01*
X75424Y94839D01*
X75435Y94818D01*
X75458Y94796D01*
X75503Y94740D01*
X77141Y93102D01*
X77141Y88706D01*
X76357Y87922D01*
X76316Y87864D01*
X76266Y87812D01*
X76244Y87765D01*
X76214Y87723D01*
X76193Y87654D01*
X76163Y87589D01*
X76157Y87537D01*
X76142Y87487D01*
X76143Y87416D01*
X76136Y87345D01*
X76147Y87294D01*
X76148Y87242D01*
X76173Y87174D01*
X76188Y87104D01*
X76215Y87059D01*
X76232Y87011D01*
X76277Y86955D01*
X76314Y86893D01*
X76354Y86859D01*
X76386Y86819D01*
X76446Y86780D01*
X76501Y86733D01*
X76549Y86714D01*
X76593Y86686D01*
X76663Y86668D01*
X76729Y86641D01*
X76800Y86633D01*
X76832Y86625D01*
X76855Y86627D01*
X76896Y86623D01*
X90484Y86623D01*
X90574Y86637D01*
X90665Y86645D01*
X90694Y86657D01*
X90726Y86662D01*
X90807Y86705D01*
X90891Y86741D01*
X90923Y86767D01*
X90944Y86778D01*
X90966Y86801D01*
X91022Y86846D01*
X91499Y87322D01*
X95895Y87322D01*
X96372Y86846D01*
X96446Y86793D01*
X96515Y86733D01*
X96545Y86721D01*
X96571Y86702D01*
X96658Y86675D01*
X96743Y86641D01*
X96784Y86637D01*
X96806Y86630D01*
X96839Y86631D01*
X96910Y86623D01*
X114313Y86623D01*
X126590Y74346D01*
X126664Y74293D01*
X126733Y74233D01*
X126763Y74221D01*
X126790Y74202D01*
X126877Y74175D01*
X126961Y74141D01*
X127002Y74137D01*
X127025Y74130D01*
X127057Y74131D01*
X127128Y74123D01*
X128323Y74123D01*
X128414Y74137D01*
X128504Y74145D01*
X128534Y74157D01*
X128566Y74162D01*
X128647Y74205D01*
X128731Y74241D01*
X128763Y74267D01*
X128784Y74278D01*
X128806Y74301D01*
X128862Y74346D01*
X129653Y75137D01*
X129713Y75164D01*
X129751Y75199D01*
X129795Y75226D01*
X129841Y75281D01*
X129894Y75330D01*
X129919Y75376D01*
X129952Y75416D01*
X129978Y75483D01*
X130013Y75545D01*
X130022Y75597D01*
X130040Y75645D01*
X130044Y75717D01*
X130056Y75788D01*
X130049Y75839D01*
X130051Y75891D01*
X130031Y75960D01*
X130021Y76031D01*
X129997Y76077D01*
X129982Y76127D01*
X129942Y76186D01*
X129909Y76250D01*
X129872Y76287D01*
X129842Y76329D01*
X129785Y76372D01*
X129733Y76422D01*
X129671Y76457D01*
X129645Y76476D01*
X129638Y76479D01*
X127785Y78331D01*
X126785Y80744D01*
X126785Y83356D01*
X127785Y85769D01*
X129631Y87615D01*
X132044Y88615D01*
X134656Y88615D01*
X137069Y87615D01*
X138915Y85769D01*
X139915Y83356D01*
X139915Y80744D01*
X138915Y78331D01*
X137047Y76463D01*
X136987Y76436D01*
X136949Y76401D01*
X136904Y76374D01*
X136859Y76318D01*
X136806Y76270D01*
X136781Y76224D01*
X136748Y76184D01*
X136722Y76117D01*
X136687Y76054D01*
X136678Y76003D01*
X136659Y75955D01*
X136656Y75883D01*
X136644Y75812D01*
X136651Y75761D01*
X136649Y75709D01*
X136669Y75640D01*
X136680Y75569D01*
X136703Y75523D01*
X136718Y75473D01*
X136759Y75414D01*
X136791Y75350D01*
X136828Y75313D01*
X136858Y75271D01*
X136916Y75228D01*
X136967Y75177D01*
X137029Y75143D01*
X137055Y75124D01*
X137063Y75121D01*
X138915Y73269D01*
X139915Y70856D01*
X139915Y68244D01*
X138915Y65831D01*
X137543Y64459D01*
X137498Y64396D01*
X137476Y64373D01*
X137471Y64362D01*
X137428Y64311D01*
X137417Y64284D01*
X137400Y64260D01*
X137372Y64170D01*
X137338Y64082D01*
X137336Y64053D01*
X137327Y64025D01*
X137330Y63930D01*
X137325Y63836D01*
X137333Y63808D01*
X137334Y63779D01*
X137366Y63690D01*
X137392Y63599D01*
X137408Y63575D01*
X137418Y63548D01*
X137477Y63474D01*
X137530Y63396D01*
X137559Y63373D01*
X137572Y63356D01*
X137600Y63338D01*
X137659Y63288D01*
X138182Y62938D01*
X139238Y61882D01*
X140068Y60641D01*
X140639Y59261D01*
X140831Y58299D01*
X133838Y58299D01*
X133819Y58296D01*
X133799Y58298D01*
X133697Y58276D01*
X133595Y58260D01*
X133578Y58250D01*
X133558Y58246D01*
X133469Y58193D01*
X133378Y58144D01*
X133364Y58130D01*
X133347Y58120D01*
X133344Y58116D01*
X133290Y58168D01*
X133272Y58176D01*
X133257Y58189D01*
X133160Y58228D01*
X133067Y58271D01*
X133047Y58273D01*
X133029Y58281D01*
X132862Y58299D01*
X125869Y58299D01*
X126061Y59261D01*
X126632Y60641D01*
X127462Y61882D01*
X128518Y62938D01*
X129041Y63288D01*
X129110Y63353D01*
X129184Y63412D01*
X129200Y63436D01*
X129221Y63456D01*
X129266Y63539D01*
X129317Y63618D01*
X129324Y63647D01*
X129338Y63673D01*
X129354Y63766D01*
X129377Y63857D01*
X129375Y63886D01*
X129380Y63915D01*
X129365Y64008D01*
X129358Y64102D01*
X129346Y64129D01*
X129342Y64158D01*
X129298Y64242D01*
X129261Y64329D01*
X129238Y64357D01*
X129229Y64376D01*
X129205Y64399D01*
X129179Y64432D01*
X129176Y64436D01*
X129174Y64438D01*
X129157Y64460D01*
X128862Y64754D01*
X128788Y64807D01*
X128718Y64867D01*
X128688Y64879D01*
X128662Y64898D01*
X128575Y64925D01*
X128490Y64959D01*
X128449Y64963D01*
X128427Y64970D01*
X128395Y64969D01*
X128323Y64977D01*
X123025Y64977D01*
X110748Y77254D01*
X110674Y77307D01*
X110604Y77367D01*
X110574Y77379D01*
X110548Y77398D01*
X110461Y77425D01*
X110376Y77459D01*
X110335Y77463D01*
X110313Y77470D01*
X110281Y77469D01*
X110209Y77477D01*
X96979Y77477D01*
X96888Y77463D01*
X96798Y77455D01*
X96768Y77443D01*
X96736Y77438D01*
X96655Y77395D01*
X96571Y77359D01*
X96539Y77333D01*
X96518Y77322D01*
X96496Y77299D01*
X96440Y77254D01*
X95895Y76709D01*
X91499Y76709D01*
X90953Y77254D01*
X90879Y77307D01*
X90810Y77367D01*
X90780Y77379D01*
X90754Y77398D01*
X90667Y77425D01*
X90582Y77459D01*
X90541Y77463D01*
X90519Y77470D01*
X90486Y77469D01*
X90415Y77477D01*
X55827Y77477D01*
X55736Y77463D01*
X55646Y77455D01*
X55616Y77443D01*
X55584Y77438D01*
X55503Y77395D01*
X55419Y77359D01*
X55387Y77333D01*
X55366Y77322D01*
X55344Y77299D01*
X55288Y77254D01*
X54497Y76463D01*
X54437Y76436D01*
X54399Y76401D01*
X54354Y76374D01*
X54309Y76318D01*
X54256Y76270D01*
X54231Y76224D01*
X54198Y76184D01*
X54172Y76117D01*
X54137Y76054D01*
X54128Y76003D01*
X54109Y75955D01*
X54106Y75883D01*
X54094Y75812D01*
X54101Y75761D01*
X54099Y75709D01*
X54119Y75640D01*
X54130Y75569D01*
X54153Y75523D01*
X54168Y75473D01*
X54209Y75414D01*
X54241Y75350D01*
X54278Y75313D01*
X54308Y75271D01*
X54366Y75228D01*
X54417Y75177D01*
X54479Y75143D01*
X54505Y75124D01*
X54513Y75121D01*
X56365Y73269D01*
X57365Y70856D01*
X57365Y68244D01*
X56365Y65831D01*
X54497Y63963D01*
X54437Y63936D01*
X54399Y63901D01*
X54354Y63874D01*
X54309Y63818D01*
X54256Y63770D01*
X54231Y63724D01*
X54198Y63684D01*
X54172Y63617D01*
X54137Y63554D01*
X54128Y63503D01*
X54109Y63455D01*
X54106Y63383D01*
X54094Y63312D01*
X54101Y63261D01*
X54099Y63209D01*
X54119Y63140D01*
X54130Y63069D01*
X54153Y63023D01*
X54168Y62973D01*
X54209Y62913D01*
X54241Y62850D01*
X54278Y62813D01*
X54308Y62771D01*
X54366Y62728D01*
X54417Y62677D01*
X54479Y62643D01*
X54505Y62624D01*
X54513Y62621D01*
X56365Y60769D01*
X57365Y58356D01*
X57365Y55744D01*
X56365Y53331D01*
X54497Y51463D01*
X54437Y51436D01*
X54399Y51401D01*
X54354Y51374D01*
X54309Y51318D01*
X54256Y51270D01*
X54231Y51224D01*
X54198Y51184D01*
X54172Y51117D01*
X54137Y51054D01*
X54128Y51003D01*
X54109Y50955D01*
X54106Y50883D01*
X54094Y50812D01*
X54101Y50761D01*
X54099Y50709D01*
X54119Y50640D01*
X54130Y50569D01*
X54153Y50523D01*
X54168Y50473D01*
X54209Y50414D01*
X54241Y50350D01*
X54278Y50313D01*
X54308Y50271D01*
X54366Y50228D01*
X54417Y50177D01*
X54479Y50143D01*
X54505Y50124D01*
X54513Y50121D01*
X56365Y48269D01*
X57365Y45856D01*
X57365Y43244D01*
X56365Y40831D01*
X54993Y39459D01*
X54938Y39383D01*
X54878Y39311D01*
X54867Y39284D01*
X54850Y39260D01*
X54822Y39170D01*
X54788Y39082D01*
X54786Y39053D01*
X54777Y39025D01*
X54780Y38930D01*
X54775Y38836D01*
X54783Y38808D01*
X54784Y38779D01*
X54816Y38690D01*
X54842Y38599D01*
X54858Y38575D01*
X54868Y38548D01*
X54927Y38474D01*
X54980Y38396D01*
X55009Y38373D01*
X55022Y38356D01*
X55050Y38338D01*
X55109Y38288D01*
X55632Y37938D01*
X56688Y36882D01*
X57518Y35641D01*
X58089Y34261D01*
X58281Y33299D01*
X51288Y33299D01*
X51269Y33296D01*
X51249Y33298D01*
X51147Y33276D01*
X51045Y33260D01*
X51028Y33250D01*
X51008Y33246D01*
X50919Y33193D01*
X50828Y33144D01*
X50814Y33130D01*
X50797Y33120D01*
X50730Y33041D01*
X50659Y32966D01*
X50650Y32948D01*
X50637Y32933D01*
X50599Y32837D01*
X50555Y32743D01*
X50553Y32723D01*
X50545Y32705D01*
X50527Y32538D01*
X50527Y32323D01*
X50312Y32323D01*
X50292Y32320D01*
X50272Y32322D01*
X50171Y32300D01*
X50069Y32283D01*
X50052Y32274D01*
X50032Y32270D01*
X49943Y32217D01*
X49852Y32168D01*
X49838Y32154D01*
X49821Y32144D01*
X49754Y32065D01*
X49682Y31990D01*
X49674Y31972D01*
X49661Y31957D01*
X49622Y31860D01*
X49579Y31767D01*
X49577Y31747D01*
X49569Y31729D01*
X49551Y31562D01*
X49551Y20038D01*
X49554Y20019D01*
X49552Y19999D01*
X49574Y19897D01*
X49590Y19795D01*
X49600Y19778D01*
X49604Y19758D01*
X49657Y19669D01*
X49706Y19578D01*
X49720Y19564D01*
X49730Y19547D01*
X49809Y19480D01*
X49884Y19409D01*
X49902Y19400D01*
X49917Y19387D01*
X50013Y19349D01*
X50107Y19305D01*
X50127Y19303D01*
X50145Y19295D01*
X50312Y19277D01*
X50527Y19277D01*
X50527Y19062D01*
X50530Y19042D01*
X50528Y19022D01*
X50550Y18921D01*
X50567Y18819D01*
X50576Y18802D01*
X50580Y18782D01*
X50633Y18693D01*
X50682Y18602D01*
X50696Y18588D01*
X50706Y18571D01*
X50785Y18504D01*
X50860Y18432D01*
X50878Y18424D01*
X50893Y18411D01*
X50990Y18372D01*
X51083Y18329D01*
X51103Y18327D01*
X51121Y18319D01*
X51288Y18301D01*
X58281Y18301D01*
X58089Y17339D01*
X57518Y15959D01*
X56688Y14718D01*
X55632Y13662D01*
X54391Y12832D01*
X53011Y12261D01*
X52908Y12240D01*
X52862Y12223D01*
X52814Y12215D01*
X52748Y12180D01*
X52678Y12154D01*
X52640Y12123D01*
X52597Y12100D01*
X52545Y12046D01*
X52487Y11999D01*
X52461Y11957D01*
X52427Y11922D01*
X52396Y11854D01*
X52356Y11791D01*
X52344Y11743D01*
X52324Y11698D01*
X52315Y11624D01*
X52298Y11552D01*
X52302Y11503D01*
X52296Y11454D01*
X52312Y11381D01*
X52319Y11307D01*
X52338Y11262D01*
X52349Y11214D01*
X52387Y11150D01*
X52417Y11081D01*
X52450Y11045D01*
X52475Y11003D01*
X52532Y10954D01*
X52582Y10899D01*
X52625Y10875D01*
X52662Y10843D01*
X52731Y10815D01*
X52796Y10778D01*
X52844Y10769D01*
X52890Y10751D01*
X53014Y10737D01*
X53038Y10732D01*
X53047Y10733D01*
X53057Y10732D01*
X101715Y10732D01*
X101805Y10747D01*
X101896Y10754D01*
X101925Y10767D01*
X101957Y10772D01*
X102038Y10815D01*
X102122Y10850D01*
X102154Y10876D01*
X102175Y10887D01*
X102197Y10910D01*
X102253Y10955D01*
X107264Y15967D01*
X107317Y16041D01*
X107377Y16110D01*
X107389Y16140D01*
X107408Y16166D01*
X107435Y16253D01*
X107469Y16338D01*
X107473Y16379D01*
X107480Y16401D01*
X107479Y16434D01*
X107487Y16505D01*
X107487Y62443D01*
X107485Y62455D01*
X107486Y62462D01*
X107478Y62500D01*
X107473Y62533D01*
X107465Y62624D01*
X107453Y62654D01*
X107448Y62686D01*
X107405Y62767D01*
X107369Y62851D01*
X107343Y62883D01*
X107332Y62903D01*
X107309Y62926D01*
X107264Y62982D01*
X104975Y65271D01*
X104975Y69667D01*
X108084Y72775D01*
X112480Y72775D01*
X115589Y69667D01*
X115589Y65271D01*
X113300Y62982D01*
X113247Y62908D01*
X113187Y62838D01*
X113175Y62808D01*
X113156Y62782D01*
X113129Y62695D01*
X113095Y62610D01*
X113091Y62569D01*
X113084Y62547D01*
X113085Y62515D01*
X113077Y62443D01*
X113077Y13874D01*
X111217Y12014D01*
X106205Y7003D01*
X104345Y5143D01*
X64205Y5143D01*
X64135Y5131D01*
X64063Y5129D01*
X64014Y5111D01*
X63963Y5103D01*
X63899Y5069D01*
X63832Y5045D01*
X63791Y5012D01*
X63745Y4988D01*
X63696Y4936D01*
X63640Y4891D01*
X63612Y4847D01*
X63576Y4810D01*
X63546Y4745D01*
X63507Y4684D01*
X63494Y4634D01*
X63472Y4587D01*
X63464Y4515D01*
X63447Y4446D01*
X63451Y4394D01*
X63445Y4342D01*
X63460Y4272D01*
X63466Y4201D01*
X63486Y4153D01*
X63497Y4102D01*
X63534Y4040D01*
X63562Y3974D01*
X63607Y3918D01*
X63623Y3891D01*
X63641Y3875D01*
X63667Y3843D01*
X65406Y2105D01*
X65406Y0D01*
X65409Y-20D01*
X65407Y-39D01*
X65429Y-141D01*
X65445Y-243D01*
X65455Y-260D01*
X65459Y-280D01*
X65512Y-369D01*
X65561Y-460D01*
X65575Y-474D01*
X65585Y-491D01*
X65664Y-558D01*
X65739Y-630D01*
X65757Y-638D01*
X65772Y-651D01*
X65868Y-690D01*
X65962Y-733D01*
X65982Y-735D01*
X66000Y-743D01*
X66167Y-761D01*
X83160Y-761D01*
X83175Y-759D01*
G37*
G36*
X48592Y10740D02*
X48592Y10740D01*
X48641Y10738D01*
X48712Y10760D01*
X48786Y10772D01*
X48829Y10795D01*
X48876Y10809D01*
X48937Y10852D01*
X49003Y10887D01*
X49037Y10923D01*
X49077Y10951D01*
X49121Y11011D01*
X49173Y11065D01*
X49194Y11110D01*
X49222Y11150D01*
X49245Y11221D01*
X49276Y11288D01*
X49282Y11337D01*
X49297Y11384D01*
X49295Y11459D01*
X49304Y11533D01*
X49293Y11581D01*
X49292Y11630D01*
X49267Y11700D01*
X49251Y11773D01*
X49226Y11815D01*
X49210Y11862D01*
X49163Y11920D01*
X49125Y11984D01*
X49088Y12016D01*
X49057Y12055D01*
X48995Y12096D01*
X48938Y12144D01*
X48893Y12163D01*
X48852Y12190D01*
X48732Y12227D01*
X48710Y12236D01*
X48701Y12237D01*
X48692Y12240D01*
X48589Y12261D01*
X47209Y12832D01*
X45968Y13662D01*
X44912Y14718D01*
X44082Y15959D01*
X43511Y17339D01*
X43206Y18871D01*
X43182Y18935D01*
X43167Y19002D01*
X43139Y19049D01*
X43120Y19101D01*
X43076Y19154D01*
X43041Y19213D01*
X42999Y19249D01*
X42964Y19292D01*
X42906Y19328D01*
X42854Y19373D01*
X42803Y19393D01*
X42756Y19423D01*
X42690Y19439D01*
X42626Y19465D01*
X42549Y19473D01*
X42517Y19481D01*
X42496Y19479D01*
X42459Y19483D01*
X39456Y19483D01*
X39456Y24663D01*
X39453Y24683D01*
X39455Y24702D01*
X39433Y24804D01*
X39416Y24906D01*
X39407Y24923D01*
X39403Y24943D01*
X39350Y25032D01*
X39301Y25123D01*
X39287Y25137D01*
X39277Y25154D01*
X39198Y25221D01*
X39123Y25292D01*
X39105Y25301D01*
X39090Y25314D01*
X38994Y25353D01*
X38900Y25396D01*
X38880Y25398D01*
X38862Y25406D01*
X38695Y25424D01*
X37932Y25424D01*
X37932Y25426D01*
X38695Y25426D01*
X38715Y25429D01*
X38734Y25427D01*
X38836Y25449D01*
X38938Y25466D01*
X38955Y25475D01*
X38975Y25479D01*
X39064Y25532D01*
X39155Y25581D01*
X39169Y25595D01*
X39186Y25605D01*
X39253Y25684D01*
X39324Y25759D01*
X39333Y25777D01*
X39346Y25792D01*
X39385Y25888D01*
X39428Y25982D01*
X39430Y26002D01*
X39438Y26020D01*
X39456Y26187D01*
X39456Y34163D01*
X39453Y34183D01*
X39455Y34202D01*
X39433Y34304D01*
X39416Y34406D01*
X39407Y34423D01*
X39403Y34443D01*
X39350Y34532D01*
X39301Y34623D01*
X39287Y34637D01*
X39277Y34654D01*
X39198Y34721D01*
X39123Y34792D01*
X39105Y34801D01*
X39090Y34814D01*
X38994Y34853D01*
X38900Y34896D01*
X38880Y34898D01*
X38862Y34906D01*
X38695Y34924D01*
X37932Y34924D01*
X37932Y35687D01*
X37929Y35707D01*
X37931Y35726D01*
X37909Y35828D01*
X37892Y35930D01*
X37883Y35947D01*
X37879Y35967D01*
X37826Y36056D01*
X37777Y36147D01*
X37763Y36161D01*
X37753Y36178D01*
X37674Y36245D01*
X37599Y36316D01*
X37581Y36325D01*
X37566Y36338D01*
X37470Y36377D01*
X37376Y36420D01*
X37356Y36422D01*
X37338Y36430D01*
X37171Y36448D01*
X29348Y36448D01*
X29348Y38660D01*
X29521Y39307D01*
X29856Y39886D01*
X30141Y40171D01*
X30194Y40245D01*
X30254Y40315D01*
X30266Y40345D01*
X30285Y40371D01*
X30312Y40458D01*
X30346Y40543D01*
X30350Y40584D01*
X30357Y40606D01*
X30356Y40638D01*
X30364Y40710D01*
X30364Y47773D01*
X30361Y47792D01*
X30363Y47812D01*
X30341Y47913D01*
X30325Y48016D01*
X30315Y48033D01*
X30311Y48053D01*
X30258Y48142D01*
X30251Y48154D01*
X30251Y53616D01*
X30248Y53636D01*
X30250Y53656D01*
X30228Y53757D01*
X30212Y53859D01*
X30202Y53876D01*
X30198Y53896D01*
X30145Y53985D01*
X30096Y54076D01*
X30082Y54090D01*
X30072Y54107D01*
X30038Y54136D01*
X30048Y54148D01*
X30120Y54223D01*
X30128Y54241D01*
X30141Y54257D01*
X30180Y54353D01*
X30223Y54446D01*
X30225Y54466D01*
X30233Y54485D01*
X30251Y54651D01*
X30251Y59733D01*
X31866Y59733D01*
X32512Y59560D01*
X33092Y59226D01*
X33565Y58753D01*
X33893Y58184D01*
X33940Y58127D01*
X33941Y58125D01*
X33942Y58124D01*
X33969Y58091D01*
X34043Y57999D01*
X34046Y57997D01*
X34049Y57993D01*
X34149Y57931D01*
X34250Y57866D01*
X34254Y57865D01*
X34257Y57863D01*
X34372Y57835D01*
X34488Y57806D01*
X34492Y57806D01*
X34496Y57805D01*
X34615Y57816D01*
X34733Y57825D01*
X34737Y57827D01*
X34741Y57827D01*
X34851Y57875D01*
X34960Y57921D01*
X34963Y57924D01*
X34967Y57926D01*
X34977Y57935D01*
X35091Y58026D01*
X35955Y58890D01*
X36008Y58964D01*
X36067Y59034D01*
X36080Y59064D01*
X36098Y59090D01*
X36125Y59177D01*
X36159Y59262D01*
X36164Y59303D01*
X36171Y59325D01*
X36170Y59357D01*
X36178Y59429D01*
X36178Y67118D01*
X41405Y72345D01*
X44343Y72345D01*
X44458Y72364D01*
X44574Y72381D01*
X44580Y72383D01*
X44586Y72384D01*
X44689Y72439D01*
X44794Y72492D01*
X44798Y72497D01*
X44803Y72500D01*
X44883Y72584D01*
X44966Y72668D01*
X44969Y72674D01*
X44973Y72678D01*
X44981Y72695D01*
X45047Y72815D01*
X45235Y73269D01*
X47103Y75137D01*
X47163Y75164D01*
X47201Y75199D01*
X47245Y75226D01*
X47291Y75281D01*
X47344Y75330D01*
X47369Y75376D01*
X47402Y75416D01*
X47428Y75483D01*
X47463Y75545D01*
X47472Y75597D01*
X47490Y75645D01*
X47494Y75717D01*
X47506Y75788D01*
X47499Y75839D01*
X47501Y75891D01*
X47481Y75960D01*
X47471Y76031D01*
X47447Y76077D01*
X47432Y76127D01*
X47392Y76186D01*
X47359Y76250D01*
X47322Y76287D01*
X47292Y76329D01*
X47235Y76372D01*
X47183Y76422D01*
X47121Y76457D01*
X47095Y76476D01*
X47088Y76479D01*
X45235Y78331D01*
X44235Y80744D01*
X44235Y81614D01*
X44232Y81634D01*
X44234Y81653D01*
X44212Y81755D01*
X44196Y81857D01*
X44186Y81874D01*
X44182Y81894D01*
X44129Y81983D01*
X44080Y82074D01*
X44066Y82088D01*
X44056Y82105D01*
X43977Y82172D01*
X43902Y82244D01*
X43884Y82252D01*
X43869Y82265D01*
X43773Y82304D01*
X43679Y82347D01*
X43659Y82349D01*
X43641Y82357D01*
X43474Y82375D01*
X12150Y82375D01*
X11257Y83268D01*
X11257Y94532D01*
X12150Y95425D01*
X43413Y95425D01*
X44306Y94532D01*
X44306Y94043D01*
X44309Y94024D01*
X44307Y94004D01*
X44329Y93903D01*
X44346Y93801D01*
X44355Y93783D01*
X44359Y93764D01*
X44412Y93675D01*
X44461Y93583D01*
X44475Y93570D01*
X44485Y93553D01*
X44564Y93485D01*
X44639Y93414D01*
X44657Y93406D01*
X44672Y93393D01*
X44769Y93354D01*
X44862Y93310D01*
X44882Y93308D01*
X44901Y93301D01*
X45067Y93282D01*
X66392Y93282D01*
X66483Y93297D01*
X66573Y93304D01*
X66603Y93317D01*
X66635Y93322D01*
X66716Y93365D01*
X66800Y93400D01*
X66832Y93426D01*
X66853Y93437D01*
X66875Y93460D01*
X66931Y93505D01*
X68960Y95534D01*
X69013Y95608D01*
X69072Y95677D01*
X69084Y95708D01*
X69103Y95734D01*
X69130Y95821D01*
X69164Y95906D01*
X69169Y95947D01*
X69175Y95969D01*
X69175Y96001D01*
X69183Y96072D01*
X69183Y117016D01*
X85315Y133148D01*
X85368Y133222D01*
X85427Y133292D01*
X85439Y133322D01*
X85458Y133348D01*
X85485Y133435D01*
X85519Y133520D01*
X85524Y133561D01*
X85530Y133583D01*
X85530Y133615D01*
X85538Y133687D01*
X85538Y143664D01*
X85526Y143734D01*
X85524Y143806D01*
X85506Y143855D01*
X85498Y143906D01*
X85464Y143970D01*
X85440Y144037D01*
X85407Y144078D01*
X85383Y144124D01*
X85331Y144173D01*
X85286Y144229D01*
X85242Y144257D01*
X85204Y144293D01*
X85139Y144323D01*
X85079Y144362D01*
X85029Y144375D01*
X84981Y144397D01*
X84910Y144405D01*
X84840Y144422D01*
X84789Y144418D01*
X84737Y144424D01*
X84667Y144409D01*
X84595Y144403D01*
X84547Y144383D01*
X84496Y144372D01*
X84435Y144335D01*
X84369Y144307D01*
X84313Y144262D01*
X84285Y144245D01*
X84270Y144228D01*
X84238Y144202D01*
X83954Y143918D01*
X79558Y143918D01*
X76450Y147027D01*
X76450Y150982D01*
X76435Y151073D01*
X76428Y151163D01*
X76415Y151193D01*
X76410Y151225D01*
X76367Y151306D01*
X76331Y151390D01*
X76306Y151422D01*
X76295Y151443D01*
X76271Y151465D01*
X76227Y151521D01*
X71607Y156140D01*
X71533Y156193D01*
X71464Y156253D01*
X71433Y156265D01*
X71407Y156284D01*
X71320Y156311D01*
X71235Y156345D01*
X71195Y156349D01*
X71172Y156356D01*
X71140Y156355D01*
X71069Y156363D01*
X57467Y156363D01*
X57352Y156344D01*
X57236Y156327D01*
X57230Y156325D01*
X57224Y156324D01*
X57122Y156269D01*
X57017Y156216D01*
X57012Y156211D01*
X57007Y156208D01*
X56927Y156124D01*
X56845Y156040D01*
X56841Y156034D01*
X56838Y156030D01*
X56830Y156013D01*
X56764Y155893D01*
X56365Y154931D01*
X54993Y153559D01*
X54938Y153483D01*
X54878Y153411D01*
X54867Y153384D01*
X54850Y153360D01*
X54822Y153270D01*
X54788Y153182D01*
X54786Y153153D01*
X54777Y153125D01*
X54780Y153030D01*
X54775Y152936D01*
X54783Y152908D01*
X54784Y152879D01*
X54816Y152790D01*
X54842Y152699D01*
X54858Y152675D01*
X54868Y152648D01*
X54927Y152574D01*
X54980Y152496D01*
X55009Y152473D01*
X55022Y152456D01*
X55050Y152438D01*
X55109Y152388D01*
X55632Y152038D01*
X56688Y150982D01*
X57518Y149741D01*
X58089Y148361D01*
X58281Y147399D01*
X51288Y147399D01*
X51269Y147396D01*
X51249Y147398D01*
X51147Y147376D01*
X51045Y147360D01*
X51028Y147350D01*
X51008Y147346D01*
X50919Y147293D01*
X50828Y147244D01*
X50814Y147230D01*
X50797Y147220D01*
X50794Y147216D01*
X50740Y147268D01*
X50722Y147276D01*
X50707Y147289D01*
X50610Y147328D01*
X50517Y147371D01*
X50497Y147373D01*
X50479Y147381D01*
X50312Y147399D01*
X42930Y147399D01*
X42886Y147441D01*
X42868Y147450D01*
X42853Y147463D01*
X42757Y147502D01*
X42663Y147545D01*
X42643Y147547D01*
X42625Y147555D01*
X42458Y147573D01*
X29304Y147573D01*
X29304Y153591D01*
X43116Y153591D01*
X43762Y153418D01*
X44341Y153083D01*
X44814Y152610D01*
X44967Y152345D01*
X44996Y152311D01*
X45016Y152271D01*
X45073Y152216D01*
X45123Y152155D01*
X45161Y152131D01*
X45193Y152100D01*
X45264Y152066D01*
X45331Y152024D01*
X45375Y152014D01*
X45415Y151994D01*
X45494Y151985D01*
X45570Y151967D01*
X45615Y151971D01*
X45660Y151965D01*
X45737Y151982D01*
X45815Y151988D01*
X45857Y152007D01*
X45900Y152016D01*
X46025Y152080D01*
X46041Y152087D01*
X46044Y152090D01*
X46049Y152093D01*
X46491Y152388D01*
X46503Y152399D01*
X46514Y152405D01*
X46550Y152443D01*
X46560Y152453D01*
X46634Y152512D01*
X46650Y152536D01*
X46671Y152556D01*
X46716Y152639D01*
X46767Y152718D01*
X46774Y152747D01*
X46788Y152773D01*
X46804Y152865D01*
X46827Y152957D01*
X46825Y152986D01*
X46830Y153015D01*
X46815Y153108D01*
X46808Y153202D01*
X46796Y153229D01*
X46792Y153258D01*
X46748Y153342D01*
X46711Y153429D01*
X46688Y153457D01*
X46679Y153476D01*
X46655Y153499D01*
X46607Y153559D01*
X45235Y154931D01*
X44235Y157344D01*
X44235Y157814D01*
X44232Y157834D01*
X44234Y157853D01*
X44212Y157955D01*
X44196Y158057D01*
X44186Y158074D01*
X44182Y158094D01*
X44129Y158183D01*
X44080Y158274D01*
X44066Y158288D01*
X44056Y158305D01*
X43977Y158372D01*
X43902Y158444D01*
X43884Y158452D01*
X43869Y158465D01*
X43773Y158504D01*
X43679Y158547D01*
X43659Y158549D01*
X43641Y158557D01*
X43474Y158575D01*
X13367Y158575D01*
X13347Y158572D01*
X13327Y158574D01*
X13226Y158552D01*
X13124Y158536D01*
X13106Y158526D01*
X13087Y158522D01*
X12998Y158469D01*
X12907Y158420D01*
X12893Y158406D01*
X12876Y158396D01*
X12808Y158317D01*
X12737Y158242D01*
X12729Y158224D01*
X12716Y158209D01*
X12677Y158113D01*
X12634Y158019D01*
X12631Y157999D01*
X12624Y157981D01*
X12605Y157814D01*
X12605Y154352D01*
X12609Y154332D01*
X12607Y154313D01*
X12629Y154211D01*
X12645Y154109D01*
X12655Y154092D01*
X12659Y154072D01*
X12712Y153983D01*
X12760Y153892D01*
X12775Y153878D01*
X12785Y153861D01*
X12864Y153794D01*
X12939Y153722D01*
X12957Y153714D01*
X12972Y153701D01*
X13068Y153662D01*
X13162Y153619D01*
X13181Y153617D01*
X13200Y153609D01*
X13367Y153591D01*
X26258Y153591D01*
X26258Y146812D01*
X26261Y146792D01*
X26259Y146773D01*
X26281Y146671D01*
X26298Y146569D01*
X26307Y146552D01*
X26311Y146532D01*
X26365Y146443D01*
X26413Y146352D01*
X26427Y146338D01*
X26438Y146321D01*
X26516Y146254D01*
X26591Y146183D01*
X26609Y146174D01*
X26624Y146161D01*
X26721Y146122D01*
X26814Y146079D01*
X26834Y146077D01*
X26853Y146069D01*
X27019Y146051D01*
X27782Y146051D01*
X27782Y146049D01*
X27019Y146049D01*
X27000Y146046D01*
X26980Y146048D01*
X26879Y146026D01*
X26777Y146009D01*
X26759Y146000D01*
X26739Y145996D01*
X26650Y145943D01*
X26559Y145894D01*
X26545Y145880D01*
X26528Y145870D01*
X26461Y145791D01*
X26390Y145716D01*
X26381Y145698D01*
X26368Y145683D01*
X26330Y145587D01*
X26286Y145493D01*
X26284Y145473D01*
X26277Y145455D01*
X26258Y145288D01*
X26258Y138509D01*
X13367Y138509D01*
X13347Y138506D01*
X13327Y138508D01*
X13226Y138486D01*
X13124Y138470D01*
X13106Y138460D01*
X13087Y138456D01*
X12998Y138403D01*
X12907Y138354D01*
X12893Y138340D01*
X12876Y138330D01*
X12808Y138251D01*
X12737Y138176D01*
X12729Y138158D01*
X12716Y138143D01*
X12677Y138047D01*
X12634Y137953D01*
X12631Y137933D01*
X12624Y137915D01*
X12605Y137748D01*
X12605Y134286D01*
X12609Y134266D01*
X12607Y134247D01*
X12629Y134145D01*
X12645Y134043D01*
X12655Y134026D01*
X12659Y134006D01*
X12712Y133917D01*
X12760Y133826D01*
X12775Y133812D01*
X12785Y133795D01*
X12864Y133728D01*
X12939Y133656D01*
X12957Y133648D01*
X12972Y133635D01*
X13068Y133596D01*
X13162Y133553D01*
X13181Y133551D01*
X13200Y133543D01*
X13367Y133525D01*
X43474Y133525D01*
X43494Y133528D01*
X43513Y133526D01*
X43615Y133548D01*
X43717Y133564D01*
X43734Y133574D01*
X43754Y133578D01*
X43843Y133631D01*
X43934Y133680D01*
X43948Y133694D01*
X43965Y133704D01*
X44032Y133783D01*
X44104Y133858D01*
X44112Y133876D01*
X44125Y133891D01*
X44164Y133987D01*
X44207Y134081D01*
X44209Y134101D01*
X44217Y134119D01*
X44235Y134286D01*
X44235Y134956D01*
X45235Y137369D01*
X46607Y138741D01*
X46662Y138817D01*
X46722Y138889D01*
X46733Y138917D01*
X46750Y138940D01*
X46778Y139030D01*
X46812Y139118D01*
X46814Y139147D01*
X46823Y139175D01*
X46820Y139270D01*
X46825Y139364D01*
X46817Y139392D01*
X46816Y139421D01*
X46784Y139510D01*
X46758Y139601D01*
X46742Y139625D01*
X46732Y139652D01*
X46673Y139726D01*
X46620Y139804D01*
X46591Y139827D01*
X46578Y139844D01*
X46550Y139862D01*
X46491Y139912D01*
X46133Y140151D01*
X46092Y140170D01*
X46056Y140197D01*
X45981Y140221D01*
X45909Y140253D01*
X45864Y140258D01*
X45821Y140271D01*
X45742Y140270D01*
X45664Y140278D01*
X45620Y140268D01*
X45575Y140268D01*
X45501Y140241D01*
X45424Y140224D01*
X45386Y140201D01*
X45344Y140186D01*
X45281Y140137D01*
X45214Y140096D01*
X45185Y140062D01*
X45150Y140034D01*
X45066Y139920D01*
X45056Y139908D01*
X45054Y139904D01*
X45050Y139899D01*
X44814Y139490D01*
X44341Y139017D01*
X43762Y138682D01*
X43116Y138509D01*
X29304Y138509D01*
X29304Y144527D01*
X42466Y144527D01*
X42559Y144542D01*
X42653Y144550D01*
X42680Y144562D01*
X42709Y144567D01*
X42792Y144611D01*
X42879Y144648D01*
X42900Y144668D01*
X42926Y144682D01*
X42991Y144750D01*
X43061Y144813D01*
X43075Y144839D01*
X43096Y144860D01*
X43114Y144901D01*
X50312Y144901D01*
X50331Y144904D01*
X50351Y144902D01*
X50453Y144924D01*
X50555Y144940D01*
X50572Y144950D01*
X50592Y144954D01*
X50681Y145007D01*
X50772Y145056D01*
X50786Y145070D01*
X50803Y145080D01*
X50806Y145084D01*
X50860Y145032D01*
X50878Y145024D01*
X50893Y145011D01*
X50990Y144972D01*
X51083Y144929D01*
X51103Y144927D01*
X51121Y144919D01*
X51288Y144901D01*
X58281Y144901D01*
X58089Y143939D01*
X57518Y142559D01*
X56688Y141318D01*
X55632Y140262D01*
X55109Y139912D01*
X55040Y139847D01*
X54966Y139788D01*
X54950Y139764D01*
X54929Y139744D01*
X54884Y139661D01*
X54833Y139582D01*
X54826Y139553D01*
X54812Y139527D01*
X54796Y139435D01*
X54773Y139343D01*
X54775Y139314D01*
X54770Y139285D01*
X54785Y139192D01*
X54792Y139098D01*
X54804Y139071D01*
X54808Y139042D01*
X54852Y138958D01*
X54889Y138871D01*
X54912Y138843D01*
X54921Y138824D01*
X54945Y138801D01*
X54993Y138741D01*
X56365Y137369D01*
X57365Y134956D01*
X57365Y132344D01*
X56365Y129931D01*
X54497Y128063D01*
X54437Y128036D01*
X54399Y128001D01*
X54355Y127974D01*
X54309Y127919D01*
X54256Y127870D01*
X54231Y127824D01*
X54198Y127784D01*
X54172Y127717D01*
X54137Y127655D01*
X54128Y127603D01*
X54110Y127555D01*
X54106Y127483D01*
X54094Y127412D01*
X54101Y127361D01*
X54099Y127309D01*
X54119Y127240D01*
X54129Y127169D01*
X54153Y127123D01*
X54168Y127073D01*
X54208Y127014D01*
X54241Y126950D01*
X54278Y126913D01*
X54308Y126871D01*
X54365Y126828D01*
X54417Y126778D01*
X54479Y126743D01*
X54505Y126724D01*
X54512Y126721D01*
X56365Y124869D01*
X57365Y122456D01*
X57365Y119844D01*
X56365Y117431D01*
X54519Y115585D01*
X52106Y114585D01*
X49494Y114585D01*
X47081Y115585D01*
X45235Y117431D01*
X44200Y119929D01*
X44196Y119957D01*
X44186Y119974D01*
X44182Y119994D01*
X44129Y120083D01*
X44080Y120174D01*
X44066Y120188D01*
X44056Y120205D01*
X43977Y120272D01*
X43902Y120344D01*
X43884Y120352D01*
X43869Y120365D01*
X43773Y120404D01*
X43679Y120447D01*
X43659Y120449D01*
X43641Y120457D01*
X43474Y120475D01*
X12150Y120475D01*
X11257Y121368D01*
X11257Y125688D01*
X11242Y125778D01*
X11235Y125869D01*
X11222Y125899D01*
X11217Y125931D01*
X11174Y126011D01*
X11138Y126095D01*
X11113Y126127D01*
X11102Y126148D01*
X11078Y126170D01*
X11034Y126226D01*
X10730Y126530D01*
X10672Y126572D01*
X10620Y126621D01*
X10572Y126643D01*
X10530Y126673D01*
X10462Y126694D01*
X10397Y126725D01*
X10345Y126730D01*
X10295Y126746D01*
X10223Y126744D01*
X10152Y126752D01*
X10101Y126741D01*
X10049Y126739D01*
X9982Y126715D01*
X9912Y126700D01*
X9867Y126673D01*
X9818Y126655D01*
X9762Y126610D01*
X9701Y126573D01*
X9667Y126534D01*
X9626Y126501D01*
X9588Y126441D01*
X9541Y126386D01*
X9521Y126338D01*
X9493Y126294D01*
X9476Y126225D01*
X9449Y126158D01*
X9441Y126087D01*
X9433Y126056D01*
X9435Y126032D01*
X9430Y125992D01*
X9430Y114769D01*
X9445Y114679D01*
X9452Y114588D01*
X9465Y114558D01*
X9470Y114526D01*
X9513Y114446D01*
X9549Y114361D01*
X9574Y114329D01*
X9585Y114309D01*
X9609Y114287D01*
X9653Y114230D01*
X10241Y113643D01*
X10257Y113631D01*
X10270Y113616D01*
X10335Y113574D01*
X10378Y113537D01*
X10402Y113527D01*
X10441Y113499D01*
X10460Y113493D01*
X10477Y113483D01*
X10572Y113459D01*
X10606Y113445D01*
X10624Y113443D01*
X10676Y113427D01*
X10696Y113427D01*
X10715Y113423D01*
X10769Y113427D01*
X10773Y113426D01*
X10786Y113426D01*
X10806Y113430D01*
X10818Y113431D01*
X10922Y113433D01*
X10941Y113440D01*
X10960Y113442D01*
X11011Y113463D01*
X11029Y113466D01*
X11067Y113486D01*
X11153Y113518D01*
X11168Y113530D01*
X11187Y113538D01*
X11230Y113573D01*
X11246Y113581D01*
X11263Y113599D01*
X11318Y113643D01*
X12150Y114475D01*
X43413Y114475D01*
X44306Y113582D01*
X44306Y102318D01*
X43413Y101425D01*
X12150Y101425D01*
X11257Y102318D01*
X11257Y105844D01*
X11255Y105852D01*
X11255Y105853D01*
X11254Y105861D01*
X11242Y105934D01*
X11235Y106025D01*
X11222Y106055D01*
X11217Y106087D01*
X11174Y106168D01*
X11138Y106252D01*
X11113Y106284D01*
X11102Y106304D01*
X11078Y106327D01*
X11034Y106383D01*
X6380Y111036D01*
X6322Y111078D01*
X6270Y111127D01*
X6223Y111149D01*
X6181Y111179D01*
X6112Y111200D01*
X6047Y111231D01*
X5995Y111236D01*
X5945Y111252D01*
X5874Y111250D01*
X5803Y111258D01*
X5752Y111247D01*
X5700Y111245D01*
X5632Y111221D01*
X5562Y111206D01*
X5518Y111179D01*
X5469Y111161D01*
X5413Y111116D01*
X5351Y111079D01*
X5317Y111040D01*
X5277Y111007D01*
X5238Y110947D01*
X5191Y110892D01*
X5172Y110844D01*
X5144Y110800D01*
X5126Y110731D01*
X5099Y110664D01*
X5091Y110593D01*
X5083Y110562D01*
X5085Y110538D01*
X5081Y110498D01*
X5081Y50078D01*
X5092Y50007D01*
X5094Y49935D01*
X5112Y49886D01*
X5120Y49835D01*
X5154Y49772D01*
X5179Y49704D01*
X5211Y49664D01*
X5236Y49618D01*
X5288Y49568D01*
X5333Y49512D01*
X5376Y49484D01*
X5414Y49448D01*
X5479Y49418D01*
X5540Y49379D01*
X5590Y49367D01*
X5637Y49345D01*
X5708Y49337D01*
X5778Y49319D01*
X5830Y49323D01*
X5881Y49318D01*
X5952Y49333D01*
X6023Y49338D01*
X6052Y49351D01*
X6824Y49351D01*
X6843Y49354D01*
X6863Y49352D01*
X6964Y49374D01*
X7067Y49390D01*
X7084Y49400D01*
X7104Y49404D01*
X7193Y49457D01*
X7284Y49506D01*
X7298Y49520D01*
X7315Y49530D01*
X7382Y49609D01*
X7453Y49684D01*
X7462Y49702D01*
X7475Y49717D01*
X7513Y49813D01*
X7557Y49907D01*
X7559Y49927D01*
X7567Y49945D01*
X7585Y50112D01*
X7585Y57666D01*
X8478Y58559D01*
X14859Y58559D01*
X15551Y57867D01*
X15647Y57799D01*
X15743Y57728D01*
X15747Y57726D01*
X15750Y57724D01*
X15863Y57689D01*
X15977Y57653D01*
X15981Y57653D01*
X15985Y57652D01*
X16104Y57655D01*
X16223Y57656D01*
X16227Y57658D01*
X16231Y57658D01*
X16344Y57699D01*
X16455Y57738D01*
X16458Y57741D01*
X16462Y57742D01*
X16556Y57817D01*
X16649Y57890D01*
X16652Y57894D01*
X16654Y57896D01*
X16662Y57908D01*
X16748Y58025D01*
X17077Y58594D01*
X17550Y59067D01*
X18129Y59402D01*
X18775Y59575D01*
X20390Y59575D01*
X20390Y54493D01*
X20393Y54473D01*
X20391Y54453D01*
X20413Y54352D01*
X20430Y54250D01*
X20439Y54232D01*
X20443Y54213D01*
X20496Y54124D01*
X20545Y54033D01*
X20559Y54019D01*
X20569Y54002D01*
X20648Y53934D01*
X20723Y53863D01*
X20741Y53855D01*
X20756Y53842D01*
X20853Y53803D01*
X20946Y53760D01*
X20966Y53757D01*
X20984Y53750D01*
X21151Y53731D01*
X21425Y53731D01*
X21425Y53457D01*
X21428Y53438D01*
X21426Y53418D01*
X21448Y53317D01*
X21465Y53215D01*
X21474Y53197D01*
X21478Y53178D01*
X21532Y53089D01*
X21580Y52997D01*
X21594Y52984D01*
X21605Y52967D01*
X21683Y52899D01*
X21758Y52828D01*
X21776Y52820D01*
X21792Y52807D01*
X21888Y52768D01*
X21981Y52724D01*
X22001Y52722D01*
X22020Y52715D01*
X22186Y52696D01*
X23112Y52696D01*
X23131Y52699D01*
X23151Y52697D01*
X23252Y52719D01*
X23354Y52736D01*
X23372Y52745D01*
X23391Y52749D01*
X23480Y52803D01*
X23572Y52851D01*
X23575Y52855D01*
X27694Y52855D01*
X27694Y48534D01*
X26079Y48534D01*
X25772Y48616D01*
X25681Y48625D01*
X25591Y48642D01*
X25559Y48638D01*
X25527Y48641D01*
X25438Y48620D01*
X25348Y48608D01*
X25310Y48591D01*
X25287Y48586D01*
X25260Y48569D01*
X25220Y48552D01*
X24562Y48375D01*
X23296Y48375D01*
X23225Y48364D01*
X23154Y48362D01*
X23105Y48344D01*
X23053Y48336D01*
X22990Y48302D01*
X22923Y48277D01*
X22882Y48245D01*
X22836Y48220D01*
X22787Y48168D01*
X22731Y48124D01*
X22702Y48080D01*
X22667Y48042D01*
X22636Y47977D01*
X22598Y47917D01*
X22585Y47866D01*
X22563Y47819D01*
X22555Y47748D01*
X22538Y47678D01*
X22542Y47626D01*
X22536Y47575D01*
X22551Y47504D01*
X22557Y47433D01*
X22577Y47385D01*
X22588Y47334D01*
X22625Y47273D01*
X22653Y47207D01*
X22698Y47151D01*
X22714Y47123D01*
X22732Y47108D01*
X22758Y47076D01*
X24449Y45385D01*
X24747Y45086D01*
X26607Y43226D01*
X26607Y11792D01*
X26622Y11702D01*
X26629Y11611D01*
X26642Y11581D01*
X26647Y11549D01*
X26690Y11468D01*
X26725Y11384D01*
X26751Y11352D01*
X26762Y11332D01*
X26785Y11309D01*
X26830Y11253D01*
X27128Y10955D01*
X27202Y10902D01*
X27272Y10843D01*
X27302Y10830D01*
X27328Y10812D01*
X27415Y10785D01*
X27500Y10751D01*
X27541Y10746D01*
X27563Y10739D01*
X27595Y10740D01*
X27667Y10732D01*
X48543Y10732D01*
X48592Y10740D01*
G37*
G36*
X82411Y154535D02*
X82411Y154535D01*
X82431Y154533D01*
X82532Y154555D01*
X82634Y154571D01*
X82652Y154581D01*
X82671Y154585D01*
X82760Y154638D01*
X82852Y154687D01*
X82865Y154701D01*
X82882Y154711D01*
X82950Y154790D01*
X83021Y154865D01*
X83029Y154883D01*
X83042Y154898D01*
X83081Y154994D01*
X83125Y155088D01*
X83127Y155108D01*
X83134Y155126D01*
X83153Y155293D01*
X83153Y157572D01*
X86261Y160681D01*
X87754Y160681D01*
X87825Y160693D01*
X87896Y160694D01*
X87945Y160712D01*
X87997Y160721D01*
X88060Y160754D01*
X88127Y160779D01*
X88168Y160811D01*
X88214Y160836D01*
X88263Y160888D01*
X88319Y160933D01*
X88348Y160976D01*
X88383Y161014D01*
X88414Y161079D01*
X88452Y161139D01*
X88465Y161190D01*
X88487Y161237D01*
X88495Y161308D01*
X88513Y161378D01*
X88508Y161430D01*
X88514Y161482D01*
X88499Y161552D01*
X88493Y161623D01*
X88473Y161671D01*
X88462Y161722D01*
X88425Y161784D01*
X88397Y161850D01*
X88352Y161905D01*
X88336Y161933D01*
X88318Y161948D01*
X88292Y161981D01*
X86152Y164121D01*
X84292Y165981D01*
X84292Y182700D01*
X86795Y185204D01*
X86845Y185274D01*
X86887Y185317D01*
X86892Y185329D01*
X86908Y185347D01*
X86920Y185377D01*
X86939Y185404D01*
X86962Y185480D01*
X86990Y185540D01*
X86992Y185556D01*
X87000Y185575D01*
X87004Y185616D01*
X87011Y185639D01*
X87010Y185671D01*
X87018Y185742D01*
X87018Y188626D01*
X87426Y189033D01*
X87468Y189092D01*
X87517Y189143D01*
X87539Y189191D01*
X87569Y189233D01*
X87590Y189301D01*
X87621Y189367D01*
X87626Y189418D01*
X87642Y189468D01*
X87640Y189540D01*
X87648Y189611D01*
X87637Y189662D01*
X87635Y189714D01*
X87611Y189781D01*
X87595Y189851D01*
X87569Y189896D01*
X87551Y189945D01*
X87506Y190001D01*
X87469Y190062D01*
X87430Y190096D01*
X87397Y190137D01*
X87337Y190176D01*
X87282Y190222D01*
X87234Y190242D01*
X87190Y190270D01*
X87121Y190287D01*
X87054Y190314D01*
X86983Y190322D01*
X86952Y190330D01*
X86928Y190328D01*
X86887Y190333D01*
X56676Y190333D01*
X56605Y190321D01*
X56533Y190319D01*
X56484Y190301D01*
X56433Y190293D01*
X56370Y190260D01*
X56302Y190235D01*
X56262Y190202D01*
X56216Y190178D01*
X56166Y190126D01*
X56110Y190081D01*
X56082Y190037D01*
X56046Y190000D01*
X56016Y189935D01*
X55977Y189874D01*
X55965Y189824D01*
X55943Y189777D01*
X55935Y189705D01*
X55917Y189636D01*
X55921Y189584D01*
X55916Y189532D01*
X55931Y189462D01*
X55936Y189390D01*
X55957Y189343D01*
X55968Y189292D01*
X56005Y189230D01*
X56033Y189164D01*
X56078Y189108D01*
X56094Y189081D01*
X56111Y189066D01*
X56114Y189060D01*
X56119Y189056D01*
X56138Y189033D01*
X56688Y188482D01*
X57518Y187241D01*
X58089Y185861D01*
X58281Y184899D01*
X51288Y184899D01*
X51269Y184896D01*
X51249Y184898D01*
X51147Y184876D01*
X51045Y184860D01*
X51028Y184850D01*
X51008Y184846D01*
X50919Y184793D01*
X50828Y184744D01*
X50814Y184730D01*
X50797Y184720D01*
X50794Y184716D01*
X50740Y184768D01*
X50722Y184776D01*
X50707Y184789D01*
X50610Y184828D01*
X50517Y184871D01*
X50497Y184873D01*
X50479Y184881D01*
X50312Y184899D01*
X43319Y184899D01*
X43511Y185861D01*
X44082Y187241D01*
X44912Y188482D01*
X45462Y189033D01*
X45504Y189092D01*
X45554Y189143D01*
X45576Y189191D01*
X45606Y189233D01*
X45627Y189301D01*
X45657Y189367D01*
X45663Y189418D01*
X45678Y189468D01*
X45677Y189540D01*
X45684Y189611D01*
X45673Y189662D01*
X45672Y189714D01*
X45647Y189781D01*
X45632Y189851D01*
X45605Y189896D01*
X45588Y189945D01*
X45543Y190001D01*
X45506Y190062D01*
X45466Y190096D01*
X45434Y190137D01*
X45374Y190176D01*
X45319Y190222D01*
X45271Y190242D01*
X45227Y190270D01*
X45157Y190287D01*
X45091Y190314D01*
X45020Y190322D01*
X44988Y190330D01*
X44965Y190328D01*
X44924Y190333D01*
X37291Y190333D01*
X37220Y190321D01*
X37149Y190319D01*
X37100Y190301D01*
X37048Y190293D01*
X36985Y190259D01*
X36918Y190235D01*
X36877Y190202D01*
X36831Y190178D01*
X36782Y190126D01*
X36726Y190081D01*
X36697Y190037D01*
X36662Y190000D01*
X36631Y189935D01*
X36593Y189874D01*
X36580Y189824D01*
X36558Y189777D01*
X36550Y189705D01*
X36533Y189636D01*
X36537Y189584D01*
X36531Y189532D01*
X36546Y189462D01*
X36552Y189391D01*
X36572Y189343D01*
X36583Y189292D01*
X36620Y189230D01*
X36648Y189164D01*
X36693Y189108D01*
X36709Y189081D01*
X36726Y189066D01*
X36730Y189060D01*
X36734Y189056D01*
X36753Y189033D01*
X37850Y187936D01*
X37850Y183539D01*
X35307Y180996D01*
X35254Y180922D01*
X35195Y180853D01*
X35183Y180823D01*
X35164Y180797D01*
X35137Y180710D01*
X35103Y180625D01*
X35098Y180584D01*
X35092Y180562D01*
X35092Y180529D01*
X35084Y180458D01*
X35084Y172386D01*
X35088Y172366D01*
X35086Y172347D01*
X35108Y172245D01*
X35124Y172143D01*
X35134Y172126D01*
X35138Y172106D01*
X35191Y172017D01*
X35239Y171926D01*
X35254Y171912D01*
X35264Y171895D01*
X35343Y171828D01*
X35418Y171756D01*
X35436Y171748D01*
X35451Y171735D01*
X35547Y171696D01*
X35641Y171653D01*
X35660Y171651D01*
X35679Y171643D01*
X35846Y171625D01*
X43474Y171625D01*
X43494Y171628D01*
X43513Y171626D01*
X43615Y171648D01*
X43717Y171664D01*
X43734Y171674D01*
X43754Y171678D01*
X43843Y171731D01*
X43934Y171780D01*
X43948Y171794D01*
X43965Y171804D01*
X44032Y171883D01*
X44104Y171958D01*
X44112Y171976D01*
X44125Y171991D01*
X44164Y172087D01*
X44207Y172181D01*
X44209Y172201D01*
X44217Y172219D01*
X44235Y172386D01*
X44235Y172456D01*
X45235Y174869D01*
X46607Y176241D01*
X46662Y176317D01*
X46722Y176389D01*
X46733Y176416D01*
X46750Y176440D01*
X46778Y176530D01*
X46812Y176618D01*
X46814Y176647D01*
X46823Y176675D01*
X46820Y176770D01*
X46825Y176864D01*
X46817Y176892D01*
X46816Y176921D01*
X46784Y177010D01*
X46758Y177101D01*
X46742Y177125D01*
X46732Y177152D01*
X46673Y177226D01*
X46620Y177304D01*
X46591Y177327D01*
X46578Y177344D01*
X46550Y177362D01*
X46491Y177412D01*
X45968Y177762D01*
X44912Y178818D01*
X44082Y180059D01*
X43511Y181439D01*
X43319Y182401D01*
X50312Y182401D01*
X50331Y182404D01*
X50351Y182402D01*
X50453Y182424D01*
X50555Y182440D01*
X50572Y182450D01*
X50592Y182454D01*
X50681Y182507D01*
X50772Y182556D01*
X50786Y182570D01*
X50803Y182580D01*
X50806Y182584D01*
X50860Y182532D01*
X50878Y182524D01*
X50893Y182511D01*
X50990Y182472D01*
X51083Y182429D01*
X51103Y182427D01*
X51121Y182419D01*
X51288Y182401D01*
X58281Y182401D01*
X58089Y181439D01*
X57518Y180059D01*
X56688Y178818D01*
X55632Y177762D01*
X55109Y177412D01*
X55040Y177347D01*
X54966Y177288D01*
X54950Y177264D01*
X54929Y177244D01*
X54884Y177161D01*
X54833Y177082D01*
X54826Y177053D01*
X54812Y177027D01*
X54796Y176935D01*
X54773Y176843D01*
X54775Y176814D01*
X54770Y176785D01*
X54785Y176692D01*
X54792Y176598D01*
X54804Y176571D01*
X54808Y176542D01*
X54852Y176458D01*
X54889Y176371D01*
X54912Y176343D01*
X54921Y176324D01*
X54945Y176301D01*
X54993Y176241D01*
X56365Y174869D01*
X57365Y172456D01*
X57365Y169844D01*
X56365Y167431D01*
X54497Y165563D01*
X54437Y165536D01*
X54399Y165501D01*
X54354Y165474D01*
X54309Y165418D01*
X54256Y165370D01*
X54231Y165324D01*
X54198Y165284D01*
X54172Y165217D01*
X54137Y165154D01*
X54128Y165103D01*
X54109Y165055D01*
X54106Y164983D01*
X54094Y164912D01*
X54101Y164861D01*
X54099Y164809D01*
X54119Y164740D01*
X54130Y164669D01*
X54153Y164623D01*
X54168Y164573D01*
X54209Y164514D01*
X54241Y164450D01*
X54278Y164413D01*
X54308Y164371D01*
X54365Y164328D01*
X54417Y164277D01*
X54479Y164243D01*
X54505Y164224D01*
X54513Y164221D01*
X56365Y162369D01*
X56764Y161407D01*
X56826Y161307D01*
X56885Y161207D01*
X56890Y161203D01*
X56893Y161198D01*
X56984Y161123D01*
X57072Y161047D01*
X57078Y161045D01*
X57083Y161041D01*
X57191Y160999D01*
X57300Y160955D01*
X57308Y160954D01*
X57312Y160953D01*
X57331Y160952D01*
X57467Y160937D01*
X73278Y160937D01*
X79460Y154755D01*
X79534Y154702D01*
X79604Y154642D01*
X79634Y154630D01*
X79660Y154611D01*
X79747Y154584D01*
X79832Y154550D01*
X79873Y154546D01*
X79895Y154539D01*
X79927Y154540D01*
X79999Y154532D01*
X82391Y154532D01*
X82411Y154535D01*
G37*
%LPC*%
G36*
X133290Y20668D02*
X133290Y20668D01*
X133272Y20676D01*
X133257Y20689D01*
X133160Y20728D01*
X133067Y20771D01*
X133047Y20773D01*
X133029Y20781D01*
X132862Y20799D01*
X125869Y20799D01*
X126061Y21761D01*
X126632Y23141D01*
X127462Y24382D01*
X128518Y25438D01*
X129041Y25788D01*
X129110Y25853D01*
X129184Y25912D01*
X129200Y25936D01*
X129221Y25956D01*
X129266Y26039D01*
X129317Y26118D01*
X129324Y26147D01*
X129338Y26173D01*
X129354Y26265D01*
X129377Y26357D01*
X129375Y26386D01*
X129380Y26415D01*
X129365Y26508D01*
X129358Y26602D01*
X129346Y26629D01*
X129342Y26658D01*
X129298Y26742D01*
X129261Y26829D01*
X129238Y26857D01*
X129229Y26876D01*
X129205Y26899D01*
X129157Y26959D01*
X127785Y28331D01*
X126785Y30744D01*
X126785Y33356D01*
X127785Y35769D01*
X129653Y37637D01*
X129713Y37664D01*
X129751Y37699D01*
X129796Y37726D01*
X129841Y37782D01*
X129894Y37830D01*
X129919Y37876D01*
X129952Y37916D01*
X129978Y37983D01*
X130013Y38046D01*
X130022Y38097D01*
X130041Y38145D01*
X130044Y38217D01*
X130056Y38288D01*
X130049Y38339D01*
X130051Y38391D01*
X130031Y38460D01*
X130020Y38531D01*
X129997Y38577D01*
X129982Y38627D01*
X129941Y38686D01*
X129909Y38750D01*
X129872Y38787D01*
X129842Y38829D01*
X129784Y38872D01*
X129733Y38923D01*
X129671Y38957D01*
X129645Y38976D01*
X129637Y38979D01*
X127785Y40831D01*
X126785Y43244D01*
X126785Y45856D01*
X127785Y48269D01*
X129157Y49641D01*
X129212Y49717D01*
X129272Y49789D01*
X129283Y49816D01*
X129300Y49840D01*
X129328Y49930D01*
X129362Y50018D01*
X129364Y50047D01*
X129373Y50075D01*
X129370Y50170D01*
X129375Y50264D01*
X129367Y50292D01*
X129366Y50321D01*
X129334Y50410D01*
X129308Y50501D01*
X129292Y50525D01*
X129282Y50552D01*
X129223Y50626D01*
X129170Y50704D01*
X129141Y50727D01*
X129128Y50744D01*
X129100Y50762D01*
X129041Y50812D01*
X128518Y51162D01*
X127462Y52218D01*
X126632Y53459D01*
X126061Y54839D01*
X125869Y55801D01*
X132862Y55801D01*
X132881Y55804D01*
X132901Y55802D01*
X133003Y55824D01*
X133105Y55840D01*
X133122Y55850D01*
X133142Y55854D01*
X133231Y55907D01*
X133322Y55956D01*
X133336Y55970D01*
X133353Y55980D01*
X133356Y55984D01*
X133410Y55932D01*
X133428Y55924D01*
X133443Y55911D01*
X133540Y55872D01*
X133633Y55829D01*
X133653Y55827D01*
X133671Y55819D01*
X133838Y55801D01*
X140831Y55801D01*
X140639Y54839D01*
X140068Y53459D01*
X139238Y52218D01*
X138182Y51162D01*
X137659Y50812D01*
X137590Y50747D01*
X137516Y50688D01*
X137500Y50664D01*
X137479Y50644D01*
X137434Y50561D01*
X137383Y50482D01*
X137376Y50453D01*
X137362Y50427D01*
X137346Y50335D01*
X137323Y50243D01*
X137325Y50214D01*
X137320Y50185D01*
X137335Y50092D01*
X137342Y49998D01*
X137354Y49971D01*
X137358Y49942D01*
X137402Y49858D01*
X137439Y49771D01*
X137462Y49743D01*
X137471Y49724D01*
X137495Y49701D01*
X137543Y49641D01*
X138915Y48269D01*
X139103Y47815D01*
X139165Y47715D01*
X139225Y47615D01*
X139230Y47611D01*
X139233Y47606D01*
X139324Y47531D01*
X139412Y47455D01*
X139418Y47453D01*
X139422Y47449D01*
X139531Y47407D01*
X139640Y47363D01*
X139647Y47362D01*
X139652Y47361D01*
X139670Y47360D01*
X139807Y47345D01*
X141502Y47345D01*
X141592Y47359D01*
X141683Y47367D01*
X141713Y47379D01*
X141745Y47384D01*
X141825Y47427D01*
X141909Y47463D01*
X141941Y47489D01*
X141962Y47500D01*
X141984Y47523D01*
X142040Y47568D01*
X143826Y49353D01*
X143879Y49427D01*
X143939Y49497D01*
X143951Y49527D01*
X143970Y49553D01*
X143996Y49640D01*
X144031Y49725D01*
X144035Y49766D01*
X144042Y49788D01*
X144041Y49820D01*
X144049Y49892D01*
X144049Y97746D01*
X144034Y97836D01*
X144027Y97927D01*
X144015Y97957D01*
X144009Y97989D01*
X143967Y98069D01*
X143931Y98153D01*
X143905Y98185D01*
X143894Y98206D01*
X143871Y98228D01*
X143826Y98284D01*
X141147Y100964D01*
X141073Y101017D01*
X141003Y101076D01*
X140973Y101088D01*
X140947Y101107D01*
X140860Y101134D01*
X140775Y101168D01*
X140734Y101173D01*
X140712Y101179D01*
X140680Y101179D01*
X140608Y101187D01*
X130878Y101187D01*
X130788Y101172D01*
X130697Y101165D01*
X130667Y101152D01*
X130635Y101147D01*
X130555Y101104D01*
X130471Y101068D01*
X130439Y101043D01*
X130418Y101032D01*
X130396Y101008D01*
X130340Y100964D01*
X128301Y98925D01*
X124112Y98925D01*
X121150Y101887D01*
X121150Y106076D01*
X124112Y109038D01*
X128301Y109038D01*
X130340Y106999D01*
X130414Y106946D01*
X130483Y106886D01*
X130513Y106874D01*
X130540Y106855D01*
X130627Y106829D01*
X130711Y106794D01*
X130752Y106790D01*
X130775Y106783D01*
X130807Y106784D01*
X130878Y106776D01*
X143239Y106776D01*
X149638Y100376D01*
X149638Y47261D01*
X144133Y41755D01*
X139807Y41755D01*
X139692Y41736D01*
X139576Y41719D01*
X139570Y41717D01*
X139564Y41716D01*
X139461Y41661D01*
X139356Y41608D01*
X139352Y41603D01*
X139347Y41600D01*
X139267Y41516D01*
X139184Y41432D01*
X139181Y41426D01*
X139177Y41422D01*
X139169Y41405D01*
X139103Y41285D01*
X138915Y40831D01*
X137047Y38963D01*
X136987Y38936D01*
X136949Y38901D01*
X136905Y38874D01*
X136859Y38819D01*
X136806Y38770D01*
X136781Y38724D01*
X136748Y38684D01*
X136722Y38617D01*
X136687Y38555D01*
X136678Y38503D01*
X136660Y38455D01*
X136656Y38383D01*
X136644Y38312D01*
X136651Y38261D01*
X136649Y38209D01*
X136669Y38140D01*
X136679Y38069D01*
X136703Y38023D01*
X136718Y37973D01*
X136758Y37914D01*
X136791Y37850D01*
X136828Y37813D01*
X136858Y37771D01*
X136915Y37728D01*
X136967Y37678D01*
X137029Y37643D01*
X137055Y37624D01*
X137062Y37621D01*
X138915Y35769D01*
X139915Y33356D01*
X139915Y30744D01*
X138915Y28331D01*
X137543Y26959D01*
X137488Y26883D01*
X137428Y26811D01*
X137417Y26784D01*
X137400Y26760D01*
X137372Y26670D01*
X137338Y26582D01*
X137336Y26553D01*
X137327Y26525D01*
X137330Y26430D01*
X137325Y26336D01*
X137333Y26308D01*
X137334Y26279D01*
X137366Y26190D01*
X137392Y26099D01*
X137408Y26075D01*
X137418Y26048D01*
X137477Y25974D01*
X137530Y25896D01*
X137559Y25873D01*
X137572Y25856D01*
X137600Y25838D01*
X137659Y25788D01*
X138182Y25438D01*
X139238Y24382D01*
X140068Y23141D01*
X140639Y21761D01*
X140831Y20799D01*
X133838Y20799D01*
X133819Y20796D01*
X133799Y20798D01*
X133697Y20776D01*
X133595Y20760D01*
X133578Y20750D01*
X133558Y20746D01*
X133469Y20693D01*
X133378Y20644D01*
X133364Y20630D01*
X133347Y20620D01*
X133344Y20616D01*
X133290Y20668D01*
G37*
%LPD*%
%LPC*%
G36*
X133290Y122268D02*
X133290Y122268D01*
X133272Y122276D01*
X133257Y122289D01*
X133160Y122328D01*
X133067Y122371D01*
X133047Y122373D01*
X133029Y122381D01*
X132862Y122399D01*
X125869Y122399D01*
X126061Y123361D01*
X126632Y124741D01*
X127462Y125982D01*
X128518Y127038D01*
X129041Y127388D01*
X129110Y127453D01*
X129184Y127512D01*
X129200Y127536D01*
X129221Y127556D01*
X129266Y127639D01*
X129317Y127718D01*
X129324Y127747D01*
X129338Y127773D01*
X129354Y127865D01*
X129377Y127957D01*
X129375Y127986D01*
X129380Y128015D01*
X129365Y128108D01*
X129358Y128202D01*
X129346Y128229D01*
X129342Y128258D01*
X129298Y128342D01*
X129261Y128429D01*
X129238Y128457D01*
X129229Y128476D01*
X129205Y128499D01*
X129157Y128559D01*
X127785Y129931D01*
X126785Y132344D01*
X126785Y134956D01*
X127785Y137369D01*
X129653Y139237D01*
X129713Y139264D01*
X129751Y139299D01*
X129796Y139326D01*
X129841Y139382D01*
X129894Y139430D01*
X129919Y139476D01*
X129952Y139516D01*
X129978Y139583D01*
X130013Y139646D01*
X130022Y139697D01*
X130041Y139745D01*
X130044Y139817D01*
X130056Y139888D01*
X130049Y139939D01*
X130051Y139991D01*
X130031Y140060D01*
X130020Y140131D01*
X129997Y140177D01*
X129982Y140227D01*
X129941Y140286D01*
X129909Y140350D01*
X129872Y140387D01*
X129842Y140429D01*
X129785Y140472D01*
X129733Y140523D01*
X129671Y140557D01*
X129645Y140576D01*
X129637Y140579D01*
X127785Y142431D01*
X126785Y144844D01*
X126785Y147456D01*
X127785Y149869D01*
X129157Y151241D01*
X129212Y151317D01*
X129272Y151389D01*
X129283Y151416D01*
X129300Y151440D01*
X129328Y151530D01*
X129362Y151618D01*
X129364Y151647D01*
X129373Y151675D01*
X129370Y151770D01*
X129375Y151864D01*
X129367Y151892D01*
X129366Y151921D01*
X129334Y152010D01*
X129308Y152101D01*
X129292Y152125D01*
X129282Y152152D01*
X129223Y152226D01*
X129170Y152304D01*
X129141Y152327D01*
X129128Y152344D01*
X129100Y152362D01*
X129041Y152412D01*
X128518Y152762D01*
X127462Y153818D01*
X126632Y155059D01*
X126061Y156439D01*
X125869Y157401D01*
X132862Y157401D01*
X132881Y157404D01*
X132901Y157402D01*
X133003Y157424D01*
X133105Y157440D01*
X133122Y157450D01*
X133142Y157454D01*
X133231Y157507D01*
X133322Y157556D01*
X133336Y157570D01*
X133353Y157580D01*
X133356Y157584D01*
X133410Y157532D01*
X133428Y157524D01*
X133443Y157511D01*
X133540Y157472D01*
X133633Y157429D01*
X133653Y157427D01*
X133671Y157419D01*
X133838Y157401D01*
X140831Y157401D01*
X140639Y156439D01*
X140068Y155059D01*
X140003Y154962D01*
X139238Y153818D01*
X138182Y152762D01*
X137659Y152412D01*
X137590Y152347D01*
X137516Y152288D01*
X137500Y152264D01*
X137479Y152244D01*
X137434Y152161D01*
X137383Y152082D01*
X137376Y152053D01*
X137362Y152027D01*
X137346Y151935D01*
X137323Y151843D01*
X137325Y151814D01*
X137320Y151785D01*
X137335Y151692D01*
X137342Y151598D01*
X137354Y151571D01*
X137358Y151542D01*
X137402Y151458D01*
X137439Y151371D01*
X137462Y151343D01*
X137471Y151324D01*
X137495Y151301D01*
X137543Y151241D01*
X138915Y149869D01*
X139915Y147456D01*
X139915Y144844D01*
X138915Y142431D01*
X137047Y140563D01*
X136987Y140536D01*
X136949Y140501D01*
X136905Y140474D01*
X136859Y140418D01*
X136806Y140370D01*
X136781Y140324D01*
X136748Y140284D01*
X136722Y140217D01*
X136687Y140154D01*
X136678Y140103D01*
X136659Y140055D01*
X136656Y139983D01*
X136644Y139912D01*
X136651Y139861D01*
X136649Y139809D01*
X136669Y139740D01*
X136679Y139669D01*
X136703Y139623D01*
X136717Y139573D01*
X136758Y139514D01*
X136791Y139450D01*
X136828Y139413D01*
X136858Y139371D01*
X136915Y139328D01*
X136967Y139278D01*
X137029Y139243D01*
X137055Y139224D01*
X137062Y139221D01*
X138915Y137369D01*
X139915Y134956D01*
X139915Y132344D01*
X138915Y129931D01*
X137543Y128559D01*
X137488Y128483D01*
X137428Y128411D01*
X137417Y128384D01*
X137400Y128360D01*
X137372Y128270D01*
X137338Y128182D01*
X137336Y128153D01*
X137327Y128125D01*
X137330Y128030D01*
X137325Y127936D01*
X137333Y127908D01*
X137334Y127879D01*
X137366Y127790D01*
X137392Y127699D01*
X137408Y127675D01*
X137418Y127648D01*
X137477Y127574D01*
X137530Y127496D01*
X137559Y127473D01*
X137572Y127456D01*
X137600Y127438D01*
X137659Y127388D01*
X138182Y127038D01*
X139238Y125982D01*
X140068Y124741D01*
X140639Y123361D01*
X140831Y122399D01*
X133838Y122399D01*
X133819Y122396D01*
X133799Y122398D01*
X133697Y122376D01*
X133595Y122360D01*
X133578Y122350D01*
X133558Y122346D01*
X133469Y122293D01*
X133378Y122244D01*
X133364Y122230D01*
X133347Y122220D01*
X133344Y122216D01*
X133290Y122268D01*
G37*
%LPD*%
G36*
X29261Y171628D02*
X29261Y171628D01*
X29281Y171626D01*
X29382Y171648D01*
X29485Y171664D01*
X29502Y171674D01*
X29522Y171678D01*
X29611Y171731D01*
X29702Y171780D01*
X29716Y171794D01*
X29733Y171804D01*
X29800Y171883D01*
X29871Y171958D01*
X29880Y171976D01*
X29893Y171991D01*
X29931Y172087D01*
X29975Y172181D01*
X29977Y172201D01*
X29985Y172219D01*
X30003Y172386D01*
X30003Y180458D01*
X29988Y180548D01*
X29981Y180639D01*
X29969Y180669D01*
X29963Y180701D01*
X29921Y180781D01*
X29885Y180865D01*
X29859Y180897D01*
X29848Y180918D01*
X29825Y180940D01*
X29780Y180996D01*
X27237Y183539D01*
X27237Y185214D01*
X27234Y185234D01*
X27236Y185253D01*
X27214Y185355D01*
X27197Y185457D01*
X27188Y185474D01*
X27184Y185494D01*
X27131Y185583D01*
X27082Y185674D01*
X27068Y185688D01*
X27058Y185705D01*
X26979Y185772D01*
X26904Y185844D01*
X26886Y185852D01*
X26871Y185865D01*
X26774Y185904D01*
X26681Y185947D01*
X26661Y185949D01*
X26642Y185957D01*
X26476Y185975D01*
X23334Y185975D01*
X20372Y188937D01*
X20372Y189131D01*
X20360Y189202D01*
X20359Y189274D01*
X20341Y189323D01*
X20332Y189374D01*
X20299Y189438D01*
X20274Y189505D01*
X20242Y189546D01*
X20217Y189592D01*
X20165Y189641D01*
X20120Y189697D01*
X20077Y189725D01*
X20039Y189761D01*
X19974Y189791D01*
X19913Y189830D01*
X19863Y189843D01*
X19816Y189865D01*
X19744Y189873D01*
X19675Y189890D01*
X19623Y189886D01*
X19571Y189892D01*
X19501Y189876D01*
X19430Y189871D01*
X19382Y189851D01*
X19331Y189839D01*
X19269Y189803D01*
X19203Y189775D01*
X19147Y189730D01*
X19120Y189713D01*
X19105Y189695D01*
X19072Y189670D01*
X12828Y183426D01*
X12775Y183352D01*
X12716Y183282D01*
X12704Y183252D01*
X12685Y183226D01*
X12658Y183139D01*
X12624Y183054D01*
X12619Y183013D01*
X12613Y182991D01*
X12613Y182959D01*
X12605Y182887D01*
X12605Y172386D01*
X12609Y172366D01*
X12607Y172347D01*
X12629Y172245D01*
X12645Y172143D01*
X12655Y172126D01*
X12659Y172106D01*
X12712Y172017D01*
X12760Y171926D01*
X12775Y171912D01*
X12785Y171895D01*
X12864Y171828D01*
X12939Y171756D01*
X12957Y171748D01*
X12972Y171735D01*
X13068Y171696D01*
X13162Y171653D01*
X13181Y171651D01*
X13200Y171643D01*
X13367Y171625D01*
X29242Y171625D01*
X29261Y171628D01*
G37*
%LPC*%
G36*
X52049Y20799D02*
X52049Y20799D01*
X52049Y30801D01*
X58281Y30801D01*
X58089Y29839D01*
X57518Y28459D01*
X56688Y27218D01*
X55809Y26338D01*
X55797Y26322D01*
X55782Y26310D01*
X55726Y26222D01*
X55666Y26139D01*
X55660Y26120D01*
X55649Y26103D01*
X55624Y26002D01*
X55593Y25903D01*
X55594Y25884D01*
X55589Y25864D01*
X55597Y25761D01*
X55600Y25658D01*
X55606Y25639D01*
X55608Y25619D01*
X55648Y25524D01*
X55684Y25427D01*
X55696Y25411D01*
X55704Y25393D01*
X55809Y25262D01*
X56688Y24382D01*
X57518Y23141D01*
X58089Y21761D01*
X58281Y20799D01*
X52049Y20799D01*
G37*
%LPD*%
%LPC*%
G36*
X29348Y26948D02*
X29348Y26948D01*
X29348Y29160D01*
X29527Y29829D01*
X29538Y29858D01*
X29571Y29917D01*
X29581Y29972D01*
X29601Y30024D01*
X29604Y30092D01*
X29616Y30159D01*
X29608Y30214D01*
X29610Y30270D01*
X29591Y30335D01*
X29582Y30402D01*
X29550Y30474D01*
X29541Y30506D01*
X29529Y30523D01*
X29524Y30533D01*
X29348Y31190D01*
X29348Y33402D01*
X36410Y33402D01*
X36410Y26948D01*
X29348Y26948D01*
G37*
%LPD*%
%LPC*%
G36*
X31555Y19483D02*
X31555Y19483D01*
X30908Y19656D01*
X30329Y19991D01*
X29856Y20464D01*
X29521Y21043D01*
X29348Y21690D01*
X29348Y23902D01*
X36410Y23902D01*
X36410Y19483D01*
X31555Y19483D01*
G37*
%LPD*%
%LPC*%
G36*
X134599Y119901D02*
X134599Y119901D01*
X140831Y119901D01*
X140639Y118939D01*
X140068Y117559D01*
X139238Y116318D01*
X138182Y115262D01*
X136941Y114432D01*
X135561Y113861D01*
X134599Y113669D01*
X134599Y119901D01*
G37*
%LPD*%
%LPC*%
G36*
X134599Y18301D02*
X134599Y18301D01*
X140831Y18301D01*
X140639Y17339D01*
X140068Y15959D01*
X139238Y14718D01*
X138182Y13662D01*
X136941Y12832D01*
X135561Y12261D01*
X134599Y12069D01*
X134599Y18301D01*
G37*
%LPD*%
%LPC*%
G36*
X131139Y113861D02*
X131139Y113861D01*
X129759Y114432D01*
X128518Y115262D01*
X127462Y116318D01*
X126632Y117559D01*
X126061Y118939D01*
X125869Y119901D01*
X132101Y119901D01*
X132101Y113669D01*
X131139Y113861D01*
G37*
%LPD*%
%LPC*%
G36*
X131139Y12261D02*
X131139Y12261D01*
X129759Y12832D01*
X128518Y13662D01*
X127462Y14718D01*
X126632Y15959D01*
X126061Y17339D01*
X125869Y18301D01*
X132101Y18301D01*
X132101Y12069D01*
X131139Y12261D01*
G37*
%LPD*%
%LPC*%
G36*
X22948Y55254D02*
X22948Y55254D01*
X22948Y59575D01*
X24562Y59575D01*
X24869Y59492D01*
X24960Y59483D01*
X25050Y59467D01*
X25082Y59471D01*
X25114Y59468D01*
X25203Y59488D01*
X25293Y59501D01*
X25331Y59518D01*
X25354Y59523D01*
X25381Y59540D01*
X25421Y59557D01*
X26079Y59733D01*
X27694Y59733D01*
X27694Y55413D01*
X27530Y55413D01*
X27510Y55409D01*
X27490Y55411D01*
X27389Y55389D01*
X27287Y55373D01*
X27269Y55363D01*
X27250Y55359D01*
X27161Y55306D01*
X27070Y55258D01*
X27066Y55254D01*
X22948Y55254D01*
G37*
%LPD*%
D10*
X133350Y57050D03*
X133350Y44550D03*
X133350Y32050D03*
X133350Y19550D03*
X133350Y69550D03*
X133350Y82050D03*
X133350Y158650D03*
X133350Y146150D03*
X133350Y133650D03*
X133350Y121150D03*
X133350Y171150D03*
X133350Y183650D03*
X50800Y146150D03*
X50800Y158650D03*
X50800Y171150D03*
X50800Y183650D03*
X50800Y133650D03*
X50800Y121150D03*
D11*
X27781Y127000D03*
X27781Y107950D03*
X27781Y88900D03*
X27781Y146050D03*
X27781Y165100D03*
D10*
X50800Y44550D03*
X50800Y57050D03*
X50800Y69550D03*
X50800Y82050D03*
X50800Y32050D03*
X50800Y19550D03*
D12*
X37933Y44425D03*
X37933Y34925D03*
X37933Y25425D03*
X12867Y25425D03*
X12867Y44425D03*
D13*
X38973Y54134D03*
X28973Y54134D03*
X11669Y53975D03*
X21669Y53975D03*
D14*
X81756Y57944D03*
X123825Y151606D03*
X119063Y184944D03*
X62706Y99219D03*
X54769Y99219D03*
X19050Y175419D03*
X19050Y183356D03*
X19844Y73025D03*
X19844Y65088D03*
D15*
X37933Y34925D02*
X47925Y34925D01*
X50800Y32050D01*
D16*
X111919Y190528D03*
D17*
X105597Y196850D02*
X23019Y196850D01*
X105597Y196850D02*
X111919Y190528D01*
X27781Y127000D02*
X13494Y127000D01*
X10319Y130175D01*
X10319Y184150D01*
X23019Y196850D01*
D16*
X100450Y190274D03*
D17*
X11535Y193594D02*
X11032Y193594D01*
X7144Y189706D01*
X7144Y113506D01*
X12700Y107950D02*
X27781Y107950D01*
X12700Y107950D02*
X7144Y113506D01*
D14*
X11535Y193594D03*
X25429Y191032D03*
D17*
X98104Y192620D02*
X100450Y190274D01*
X98104Y192620D02*
X27016Y192620D01*
X25429Y191032D01*
D16*
X32544Y185738D03*
D18*
X32544Y165100D02*
X27781Y165100D01*
X32544Y165100D02*
X32544Y185738D01*
D19*
X41275Y90488D02*
X39688Y88900D01*
X27781Y88900D01*
D16*
X88459Y155374D03*
D19*
X88586Y152054D02*
X88586Y132108D01*
X72231Y115753D02*
X72231Y91301D01*
X88586Y152054D02*
X88459Y152181D01*
X88459Y155374D01*
X88586Y132108D02*
X72231Y115753D01*
D15*
X71418Y90488D02*
X41275Y90488D01*
X71418Y90488D02*
X71834Y90904D01*
D16*
X71834Y90904D03*
D15*
X72231Y91301D01*
X12867Y44425D02*
X11669Y45623D01*
X11669Y53975D01*
D16*
X110282Y67469D03*
D15*
X110282Y15032D01*
X103188Y7938D01*
X26194Y7938D01*
X23813Y10319D01*
X23813Y42069D02*
X21431Y44450D01*
X12892Y44450D01*
X12867Y44425D01*
X23813Y42069D02*
X23813Y10319D01*
D14*
X100806Y164306D03*
D15*
X100013Y163513D01*
X100013Y107950D01*
X93118Y101056D01*
X93118Y96044D01*
D14*
X93118Y96044D03*
D16*
X93663Y169863D03*
D15*
X96044Y172244D02*
X103188Y172244D01*
X96044Y172244D02*
X93663Y169863D01*
X103188Y172244D02*
X110331Y165100D01*
D16*
X110331Y110331D03*
D15*
X110331Y165100D01*
X133350Y44550D02*
X142975Y44550D01*
X146844Y48419D01*
X146844Y99219D01*
X142081Y103981D01*
X126206Y103981D01*
D14*
X126206Y103981D03*
D16*
X117475Y138906D03*
D18*
X117475Y174125D01*
X127000Y183650D02*
X133350Y183650D01*
X127000Y183650D02*
X117475Y174125D01*
D16*
X81756Y149225D03*
D17*
X72331Y158650D02*
X50800Y158650D01*
X72331Y158650D02*
X81756Y149225D01*
D14*
X92075Y186531D03*
X89983Y116392D03*
D15*
X87087Y167139D02*
X87087Y181543D01*
X92075Y186531D01*
X87087Y167139D02*
X95035Y159190D01*
X95035Y121444D01*
X89983Y116392D01*
D20*
X112419Y82050D02*
X50800Y82050D01*
X124919Y69550D02*
X133350Y69550D01*
X124919Y69550D02*
X112419Y82050D01*
D16*
X93697Y82016D03*
D18*
X93731Y82050D01*
X112419Y82050D01*
D15*
X38973Y54134D02*
X38973Y45465D01*
X37933Y44425D01*
X38973Y54134D02*
X38973Y65960D01*
X42563Y69550D02*
X50800Y69550D01*
X42563Y69550D02*
X38973Y65960D01*
M02*
