G04 EAGLE Gerber RS-274X export*
G75*
%MOMM*%
%FSLAX34Y34*%
%LPD*%
%IN*%
%IPPOS*%
%AMOC8*
5,1,8,0,0,1.08239X$1,22.5*%
G01*
%ADD10C,0.254000*%


D10*
X0Y0D02*
X60325Y0D01*
X60325Y-38100D01*
X79375Y-57150D01*
X104775Y-57150D01*
X123825Y-38100D01*
X123825Y0D01*
X184150Y0D01*
X184150Y203200D01*
X123825Y203200D01*
X123825Y241300D01*
X104775Y260350D01*
X79375Y260350D01*
X60325Y241300D01*
X60325Y203200D01*
X0Y203200D01*
X0Y0D01*
X113075Y-26035D02*
X112998Y-27301D01*
X112845Y-28561D01*
X112617Y-29810D01*
X112313Y-31042D01*
X111935Y-32253D01*
X111485Y-33440D01*
X110964Y-34597D01*
X110375Y-35721D01*
X109718Y-36807D01*
X108997Y-37852D01*
X108215Y-38851D01*
X107373Y-39801D01*
X106476Y-40698D01*
X105526Y-41540D01*
X104527Y-42322D01*
X103482Y-43043D01*
X102396Y-43700D01*
X101272Y-44289D01*
X100115Y-44810D01*
X98928Y-45260D01*
X97717Y-45638D01*
X96485Y-45942D01*
X95236Y-46170D01*
X93976Y-46323D01*
X92710Y-46400D01*
X91440Y-46400D01*
X90174Y-46323D01*
X88914Y-46170D01*
X87666Y-45942D01*
X86433Y-45638D01*
X85222Y-45260D01*
X84035Y-44810D01*
X82878Y-44289D01*
X81754Y-43700D01*
X80668Y-43043D01*
X79623Y-42322D01*
X78624Y-41540D01*
X77674Y-40698D01*
X76777Y-39801D01*
X75936Y-38851D01*
X75153Y-37852D01*
X74432Y-36807D01*
X73775Y-35721D01*
X73186Y-34597D01*
X72665Y-33440D01*
X72215Y-32253D01*
X71837Y-31042D01*
X71533Y-29810D01*
X71305Y-28561D01*
X71152Y-27301D01*
X71075Y-26035D01*
X71075Y-24765D01*
X71152Y-23499D01*
X71305Y-22239D01*
X71533Y-20991D01*
X71837Y-19758D01*
X72215Y-18547D01*
X72665Y-17360D01*
X73186Y-16203D01*
X73775Y-15079D01*
X74432Y-13993D01*
X75153Y-12948D01*
X75936Y-11949D01*
X76777Y-10999D01*
X77674Y-10102D01*
X78624Y-9261D01*
X79623Y-8478D01*
X80668Y-7757D01*
X81754Y-7100D01*
X82878Y-6511D01*
X84035Y-5990D01*
X85222Y-5540D01*
X86433Y-5162D01*
X87666Y-4858D01*
X88914Y-4630D01*
X90174Y-4477D01*
X91440Y-4400D01*
X92710Y-4400D01*
X93976Y-4477D01*
X95236Y-4630D01*
X96485Y-4858D01*
X97717Y-5162D01*
X98928Y-5540D01*
X100115Y-5990D01*
X101272Y-6511D01*
X102396Y-7100D01*
X103482Y-7757D01*
X104527Y-8478D01*
X105526Y-9261D01*
X106476Y-10102D01*
X107373Y-10999D01*
X108215Y-11949D01*
X108997Y-12948D01*
X109718Y-13993D01*
X110375Y-15079D01*
X110964Y-16203D01*
X111485Y-17360D01*
X111935Y-18547D01*
X112313Y-19758D01*
X112617Y-20991D01*
X112845Y-22239D01*
X112998Y-23499D01*
X113075Y-24765D01*
X113075Y-26035D01*
X113075Y227965D02*
X112998Y226699D01*
X112845Y225439D01*
X112617Y224191D01*
X112313Y222958D01*
X111935Y221747D01*
X111485Y220560D01*
X110964Y219403D01*
X110375Y218279D01*
X109718Y217193D01*
X108997Y216148D01*
X108215Y215149D01*
X107373Y214199D01*
X106476Y213302D01*
X105526Y212461D01*
X104527Y211678D01*
X103482Y210957D01*
X102396Y210300D01*
X101272Y209711D01*
X100115Y209190D01*
X98928Y208740D01*
X97717Y208362D01*
X96485Y208058D01*
X95236Y207830D01*
X93976Y207677D01*
X92710Y207600D01*
X91440Y207600D01*
X90174Y207677D01*
X88914Y207830D01*
X87666Y208058D01*
X86433Y208362D01*
X85222Y208740D01*
X84035Y209190D01*
X82878Y209711D01*
X81754Y210300D01*
X80668Y210957D01*
X79623Y211678D01*
X78624Y212461D01*
X77674Y213302D01*
X76777Y214199D01*
X75936Y215149D01*
X75153Y216148D01*
X74432Y217193D01*
X73775Y218279D01*
X73186Y219403D01*
X72665Y220560D01*
X72215Y221747D01*
X71837Y222958D01*
X71533Y224191D01*
X71305Y225439D01*
X71152Y226699D01*
X71075Y227965D01*
X71075Y229235D01*
X71152Y230501D01*
X71305Y231761D01*
X71533Y233010D01*
X71837Y234242D01*
X72215Y235453D01*
X72665Y236640D01*
X73186Y237797D01*
X73775Y238921D01*
X74432Y240007D01*
X75153Y241052D01*
X75936Y242051D01*
X76777Y243001D01*
X77674Y243898D01*
X78624Y244740D01*
X79623Y245522D01*
X80668Y246243D01*
X81754Y246900D01*
X82878Y247489D01*
X84035Y248010D01*
X85222Y248460D01*
X86433Y248838D01*
X87666Y249142D01*
X88914Y249370D01*
X90174Y249523D01*
X91440Y249600D01*
X92710Y249600D01*
X93976Y249523D01*
X95236Y249370D01*
X96485Y249142D01*
X97717Y248838D01*
X98928Y248460D01*
X100115Y248010D01*
X101272Y247489D01*
X102396Y246900D01*
X103482Y246243D01*
X104527Y245522D01*
X105526Y244740D01*
X106476Y243898D01*
X107373Y243001D01*
X108215Y242051D01*
X108997Y241052D01*
X109718Y240007D01*
X110375Y238921D01*
X110964Y237797D01*
X111485Y236640D01*
X111935Y235453D01*
X112313Y234242D01*
X112617Y233010D01*
X112845Y231761D01*
X112998Y230501D01*
X113075Y229235D01*
X113075Y227965D01*
M02*
