G04 EAGLE Gerber RS-274X export*
G75*
%MOMM*%
%FSLAX34Y34*%
%LPD*%
%INSilkscreen Bottom*%
%IPPOS*%
%AMOC8*
5,1,8,0,0,1.08239X$1,22.5*%
G01*
%ADD10C,0.050800*%
%ADD11C,0.500000*%
%ADD12C,0.120000*%

G36*
X35292Y51225D02*
X35292Y51225D01*
X35343Y51227D01*
X35375Y51245D01*
X35411Y51253D01*
X35451Y51285D01*
X35495Y51310D01*
X35517Y51340D01*
X35545Y51363D01*
X35566Y51410D01*
X35595Y51452D01*
X35603Y51493D01*
X35616Y51521D01*
X35615Y51552D01*
X35623Y51594D01*
X35623Y56674D01*
X35611Y56723D01*
X35609Y56774D01*
X35592Y56807D01*
X35583Y56842D01*
X35551Y56882D01*
X35526Y56927D01*
X35496Y56948D01*
X35473Y56976D01*
X35426Y56997D01*
X35385Y57026D01*
X35343Y57035D01*
X35315Y57047D01*
X35284Y57046D01*
X35243Y57054D01*
X32703Y57054D01*
X32653Y57042D01*
X32602Y57040D01*
X32570Y57023D01*
X32534Y57015D01*
X32494Y56982D01*
X32450Y56958D01*
X32429Y56928D01*
X32400Y56904D01*
X32379Y56858D01*
X32350Y56816D01*
X32342Y56774D01*
X32329Y56746D01*
X32330Y56716D01*
X32322Y56674D01*
X32322Y51594D01*
X32334Y51544D01*
X32336Y51493D01*
X32353Y51461D01*
X32362Y51425D01*
X32394Y51386D01*
X32419Y51341D01*
X32449Y51320D01*
X32472Y51291D01*
X32519Y51270D01*
X32560Y51241D01*
X32602Y51233D01*
X32630Y51220D01*
X32661Y51222D01*
X32703Y51214D01*
X35243Y51214D01*
X35292Y51225D01*
G37*
G36*
X17988Y51066D02*
X17988Y51066D01*
X18039Y51068D01*
X18072Y51086D01*
X18107Y51094D01*
X18147Y51127D01*
X18192Y51151D01*
X18213Y51181D01*
X18241Y51204D01*
X18262Y51251D01*
X18291Y51293D01*
X18300Y51335D01*
X18312Y51363D01*
X18311Y51393D01*
X18319Y51435D01*
X18319Y56515D01*
X18307Y56565D01*
X18305Y56616D01*
X18288Y56648D01*
X18280Y56684D01*
X18247Y56723D01*
X18223Y56768D01*
X18193Y56789D01*
X18169Y56817D01*
X18123Y56838D01*
X18081Y56868D01*
X18039Y56876D01*
X18011Y56888D01*
X17981Y56887D01*
X17939Y56895D01*
X15399Y56895D01*
X15349Y56884D01*
X15298Y56882D01*
X15266Y56864D01*
X15230Y56856D01*
X15191Y56823D01*
X15146Y56799D01*
X15125Y56769D01*
X15096Y56746D01*
X15075Y56699D01*
X15046Y56657D01*
X15038Y56615D01*
X15025Y56587D01*
X15027Y56557D01*
X15019Y56515D01*
X15019Y51435D01*
X15030Y51385D01*
X15032Y51334D01*
X15050Y51302D01*
X15058Y51266D01*
X15090Y51227D01*
X15115Y51182D01*
X15145Y51161D01*
X15168Y51133D01*
X15215Y51112D01*
X15257Y51082D01*
X15298Y51074D01*
X15326Y51062D01*
X15357Y51063D01*
X15399Y51055D01*
X17939Y51055D01*
X17988Y51066D01*
G37*
D10*
X51869Y88279D02*
X48144Y88279D01*
X50006Y86416D02*
X50006Y90142D01*
X59943Y105283D02*
X59873Y105285D01*
X59804Y105291D01*
X59735Y105301D01*
X59667Y105314D01*
X59599Y105332D01*
X59533Y105353D01*
X59468Y105378D01*
X59404Y105406D01*
X59342Y105438D01*
X59282Y105473D01*
X59224Y105512D01*
X59169Y105554D01*
X59115Y105599D01*
X59065Y105647D01*
X59017Y105697D01*
X58972Y105751D01*
X58930Y105806D01*
X58891Y105864D01*
X58856Y105924D01*
X58824Y105986D01*
X58796Y106050D01*
X58771Y106115D01*
X58750Y106181D01*
X58732Y106249D01*
X58719Y106317D01*
X58709Y106386D01*
X58703Y106455D01*
X58701Y106525D01*
X59943Y105283D02*
X60042Y105285D01*
X60140Y105290D01*
X60238Y105300D01*
X60336Y105313D01*
X60433Y105329D01*
X60530Y105349D01*
X60625Y105373D01*
X60720Y105401D01*
X60814Y105432D01*
X60906Y105466D01*
X60997Y105504D01*
X61087Y105545D01*
X61175Y105590D01*
X61261Y105638D01*
X61345Y105689D01*
X61427Y105743D01*
X61508Y105801D01*
X61586Y105861D01*
X61661Y105924D01*
X61735Y105990D01*
X61805Y106059D01*
X61650Y109629D02*
X61648Y109699D01*
X61642Y109768D01*
X61632Y109837D01*
X61619Y109905D01*
X61601Y109973D01*
X61580Y110039D01*
X61555Y110104D01*
X61527Y110168D01*
X61495Y110230D01*
X61460Y110290D01*
X61421Y110348D01*
X61379Y110403D01*
X61334Y110457D01*
X61286Y110507D01*
X61236Y110555D01*
X61182Y110600D01*
X61127Y110642D01*
X61069Y110681D01*
X61009Y110716D01*
X60947Y110748D01*
X60883Y110776D01*
X60818Y110801D01*
X60752Y110822D01*
X60684Y110840D01*
X60616Y110853D01*
X60547Y110863D01*
X60478Y110869D01*
X60408Y110871D01*
X60314Y110869D01*
X60221Y110863D01*
X60128Y110854D01*
X60035Y110841D01*
X59943Y110824D01*
X59852Y110804D01*
X59761Y110779D01*
X59672Y110752D01*
X59584Y110720D01*
X59497Y110685D01*
X59411Y110647D01*
X59328Y110605D01*
X59245Y110560D01*
X59165Y110512D01*
X59087Y110460D01*
X59011Y110405D01*
X61029Y108543D02*
X61088Y108579D01*
X61144Y108619D01*
X61198Y108662D01*
X61250Y108707D01*
X61299Y108756D01*
X61345Y108807D01*
X61388Y108860D01*
X61429Y108916D01*
X61466Y108974D01*
X61501Y109034D01*
X61531Y109095D01*
X61559Y109158D01*
X61583Y109223D01*
X61603Y109289D01*
X61620Y109356D01*
X61633Y109423D01*
X61642Y109491D01*
X61648Y109560D01*
X61650Y109629D01*
X59322Y107611D02*
X59263Y107575D01*
X59207Y107535D01*
X59153Y107492D01*
X59101Y107447D01*
X59052Y107398D01*
X59006Y107347D01*
X58963Y107294D01*
X58922Y107238D01*
X58885Y107180D01*
X58850Y107121D01*
X58820Y107059D01*
X58792Y106996D01*
X58768Y106931D01*
X58748Y106865D01*
X58731Y106798D01*
X58718Y106731D01*
X58709Y106663D01*
X58703Y106594D01*
X58701Y106525D01*
X59322Y107611D02*
X61029Y108543D01*
X56702Y110871D02*
X55460Y105283D01*
X54218Y109008D01*
X52976Y105283D01*
X51735Y110871D01*
X48327Y105283D02*
X47085Y105283D01*
X48327Y105283D02*
X48397Y105285D01*
X48466Y105291D01*
X48535Y105301D01*
X48603Y105314D01*
X48671Y105332D01*
X48737Y105353D01*
X48802Y105378D01*
X48866Y105406D01*
X48928Y105438D01*
X48988Y105473D01*
X49046Y105512D01*
X49101Y105554D01*
X49155Y105599D01*
X49205Y105647D01*
X49253Y105697D01*
X49298Y105751D01*
X49340Y105806D01*
X49379Y105864D01*
X49414Y105924D01*
X49446Y105986D01*
X49474Y106050D01*
X49499Y106115D01*
X49520Y106181D01*
X49538Y106249D01*
X49551Y106317D01*
X49561Y106386D01*
X49567Y106455D01*
X49569Y106525D01*
X49569Y109629D01*
X49567Y109699D01*
X49561Y109768D01*
X49551Y109837D01*
X49538Y109905D01*
X49520Y109973D01*
X49499Y110039D01*
X49474Y110104D01*
X49446Y110168D01*
X49414Y110230D01*
X49379Y110290D01*
X49340Y110348D01*
X49298Y110403D01*
X49253Y110457D01*
X49205Y110507D01*
X49155Y110555D01*
X49101Y110600D01*
X49046Y110642D01*
X48988Y110681D01*
X48928Y110716D01*
X48866Y110748D01*
X48802Y110776D01*
X48737Y110801D01*
X48671Y110822D01*
X48603Y110840D01*
X48535Y110853D01*
X48466Y110863D01*
X48397Y110869D01*
X48327Y110871D01*
X47085Y110871D01*
X60763Y124333D02*
X60693Y124335D01*
X60624Y124341D01*
X60555Y124351D01*
X60487Y124364D01*
X60419Y124382D01*
X60353Y124403D01*
X60288Y124428D01*
X60224Y124456D01*
X60162Y124488D01*
X60102Y124523D01*
X60044Y124562D01*
X59989Y124604D01*
X59935Y124649D01*
X59885Y124697D01*
X59837Y124747D01*
X59792Y124801D01*
X59750Y124856D01*
X59711Y124914D01*
X59676Y124974D01*
X59644Y125036D01*
X59616Y125100D01*
X59591Y125165D01*
X59570Y125231D01*
X59552Y125299D01*
X59539Y125367D01*
X59529Y125436D01*
X59523Y125505D01*
X59521Y125575D01*
X60763Y124333D02*
X60862Y124335D01*
X60960Y124340D01*
X61058Y124350D01*
X61156Y124363D01*
X61253Y124379D01*
X61350Y124399D01*
X61445Y124423D01*
X61540Y124451D01*
X61634Y124482D01*
X61726Y124516D01*
X61817Y124554D01*
X61907Y124595D01*
X61995Y124640D01*
X62081Y124688D01*
X62165Y124739D01*
X62247Y124793D01*
X62328Y124851D01*
X62406Y124911D01*
X62481Y124974D01*
X62555Y125040D01*
X62625Y125109D01*
X62470Y128679D02*
X62468Y128749D01*
X62462Y128818D01*
X62452Y128887D01*
X62439Y128955D01*
X62421Y129023D01*
X62400Y129089D01*
X62375Y129154D01*
X62347Y129218D01*
X62315Y129280D01*
X62280Y129340D01*
X62241Y129398D01*
X62199Y129453D01*
X62154Y129507D01*
X62106Y129557D01*
X62056Y129605D01*
X62002Y129650D01*
X61947Y129692D01*
X61889Y129731D01*
X61829Y129766D01*
X61767Y129798D01*
X61703Y129826D01*
X61638Y129851D01*
X61572Y129872D01*
X61504Y129890D01*
X61436Y129903D01*
X61367Y129913D01*
X61298Y129919D01*
X61228Y129921D01*
X61134Y129919D01*
X61041Y129913D01*
X60948Y129904D01*
X60855Y129891D01*
X60763Y129874D01*
X60672Y129854D01*
X60581Y129829D01*
X60492Y129802D01*
X60404Y129770D01*
X60317Y129735D01*
X60231Y129697D01*
X60148Y129655D01*
X60065Y129610D01*
X59985Y129562D01*
X59907Y129510D01*
X59831Y129455D01*
X61849Y127593D02*
X61908Y127629D01*
X61964Y127669D01*
X62018Y127712D01*
X62070Y127757D01*
X62119Y127806D01*
X62165Y127857D01*
X62208Y127910D01*
X62249Y127966D01*
X62286Y128024D01*
X62321Y128084D01*
X62351Y128145D01*
X62379Y128208D01*
X62403Y128273D01*
X62423Y128339D01*
X62440Y128406D01*
X62453Y128473D01*
X62462Y128541D01*
X62468Y128610D01*
X62470Y128679D01*
X60142Y126661D02*
X60083Y126625D01*
X60027Y126585D01*
X59973Y126542D01*
X59921Y126497D01*
X59872Y126448D01*
X59826Y126397D01*
X59783Y126344D01*
X59742Y126288D01*
X59705Y126230D01*
X59670Y126171D01*
X59640Y126109D01*
X59612Y126046D01*
X59588Y125981D01*
X59568Y125915D01*
X59551Y125848D01*
X59538Y125781D01*
X59529Y125713D01*
X59523Y125644D01*
X59521Y125575D01*
X60142Y126661D02*
X61849Y127593D01*
X57522Y129921D02*
X56280Y124333D01*
X55038Y128058D01*
X53796Y124333D01*
X52555Y129921D01*
X50190Y129921D02*
X50190Y124333D01*
X50190Y129921D02*
X48637Y129921D01*
X48561Y129919D01*
X48485Y129914D01*
X48409Y129904D01*
X48334Y129891D01*
X48260Y129874D01*
X48186Y129854D01*
X48114Y129830D01*
X48043Y129803D01*
X47973Y129772D01*
X47905Y129738D01*
X47839Y129700D01*
X47775Y129659D01*
X47712Y129616D01*
X47652Y129569D01*
X47595Y129519D01*
X47540Y129466D01*
X47487Y129411D01*
X47437Y129354D01*
X47390Y129294D01*
X47347Y129231D01*
X47306Y129167D01*
X47268Y129101D01*
X47234Y129033D01*
X47203Y128963D01*
X47176Y128892D01*
X47152Y128820D01*
X47132Y128746D01*
X47115Y128672D01*
X47102Y128597D01*
X47092Y128521D01*
X47087Y128445D01*
X47085Y128369D01*
X47085Y125885D01*
X47087Y125809D01*
X47092Y125733D01*
X47102Y125657D01*
X47115Y125582D01*
X47132Y125508D01*
X47152Y125434D01*
X47176Y125362D01*
X47203Y125291D01*
X47234Y125221D01*
X47268Y125153D01*
X47306Y125087D01*
X47347Y125023D01*
X47390Y124960D01*
X47437Y124900D01*
X47487Y124843D01*
X47540Y124788D01*
X47595Y124735D01*
X47652Y124685D01*
X47712Y124638D01*
X47775Y124595D01*
X47839Y124554D01*
X47905Y124516D01*
X47973Y124482D01*
X48043Y124451D01*
X48114Y124424D01*
X48186Y124400D01*
X48260Y124380D01*
X48334Y124363D01*
X48409Y124350D01*
X48485Y124340D01*
X48561Y124335D01*
X48637Y124333D01*
X50190Y124333D01*
X51869Y145429D02*
X48144Y145429D01*
X46272Y168910D02*
X60090Y168910D01*
X59836Y167894D02*
X59836Y162306D01*
X59836Y167894D02*
X58284Y167894D01*
X58207Y167892D01*
X58129Y167886D01*
X58053Y167877D01*
X57976Y167863D01*
X57901Y167846D01*
X57827Y167825D01*
X57753Y167800D01*
X57681Y167772D01*
X57611Y167740D01*
X57542Y167705D01*
X57475Y167666D01*
X57410Y167624D01*
X57347Y167579D01*
X57286Y167531D01*
X57228Y167480D01*
X57173Y167426D01*
X57120Y167369D01*
X57071Y167310D01*
X57024Y167248D01*
X56980Y167184D01*
X56940Y167118D01*
X56903Y167050D01*
X56869Y166980D01*
X56839Y166909D01*
X56813Y166836D01*
X56790Y166762D01*
X56771Y166687D01*
X56756Y166612D01*
X56744Y166535D01*
X56736Y166458D01*
X56732Y166381D01*
X56732Y166303D01*
X56736Y166226D01*
X56744Y166149D01*
X56756Y166072D01*
X56771Y165997D01*
X56790Y165922D01*
X56813Y165848D01*
X56839Y165775D01*
X56869Y165704D01*
X56903Y165634D01*
X56940Y165566D01*
X56980Y165500D01*
X57024Y165436D01*
X57071Y165374D01*
X57120Y165315D01*
X57173Y165258D01*
X57228Y165204D01*
X57286Y165153D01*
X57347Y165105D01*
X57410Y165060D01*
X57475Y165018D01*
X57542Y164979D01*
X57611Y164944D01*
X57681Y164912D01*
X57753Y164884D01*
X57827Y164859D01*
X57901Y164838D01*
X57976Y164821D01*
X58053Y164807D01*
X58129Y164798D01*
X58207Y164792D01*
X58284Y164790D01*
X59836Y164790D01*
X57973Y164790D02*
X56732Y162306D01*
X52706Y162306D02*
X52636Y162308D01*
X52567Y162314D01*
X52498Y162324D01*
X52430Y162337D01*
X52362Y162355D01*
X52296Y162376D01*
X52231Y162401D01*
X52167Y162429D01*
X52105Y162461D01*
X52045Y162496D01*
X51987Y162535D01*
X51932Y162577D01*
X51878Y162622D01*
X51828Y162670D01*
X51780Y162720D01*
X51735Y162774D01*
X51693Y162829D01*
X51654Y162887D01*
X51619Y162947D01*
X51587Y163009D01*
X51559Y163073D01*
X51534Y163138D01*
X51513Y163204D01*
X51495Y163272D01*
X51482Y163340D01*
X51472Y163409D01*
X51466Y163478D01*
X51464Y163548D01*
X52706Y162306D02*
X52805Y162308D01*
X52903Y162313D01*
X53001Y162323D01*
X53099Y162336D01*
X53196Y162352D01*
X53293Y162372D01*
X53388Y162396D01*
X53483Y162424D01*
X53577Y162455D01*
X53669Y162489D01*
X53760Y162527D01*
X53850Y162568D01*
X53938Y162613D01*
X54024Y162661D01*
X54108Y162712D01*
X54190Y162766D01*
X54271Y162824D01*
X54349Y162884D01*
X54424Y162947D01*
X54498Y163013D01*
X54568Y163082D01*
X54414Y166652D02*
X54412Y166722D01*
X54406Y166791D01*
X54396Y166860D01*
X54383Y166928D01*
X54365Y166996D01*
X54344Y167062D01*
X54319Y167127D01*
X54291Y167191D01*
X54259Y167253D01*
X54224Y167313D01*
X54185Y167371D01*
X54143Y167426D01*
X54098Y167480D01*
X54050Y167530D01*
X54000Y167578D01*
X53946Y167623D01*
X53891Y167665D01*
X53833Y167704D01*
X53773Y167739D01*
X53711Y167771D01*
X53647Y167799D01*
X53582Y167824D01*
X53516Y167845D01*
X53448Y167863D01*
X53380Y167876D01*
X53311Y167886D01*
X53242Y167892D01*
X53172Y167894D01*
X53078Y167892D01*
X52985Y167886D01*
X52892Y167877D01*
X52799Y167864D01*
X52707Y167847D01*
X52616Y167827D01*
X52525Y167802D01*
X52436Y167775D01*
X52348Y167743D01*
X52261Y167708D01*
X52175Y167670D01*
X52092Y167628D01*
X52009Y167583D01*
X51929Y167535D01*
X51851Y167483D01*
X51775Y167428D01*
X53792Y165566D02*
X53851Y165602D01*
X53907Y165642D01*
X53961Y165685D01*
X54013Y165730D01*
X54062Y165779D01*
X54108Y165830D01*
X54151Y165883D01*
X54192Y165939D01*
X54229Y165997D01*
X54264Y166057D01*
X54294Y166118D01*
X54322Y166181D01*
X54346Y166246D01*
X54366Y166312D01*
X54383Y166379D01*
X54396Y166446D01*
X54405Y166514D01*
X54411Y166583D01*
X54413Y166652D01*
X52085Y164634D02*
X52026Y164598D01*
X51970Y164558D01*
X51916Y164515D01*
X51864Y164470D01*
X51815Y164421D01*
X51769Y164370D01*
X51726Y164317D01*
X51685Y164261D01*
X51648Y164203D01*
X51613Y164144D01*
X51583Y164082D01*
X51555Y164019D01*
X51531Y163954D01*
X51511Y163888D01*
X51494Y163821D01*
X51481Y163754D01*
X51472Y163686D01*
X51466Y163617D01*
X51464Y163548D01*
X52085Y164634D02*
X53793Y165566D01*
X48079Y167894D02*
X48079Y162306D01*
X49631Y167894D02*
X46526Y167894D01*
D11*
X39190Y52866D03*
D12*
X34150Y50966D02*
X16650Y50966D01*
X16650Y18884D02*
X34150Y18884D01*
M02*
