 lib=C:\Cadence\SPB_17.2\tools\PSpice\Library\diode.lib, offset=18135, size=70
 lib=C:\Cadence\SPB_17.2\tools\PSpice\Library\zetex.lib, offset=20624, size=302
 lib=C:\Cadence\SPB_17.2\tools\PSpice\Library\igbt.lib, offset=618, size=250
 lib=C:\Cadence\SPB_17.2\tools\PSpice\Library\diode.lib, offset=13853, size=211
