G04 EAGLE Gerber RS-274X export*
G75*
%MOMM*%
%FSLAX34Y34*%
%LPD*%
%INSolderpaste Top*%
%IPPOS*%
%AMOC8*
5,1,8,0,0,1.08239X$1,22.5*%
G01*
%ADD10R,0.611800X0.511800*%
%ADD11C,0.320000*%
%ADD12R,2.450000X1.700000*%
%ADD13R,1.211800X1.711800*%
%ADD14R,0.511800X0.611800*%
%ADD15R,1.270000X0.800000*%
%ADD16R,0.850000X0.300000*%
%ADD17R,0.300000X0.850000*%
%ADD18R,3.300000X4.900000*%
%ADD19R,0.750000X1.300000*%
%ADD20C,0.270000*%
%ADD21R,2.750000X2.750000*%
%ADD22R,3.500000X4.000000*%
%ADD23R,1.300000X0.750000*%
%ADD24R,0.420000X0.700000*%
%ADD25R,1.208800X0.680200*%
%ADD26R,1.700000X2.500000*%
%ADD27R,0.550000X0.300000*%
%ADD28R,0.350000X0.300000*%
%ADD29R,3.302000X3.810000*%
%ADD30R,1.016000X3.810000*%
%ADD31R,1.058800X0.590000*%
%ADD32R,3.810000X1.016000*%
%ADD33R,3.810000X3.302000*%

G36*
X457840Y919752D02*
X457840Y919752D01*
X457906Y919754D01*
X457949Y919772D01*
X457996Y919780D01*
X458053Y919814D01*
X458113Y919839D01*
X458148Y919870D01*
X458189Y919895D01*
X458231Y919946D01*
X458279Y919990D01*
X458301Y920032D01*
X458330Y920069D01*
X458351Y920131D01*
X458382Y920190D01*
X458390Y920244D01*
X458402Y920281D01*
X458401Y920321D01*
X458409Y920375D01*
X458409Y971375D01*
X458398Y971440D01*
X458396Y971506D01*
X458378Y971549D01*
X458370Y971596D01*
X458336Y971653D01*
X458311Y971713D01*
X458280Y971748D01*
X458255Y971789D01*
X458204Y971831D01*
X458160Y971879D01*
X458118Y971901D01*
X458081Y971930D01*
X458019Y971951D01*
X457960Y971982D01*
X457906Y971990D01*
X457869Y972002D01*
X457829Y972001D01*
X457775Y972009D01*
X450275Y972009D01*
X450210Y971998D01*
X450144Y971996D01*
X450101Y971978D01*
X450054Y971970D01*
X449997Y971936D01*
X449937Y971911D01*
X449902Y971880D01*
X449861Y971855D01*
X449820Y971804D01*
X449771Y971760D01*
X449749Y971718D01*
X449720Y971681D01*
X449699Y971619D01*
X449668Y971560D01*
X449660Y971506D01*
X449648Y971469D01*
X449649Y971429D01*
X449641Y971375D01*
X449641Y959009D01*
X445709Y959009D01*
X445709Y971375D01*
X445698Y971440D01*
X445696Y971506D01*
X445678Y971549D01*
X445670Y971596D01*
X445636Y971653D01*
X445611Y971713D01*
X445580Y971748D01*
X445555Y971789D01*
X445504Y971831D01*
X445460Y971879D01*
X445418Y971901D01*
X445381Y971930D01*
X445319Y971951D01*
X445260Y971982D01*
X445206Y971990D01*
X445169Y972002D01*
X445129Y972001D01*
X445075Y972009D01*
X437575Y972009D01*
X437510Y971998D01*
X437444Y971996D01*
X437401Y971978D01*
X437354Y971970D01*
X437297Y971936D01*
X437237Y971911D01*
X437202Y971880D01*
X437161Y971855D01*
X437120Y971804D01*
X437071Y971760D01*
X437049Y971718D01*
X437020Y971681D01*
X436999Y971619D01*
X436968Y971560D01*
X436960Y971506D01*
X436948Y971469D01*
X436949Y971429D01*
X436941Y971375D01*
X436941Y959009D01*
X425509Y959009D01*
X425509Y971375D01*
X425470Y971596D01*
X425355Y971789D01*
X425181Y971930D01*
X424969Y972002D01*
X424744Y971996D01*
X424537Y971911D01*
X424371Y971760D01*
X424268Y971560D01*
X424241Y971375D01*
X424241Y959009D01*
X420309Y959009D01*
X420309Y971375D01*
X420298Y971440D01*
X420296Y971506D01*
X420278Y971549D01*
X420270Y971596D01*
X420236Y971653D01*
X420211Y971713D01*
X420180Y971748D01*
X420155Y971789D01*
X420104Y971831D01*
X420060Y971879D01*
X420018Y971901D01*
X419981Y971930D01*
X419919Y971951D01*
X419860Y971982D01*
X419806Y971990D01*
X419769Y972002D01*
X419729Y972001D01*
X419675Y972009D01*
X412175Y972009D01*
X412110Y971998D01*
X412044Y971996D01*
X412001Y971978D01*
X411954Y971970D01*
X411897Y971936D01*
X411837Y971911D01*
X411802Y971880D01*
X411761Y971855D01*
X411720Y971804D01*
X411671Y971760D01*
X411649Y971718D01*
X411620Y971681D01*
X411599Y971619D01*
X411568Y971560D01*
X411560Y971506D01*
X411548Y971469D01*
X411549Y971429D01*
X411541Y971375D01*
X411541Y920375D01*
X411552Y920310D01*
X411554Y920244D01*
X411572Y920201D01*
X411580Y920154D01*
X411614Y920097D01*
X411639Y920037D01*
X411670Y920002D01*
X411695Y919961D01*
X411746Y919920D01*
X411790Y919871D01*
X411832Y919849D01*
X411869Y919820D01*
X411931Y919799D01*
X411990Y919768D01*
X412044Y919760D01*
X412081Y919748D01*
X412121Y919749D01*
X412175Y919741D01*
X457775Y919741D01*
X457840Y919752D01*
G37*
G36*
X724540Y919752D02*
X724540Y919752D01*
X724606Y919754D01*
X724649Y919772D01*
X724696Y919780D01*
X724753Y919814D01*
X724813Y919839D01*
X724848Y919870D01*
X724889Y919895D01*
X724931Y919946D01*
X724979Y919990D01*
X725001Y920032D01*
X725030Y920069D01*
X725051Y920131D01*
X725082Y920190D01*
X725090Y920244D01*
X725102Y920281D01*
X725101Y920321D01*
X725109Y920375D01*
X725109Y971375D01*
X725098Y971440D01*
X725096Y971506D01*
X725078Y971549D01*
X725070Y971596D01*
X725036Y971653D01*
X725011Y971713D01*
X724980Y971748D01*
X724955Y971789D01*
X724904Y971831D01*
X724860Y971879D01*
X724818Y971901D01*
X724781Y971930D01*
X724719Y971951D01*
X724660Y971982D01*
X724606Y971990D01*
X724569Y972002D01*
X724529Y972001D01*
X724475Y972009D01*
X716975Y972009D01*
X716910Y971998D01*
X716844Y971996D01*
X716801Y971978D01*
X716754Y971970D01*
X716697Y971936D01*
X716637Y971911D01*
X716602Y971880D01*
X716561Y971855D01*
X716520Y971804D01*
X716471Y971760D01*
X716449Y971718D01*
X716420Y971681D01*
X716399Y971619D01*
X716368Y971560D01*
X716360Y971506D01*
X716348Y971469D01*
X716349Y971429D01*
X716341Y971375D01*
X716341Y959009D01*
X712409Y959009D01*
X712409Y971375D01*
X712398Y971440D01*
X712396Y971506D01*
X712378Y971549D01*
X712370Y971596D01*
X712336Y971653D01*
X712311Y971713D01*
X712280Y971748D01*
X712255Y971789D01*
X712204Y971831D01*
X712160Y971879D01*
X712118Y971901D01*
X712081Y971930D01*
X712019Y971951D01*
X711960Y971982D01*
X711906Y971990D01*
X711869Y972002D01*
X711829Y972001D01*
X711775Y972009D01*
X704275Y972009D01*
X704210Y971998D01*
X704144Y971996D01*
X704101Y971978D01*
X704054Y971970D01*
X703997Y971936D01*
X703937Y971911D01*
X703902Y971880D01*
X703861Y971855D01*
X703820Y971804D01*
X703771Y971760D01*
X703749Y971718D01*
X703720Y971681D01*
X703699Y971619D01*
X703668Y971560D01*
X703660Y971506D01*
X703648Y971469D01*
X703649Y971429D01*
X703641Y971375D01*
X703641Y959009D01*
X692209Y959009D01*
X692209Y971375D01*
X692170Y971596D01*
X692055Y971789D01*
X691881Y971930D01*
X691669Y972002D01*
X691444Y971996D01*
X691237Y971911D01*
X691071Y971760D01*
X690968Y971560D01*
X690941Y971375D01*
X690941Y959009D01*
X687009Y959009D01*
X687009Y971375D01*
X686998Y971440D01*
X686996Y971506D01*
X686978Y971549D01*
X686970Y971596D01*
X686936Y971653D01*
X686911Y971713D01*
X686880Y971748D01*
X686855Y971789D01*
X686804Y971831D01*
X686760Y971879D01*
X686718Y971901D01*
X686681Y971930D01*
X686619Y971951D01*
X686560Y971982D01*
X686506Y971990D01*
X686469Y972002D01*
X686429Y972001D01*
X686375Y972009D01*
X678875Y972009D01*
X678810Y971998D01*
X678744Y971996D01*
X678701Y971978D01*
X678654Y971970D01*
X678597Y971936D01*
X678537Y971911D01*
X678502Y971880D01*
X678461Y971855D01*
X678420Y971804D01*
X678371Y971760D01*
X678349Y971718D01*
X678320Y971681D01*
X678299Y971619D01*
X678268Y971560D01*
X678260Y971506D01*
X678248Y971469D01*
X678249Y971429D01*
X678241Y971375D01*
X678241Y920375D01*
X678252Y920310D01*
X678254Y920244D01*
X678272Y920201D01*
X678280Y920154D01*
X678314Y920097D01*
X678339Y920037D01*
X678370Y920002D01*
X678395Y919961D01*
X678446Y919920D01*
X678490Y919871D01*
X678532Y919849D01*
X678569Y919820D01*
X678631Y919799D01*
X678690Y919768D01*
X678744Y919760D01*
X678781Y919748D01*
X678821Y919749D01*
X678875Y919741D01*
X724475Y919741D01*
X724540Y919752D01*
G37*
G36*
X457840Y799102D02*
X457840Y799102D01*
X457906Y799104D01*
X457949Y799122D01*
X457996Y799130D01*
X458053Y799164D01*
X458113Y799189D01*
X458148Y799220D01*
X458189Y799245D01*
X458231Y799296D01*
X458279Y799340D01*
X458301Y799382D01*
X458330Y799419D01*
X458351Y799481D01*
X458382Y799540D01*
X458390Y799594D01*
X458402Y799631D01*
X458401Y799671D01*
X458409Y799725D01*
X458409Y850725D01*
X458398Y850790D01*
X458396Y850856D01*
X458378Y850899D01*
X458370Y850946D01*
X458336Y851003D01*
X458311Y851063D01*
X458280Y851098D01*
X458255Y851139D01*
X458204Y851181D01*
X458160Y851229D01*
X458118Y851251D01*
X458081Y851280D01*
X458019Y851301D01*
X457960Y851332D01*
X457906Y851340D01*
X457869Y851352D01*
X457829Y851351D01*
X457775Y851359D01*
X450275Y851359D01*
X450210Y851348D01*
X450144Y851346D01*
X450101Y851328D01*
X450054Y851320D01*
X449997Y851286D01*
X449937Y851261D01*
X449902Y851230D01*
X449861Y851205D01*
X449820Y851154D01*
X449771Y851110D01*
X449749Y851068D01*
X449720Y851031D01*
X449699Y850969D01*
X449668Y850910D01*
X449660Y850856D01*
X449648Y850819D01*
X449649Y850779D01*
X449641Y850725D01*
X449641Y838359D01*
X445709Y838359D01*
X445709Y850725D01*
X445698Y850790D01*
X445696Y850856D01*
X445678Y850899D01*
X445670Y850946D01*
X445636Y851003D01*
X445611Y851063D01*
X445580Y851098D01*
X445555Y851139D01*
X445504Y851181D01*
X445460Y851229D01*
X445418Y851251D01*
X445381Y851280D01*
X445319Y851301D01*
X445260Y851332D01*
X445206Y851340D01*
X445169Y851352D01*
X445129Y851351D01*
X445075Y851359D01*
X437575Y851359D01*
X437510Y851348D01*
X437444Y851346D01*
X437401Y851328D01*
X437354Y851320D01*
X437297Y851286D01*
X437237Y851261D01*
X437202Y851230D01*
X437161Y851205D01*
X437120Y851154D01*
X437071Y851110D01*
X437049Y851068D01*
X437020Y851031D01*
X436999Y850969D01*
X436968Y850910D01*
X436960Y850856D01*
X436948Y850819D01*
X436949Y850779D01*
X436941Y850725D01*
X436941Y838359D01*
X425509Y838359D01*
X425509Y850725D01*
X425470Y850946D01*
X425355Y851139D01*
X425181Y851280D01*
X424969Y851352D01*
X424744Y851346D01*
X424537Y851261D01*
X424371Y851110D01*
X424268Y850910D01*
X424241Y850725D01*
X424241Y838359D01*
X420309Y838359D01*
X420309Y850725D01*
X420298Y850790D01*
X420296Y850856D01*
X420278Y850899D01*
X420270Y850946D01*
X420236Y851003D01*
X420211Y851063D01*
X420180Y851098D01*
X420155Y851139D01*
X420104Y851181D01*
X420060Y851229D01*
X420018Y851251D01*
X419981Y851280D01*
X419919Y851301D01*
X419860Y851332D01*
X419806Y851340D01*
X419769Y851352D01*
X419729Y851351D01*
X419675Y851359D01*
X412175Y851359D01*
X412110Y851348D01*
X412044Y851346D01*
X412001Y851328D01*
X411954Y851320D01*
X411897Y851286D01*
X411837Y851261D01*
X411802Y851230D01*
X411761Y851205D01*
X411720Y851154D01*
X411671Y851110D01*
X411649Y851068D01*
X411620Y851031D01*
X411599Y850969D01*
X411568Y850910D01*
X411560Y850856D01*
X411548Y850819D01*
X411549Y850779D01*
X411541Y850725D01*
X411541Y799725D01*
X411552Y799660D01*
X411554Y799594D01*
X411572Y799551D01*
X411580Y799504D01*
X411614Y799447D01*
X411639Y799387D01*
X411670Y799352D01*
X411695Y799311D01*
X411746Y799270D01*
X411790Y799221D01*
X411832Y799199D01*
X411869Y799170D01*
X411931Y799149D01*
X411990Y799118D01*
X412044Y799110D01*
X412081Y799098D01*
X412121Y799099D01*
X412175Y799091D01*
X457775Y799091D01*
X457840Y799102D01*
G37*
G36*
X724540Y799102D02*
X724540Y799102D01*
X724606Y799104D01*
X724649Y799122D01*
X724696Y799130D01*
X724753Y799164D01*
X724813Y799189D01*
X724848Y799220D01*
X724889Y799245D01*
X724931Y799296D01*
X724979Y799340D01*
X725001Y799382D01*
X725030Y799419D01*
X725051Y799481D01*
X725082Y799540D01*
X725090Y799594D01*
X725102Y799631D01*
X725101Y799671D01*
X725109Y799725D01*
X725109Y850725D01*
X725098Y850790D01*
X725096Y850856D01*
X725078Y850899D01*
X725070Y850946D01*
X725036Y851003D01*
X725011Y851063D01*
X724980Y851098D01*
X724955Y851139D01*
X724904Y851181D01*
X724860Y851229D01*
X724818Y851251D01*
X724781Y851280D01*
X724719Y851301D01*
X724660Y851332D01*
X724606Y851340D01*
X724569Y851352D01*
X724529Y851351D01*
X724475Y851359D01*
X716975Y851359D01*
X716910Y851348D01*
X716844Y851346D01*
X716801Y851328D01*
X716754Y851320D01*
X716697Y851286D01*
X716637Y851261D01*
X716602Y851230D01*
X716561Y851205D01*
X716520Y851154D01*
X716471Y851110D01*
X716449Y851068D01*
X716420Y851031D01*
X716399Y850969D01*
X716368Y850910D01*
X716360Y850856D01*
X716348Y850819D01*
X716349Y850779D01*
X716341Y850725D01*
X716341Y838359D01*
X712409Y838359D01*
X712409Y850725D01*
X712398Y850790D01*
X712396Y850856D01*
X712378Y850899D01*
X712370Y850946D01*
X712336Y851003D01*
X712311Y851063D01*
X712280Y851098D01*
X712255Y851139D01*
X712204Y851181D01*
X712160Y851229D01*
X712118Y851251D01*
X712081Y851280D01*
X712019Y851301D01*
X711960Y851332D01*
X711906Y851340D01*
X711869Y851352D01*
X711829Y851351D01*
X711775Y851359D01*
X704275Y851359D01*
X704210Y851348D01*
X704144Y851346D01*
X704101Y851328D01*
X704054Y851320D01*
X703997Y851286D01*
X703937Y851261D01*
X703902Y851230D01*
X703861Y851205D01*
X703820Y851154D01*
X703771Y851110D01*
X703749Y851068D01*
X703720Y851031D01*
X703699Y850969D01*
X703668Y850910D01*
X703660Y850856D01*
X703648Y850819D01*
X703649Y850779D01*
X703641Y850725D01*
X703641Y838359D01*
X692209Y838359D01*
X692209Y850725D01*
X692170Y850946D01*
X692055Y851139D01*
X691881Y851280D01*
X691669Y851352D01*
X691444Y851346D01*
X691237Y851261D01*
X691071Y851110D01*
X690968Y850910D01*
X690941Y850725D01*
X690941Y838359D01*
X687009Y838359D01*
X687009Y850725D01*
X686998Y850790D01*
X686996Y850856D01*
X686978Y850899D01*
X686970Y850946D01*
X686936Y851003D01*
X686911Y851063D01*
X686880Y851098D01*
X686855Y851139D01*
X686804Y851181D01*
X686760Y851229D01*
X686718Y851251D01*
X686681Y851280D01*
X686619Y851301D01*
X686560Y851332D01*
X686506Y851340D01*
X686469Y851352D01*
X686429Y851351D01*
X686375Y851359D01*
X678875Y851359D01*
X678810Y851348D01*
X678744Y851346D01*
X678701Y851328D01*
X678654Y851320D01*
X678597Y851286D01*
X678537Y851261D01*
X678502Y851230D01*
X678461Y851205D01*
X678420Y851154D01*
X678371Y851110D01*
X678349Y851068D01*
X678320Y851031D01*
X678299Y850969D01*
X678268Y850910D01*
X678260Y850856D01*
X678248Y850819D01*
X678249Y850779D01*
X678241Y850725D01*
X678241Y799725D01*
X678252Y799660D01*
X678254Y799594D01*
X678272Y799551D01*
X678280Y799504D01*
X678314Y799447D01*
X678339Y799387D01*
X678370Y799352D01*
X678395Y799311D01*
X678446Y799270D01*
X678490Y799221D01*
X678532Y799199D01*
X678569Y799170D01*
X678631Y799149D01*
X678690Y799118D01*
X678744Y799110D01*
X678781Y799098D01*
X678821Y799099D01*
X678875Y799091D01*
X724475Y799091D01*
X724540Y799102D01*
G37*
G36*
X892065Y732227D02*
X892065Y732227D01*
X892131Y732229D01*
X892174Y732247D01*
X892221Y732255D01*
X892278Y732289D01*
X892338Y732314D01*
X892373Y732345D01*
X892414Y732370D01*
X892456Y732421D01*
X892504Y732465D01*
X892526Y732507D01*
X892555Y732544D01*
X892576Y732606D01*
X892607Y732665D01*
X892615Y732719D01*
X892627Y732756D01*
X892626Y732796D01*
X892634Y732850D01*
X892634Y740350D01*
X892623Y740415D01*
X892621Y740481D01*
X892603Y740524D01*
X892595Y740571D01*
X892561Y740628D01*
X892536Y740688D01*
X892505Y740723D01*
X892480Y740764D01*
X892429Y740806D01*
X892385Y740854D01*
X892343Y740876D01*
X892306Y740905D01*
X892244Y740926D01*
X892185Y740957D01*
X892131Y740965D01*
X892094Y740977D01*
X892054Y740976D01*
X892000Y740984D01*
X879634Y740984D01*
X879634Y744916D01*
X892000Y744916D01*
X892065Y744927D01*
X892131Y744929D01*
X892174Y744947D01*
X892221Y744955D01*
X892278Y744989D01*
X892338Y745014D01*
X892373Y745045D01*
X892414Y745070D01*
X892456Y745121D01*
X892504Y745165D01*
X892526Y745207D01*
X892555Y745244D01*
X892576Y745306D01*
X892607Y745365D01*
X892615Y745419D01*
X892627Y745456D01*
X892626Y745496D01*
X892634Y745550D01*
X892634Y753050D01*
X892623Y753115D01*
X892621Y753181D01*
X892603Y753224D01*
X892595Y753271D01*
X892561Y753328D01*
X892536Y753388D01*
X892505Y753423D01*
X892480Y753464D01*
X892429Y753506D01*
X892385Y753554D01*
X892343Y753576D01*
X892306Y753605D01*
X892244Y753626D01*
X892185Y753657D01*
X892131Y753665D01*
X892094Y753677D01*
X892054Y753676D01*
X892000Y753684D01*
X879634Y753684D01*
X879634Y765116D01*
X892000Y765116D01*
X892221Y765155D01*
X892414Y765270D01*
X892555Y765444D01*
X892627Y765656D01*
X892621Y765881D01*
X892536Y766088D01*
X892385Y766254D01*
X892185Y766357D01*
X892000Y766384D01*
X879634Y766384D01*
X879634Y770316D01*
X892000Y770316D01*
X892065Y770327D01*
X892131Y770329D01*
X892174Y770347D01*
X892221Y770355D01*
X892278Y770389D01*
X892338Y770414D01*
X892373Y770445D01*
X892414Y770470D01*
X892456Y770521D01*
X892504Y770565D01*
X892526Y770607D01*
X892555Y770644D01*
X892576Y770706D01*
X892607Y770765D01*
X892615Y770819D01*
X892627Y770856D01*
X892626Y770896D01*
X892634Y770950D01*
X892634Y778450D01*
X892623Y778515D01*
X892621Y778581D01*
X892603Y778624D01*
X892595Y778671D01*
X892561Y778728D01*
X892536Y778788D01*
X892505Y778823D01*
X892480Y778864D01*
X892429Y778906D01*
X892385Y778954D01*
X892343Y778976D01*
X892306Y779005D01*
X892244Y779026D01*
X892185Y779057D01*
X892131Y779065D01*
X892094Y779077D01*
X892054Y779076D01*
X892000Y779084D01*
X841000Y779084D01*
X840935Y779073D01*
X840869Y779071D01*
X840826Y779053D01*
X840779Y779045D01*
X840722Y779011D01*
X840662Y778986D01*
X840627Y778955D01*
X840586Y778930D01*
X840545Y778879D01*
X840496Y778835D01*
X840474Y778793D01*
X840445Y778756D01*
X840424Y778694D01*
X840393Y778635D01*
X840385Y778581D01*
X840373Y778544D01*
X840374Y778504D01*
X840366Y778450D01*
X840366Y732850D01*
X840377Y732785D01*
X840379Y732719D01*
X840397Y732676D01*
X840405Y732629D01*
X840439Y732572D01*
X840464Y732512D01*
X840495Y732477D01*
X840520Y732436D01*
X840571Y732395D01*
X840615Y732346D01*
X840657Y732324D01*
X840694Y732295D01*
X840756Y732274D01*
X840815Y732243D01*
X840869Y732235D01*
X840906Y732223D01*
X840946Y732224D01*
X841000Y732216D01*
X892000Y732216D01*
X892065Y732227D01*
G37*
G36*
X1000015Y732227D02*
X1000015Y732227D01*
X1000081Y732229D01*
X1000124Y732247D01*
X1000171Y732255D01*
X1000228Y732289D01*
X1000288Y732314D01*
X1000323Y732345D01*
X1000364Y732370D01*
X1000406Y732421D01*
X1000454Y732465D01*
X1000476Y732507D01*
X1000505Y732544D01*
X1000526Y732606D01*
X1000557Y732665D01*
X1000565Y732719D01*
X1000577Y732756D01*
X1000576Y732796D01*
X1000584Y732850D01*
X1000584Y740350D01*
X1000573Y740415D01*
X1000571Y740481D01*
X1000553Y740524D01*
X1000545Y740571D01*
X1000511Y740628D01*
X1000486Y740688D01*
X1000455Y740723D01*
X1000430Y740764D01*
X1000379Y740806D01*
X1000335Y740854D01*
X1000293Y740876D01*
X1000256Y740905D01*
X1000194Y740926D01*
X1000135Y740957D01*
X1000081Y740965D01*
X1000044Y740977D01*
X1000004Y740976D01*
X999950Y740984D01*
X987584Y740984D01*
X987584Y744916D01*
X999950Y744916D01*
X1000015Y744927D01*
X1000081Y744929D01*
X1000124Y744947D01*
X1000171Y744955D01*
X1000228Y744989D01*
X1000288Y745014D01*
X1000323Y745045D01*
X1000364Y745070D01*
X1000406Y745121D01*
X1000454Y745165D01*
X1000476Y745207D01*
X1000505Y745244D01*
X1000526Y745306D01*
X1000557Y745365D01*
X1000565Y745419D01*
X1000577Y745456D01*
X1000576Y745496D01*
X1000584Y745550D01*
X1000584Y753050D01*
X1000573Y753115D01*
X1000571Y753181D01*
X1000553Y753224D01*
X1000545Y753271D01*
X1000511Y753328D01*
X1000486Y753388D01*
X1000455Y753423D01*
X1000430Y753464D01*
X1000379Y753506D01*
X1000335Y753554D01*
X1000293Y753576D01*
X1000256Y753605D01*
X1000194Y753626D01*
X1000135Y753657D01*
X1000081Y753665D01*
X1000044Y753677D01*
X1000004Y753676D01*
X999950Y753684D01*
X987584Y753684D01*
X987584Y765116D01*
X999950Y765116D01*
X1000171Y765155D01*
X1000364Y765270D01*
X1000505Y765444D01*
X1000577Y765656D01*
X1000571Y765881D01*
X1000486Y766088D01*
X1000335Y766254D01*
X1000135Y766357D01*
X999950Y766384D01*
X987584Y766384D01*
X987584Y770316D01*
X999950Y770316D01*
X1000015Y770327D01*
X1000081Y770329D01*
X1000124Y770347D01*
X1000171Y770355D01*
X1000228Y770389D01*
X1000288Y770414D01*
X1000323Y770445D01*
X1000364Y770470D01*
X1000406Y770521D01*
X1000454Y770565D01*
X1000476Y770607D01*
X1000505Y770644D01*
X1000526Y770706D01*
X1000557Y770765D01*
X1000565Y770819D01*
X1000577Y770856D01*
X1000576Y770896D01*
X1000584Y770950D01*
X1000584Y778450D01*
X1000573Y778515D01*
X1000571Y778581D01*
X1000553Y778624D01*
X1000545Y778671D01*
X1000511Y778728D01*
X1000486Y778788D01*
X1000455Y778823D01*
X1000430Y778864D01*
X1000379Y778906D01*
X1000335Y778954D01*
X1000293Y778976D01*
X1000256Y779005D01*
X1000194Y779026D01*
X1000135Y779057D01*
X1000081Y779065D01*
X1000044Y779077D01*
X1000004Y779076D01*
X999950Y779084D01*
X948950Y779084D01*
X948885Y779073D01*
X948819Y779071D01*
X948776Y779053D01*
X948729Y779045D01*
X948672Y779011D01*
X948612Y778986D01*
X948577Y778955D01*
X948536Y778930D01*
X948495Y778879D01*
X948446Y778835D01*
X948424Y778793D01*
X948395Y778756D01*
X948374Y778694D01*
X948343Y778635D01*
X948335Y778581D01*
X948323Y778544D01*
X948324Y778504D01*
X948316Y778450D01*
X948316Y732850D01*
X948327Y732785D01*
X948329Y732719D01*
X948347Y732676D01*
X948355Y732629D01*
X948389Y732572D01*
X948414Y732512D01*
X948445Y732477D01*
X948470Y732436D01*
X948521Y732395D01*
X948565Y732346D01*
X948607Y732324D01*
X948644Y732295D01*
X948706Y732274D01*
X948765Y732243D01*
X948819Y732235D01*
X948856Y732223D01*
X948896Y732224D01*
X948950Y732216D01*
X999950Y732216D01*
X1000015Y732227D01*
G37*
G36*
X1000015Y402027D02*
X1000015Y402027D01*
X1000081Y402029D01*
X1000124Y402047D01*
X1000171Y402055D01*
X1000228Y402089D01*
X1000288Y402114D01*
X1000323Y402145D01*
X1000364Y402170D01*
X1000406Y402221D01*
X1000454Y402265D01*
X1000476Y402307D01*
X1000505Y402344D01*
X1000526Y402406D01*
X1000557Y402465D01*
X1000565Y402519D01*
X1000577Y402556D01*
X1000576Y402596D01*
X1000584Y402650D01*
X1000584Y410150D01*
X1000573Y410215D01*
X1000571Y410281D01*
X1000553Y410324D01*
X1000545Y410371D01*
X1000511Y410428D01*
X1000486Y410488D01*
X1000455Y410523D01*
X1000430Y410564D01*
X1000379Y410606D01*
X1000335Y410654D01*
X1000293Y410676D01*
X1000256Y410705D01*
X1000194Y410726D01*
X1000135Y410757D01*
X1000081Y410765D01*
X1000044Y410777D01*
X1000004Y410776D01*
X999950Y410784D01*
X987584Y410784D01*
X987584Y414716D01*
X999950Y414716D01*
X1000015Y414727D01*
X1000081Y414729D01*
X1000124Y414747D01*
X1000171Y414755D01*
X1000228Y414789D01*
X1000288Y414814D01*
X1000323Y414845D01*
X1000364Y414870D01*
X1000406Y414921D01*
X1000454Y414965D01*
X1000476Y415007D01*
X1000505Y415044D01*
X1000526Y415106D01*
X1000557Y415165D01*
X1000565Y415219D01*
X1000577Y415256D01*
X1000576Y415296D01*
X1000584Y415350D01*
X1000584Y422850D01*
X1000573Y422915D01*
X1000571Y422981D01*
X1000553Y423024D01*
X1000545Y423071D01*
X1000511Y423128D01*
X1000486Y423188D01*
X1000455Y423223D01*
X1000430Y423264D01*
X1000379Y423306D01*
X1000335Y423354D01*
X1000293Y423376D01*
X1000256Y423405D01*
X1000194Y423426D01*
X1000135Y423457D01*
X1000081Y423465D01*
X1000044Y423477D01*
X1000004Y423476D01*
X999950Y423484D01*
X987584Y423484D01*
X987584Y434916D01*
X999950Y434916D01*
X1000171Y434955D01*
X1000364Y435070D01*
X1000505Y435244D01*
X1000577Y435456D01*
X1000571Y435681D01*
X1000486Y435888D01*
X1000335Y436054D01*
X1000135Y436157D01*
X999950Y436184D01*
X987584Y436184D01*
X987584Y440116D01*
X999950Y440116D01*
X1000015Y440127D01*
X1000081Y440129D01*
X1000124Y440147D01*
X1000171Y440155D01*
X1000228Y440189D01*
X1000288Y440214D01*
X1000323Y440245D01*
X1000364Y440270D01*
X1000406Y440321D01*
X1000454Y440365D01*
X1000476Y440407D01*
X1000505Y440444D01*
X1000526Y440506D01*
X1000557Y440565D01*
X1000565Y440619D01*
X1000577Y440656D01*
X1000576Y440696D01*
X1000584Y440750D01*
X1000584Y448250D01*
X1000573Y448315D01*
X1000571Y448381D01*
X1000553Y448424D01*
X1000545Y448471D01*
X1000511Y448528D01*
X1000486Y448588D01*
X1000455Y448623D01*
X1000430Y448664D01*
X1000379Y448706D01*
X1000335Y448754D01*
X1000293Y448776D01*
X1000256Y448805D01*
X1000194Y448826D01*
X1000135Y448857D01*
X1000081Y448865D01*
X1000044Y448877D01*
X1000004Y448876D01*
X999950Y448884D01*
X948950Y448884D01*
X948885Y448873D01*
X948819Y448871D01*
X948776Y448853D01*
X948729Y448845D01*
X948672Y448811D01*
X948612Y448786D01*
X948577Y448755D01*
X948536Y448730D01*
X948495Y448679D01*
X948446Y448635D01*
X948424Y448593D01*
X948395Y448556D01*
X948374Y448494D01*
X948343Y448435D01*
X948335Y448381D01*
X948323Y448344D01*
X948324Y448304D01*
X948316Y448250D01*
X948316Y402650D01*
X948327Y402585D01*
X948329Y402519D01*
X948347Y402476D01*
X948355Y402429D01*
X948389Y402372D01*
X948414Y402312D01*
X948445Y402277D01*
X948470Y402236D01*
X948521Y402195D01*
X948565Y402146D01*
X948607Y402124D01*
X948644Y402095D01*
X948706Y402074D01*
X948765Y402043D01*
X948819Y402035D01*
X948856Y402023D01*
X948896Y402024D01*
X948950Y402016D01*
X999950Y402016D01*
X1000015Y402027D01*
G37*
G36*
X892065Y402027D02*
X892065Y402027D01*
X892131Y402029D01*
X892174Y402047D01*
X892221Y402055D01*
X892278Y402089D01*
X892338Y402114D01*
X892373Y402145D01*
X892414Y402170D01*
X892456Y402221D01*
X892504Y402265D01*
X892526Y402307D01*
X892555Y402344D01*
X892576Y402406D01*
X892607Y402465D01*
X892615Y402519D01*
X892627Y402556D01*
X892626Y402596D01*
X892634Y402650D01*
X892634Y410150D01*
X892623Y410215D01*
X892621Y410281D01*
X892603Y410324D01*
X892595Y410371D01*
X892561Y410428D01*
X892536Y410488D01*
X892505Y410523D01*
X892480Y410564D01*
X892429Y410606D01*
X892385Y410654D01*
X892343Y410676D01*
X892306Y410705D01*
X892244Y410726D01*
X892185Y410757D01*
X892131Y410765D01*
X892094Y410777D01*
X892054Y410776D01*
X892000Y410784D01*
X879634Y410784D01*
X879634Y414716D01*
X892000Y414716D01*
X892065Y414727D01*
X892131Y414729D01*
X892174Y414747D01*
X892221Y414755D01*
X892278Y414789D01*
X892338Y414814D01*
X892373Y414845D01*
X892414Y414870D01*
X892456Y414921D01*
X892504Y414965D01*
X892526Y415007D01*
X892555Y415044D01*
X892576Y415106D01*
X892607Y415165D01*
X892615Y415219D01*
X892627Y415256D01*
X892626Y415296D01*
X892634Y415350D01*
X892634Y422850D01*
X892623Y422915D01*
X892621Y422981D01*
X892603Y423024D01*
X892595Y423071D01*
X892561Y423128D01*
X892536Y423188D01*
X892505Y423223D01*
X892480Y423264D01*
X892429Y423306D01*
X892385Y423354D01*
X892343Y423376D01*
X892306Y423405D01*
X892244Y423426D01*
X892185Y423457D01*
X892131Y423465D01*
X892094Y423477D01*
X892054Y423476D01*
X892000Y423484D01*
X879634Y423484D01*
X879634Y434916D01*
X892000Y434916D01*
X892221Y434955D01*
X892414Y435070D01*
X892555Y435244D01*
X892627Y435456D01*
X892621Y435681D01*
X892536Y435888D01*
X892385Y436054D01*
X892185Y436157D01*
X892000Y436184D01*
X879634Y436184D01*
X879634Y440116D01*
X892000Y440116D01*
X892065Y440127D01*
X892131Y440129D01*
X892174Y440147D01*
X892221Y440155D01*
X892278Y440189D01*
X892338Y440214D01*
X892373Y440245D01*
X892414Y440270D01*
X892456Y440321D01*
X892504Y440365D01*
X892526Y440407D01*
X892555Y440444D01*
X892576Y440506D01*
X892607Y440565D01*
X892615Y440619D01*
X892627Y440656D01*
X892626Y440696D01*
X892634Y440750D01*
X892634Y448250D01*
X892623Y448315D01*
X892621Y448381D01*
X892603Y448424D01*
X892595Y448471D01*
X892561Y448528D01*
X892536Y448588D01*
X892505Y448623D01*
X892480Y448664D01*
X892429Y448706D01*
X892385Y448754D01*
X892343Y448776D01*
X892306Y448805D01*
X892244Y448826D01*
X892185Y448857D01*
X892131Y448865D01*
X892094Y448877D01*
X892054Y448876D01*
X892000Y448884D01*
X841000Y448884D01*
X840935Y448873D01*
X840869Y448871D01*
X840826Y448853D01*
X840779Y448845D01*
X840722Y448811D01*
X840662Y448786D01*
X840627Y448755D01*
X840586Y448730D01*
X840545Y448679D01*
X840496Y448635D01*
X840474Y448593D01*
X840445Y448556D01*
X840424Y448494D01*
X840393Y448435D01*
X840385Y448381D01*
X840373Y448344D01*
X840374Y448304D01*
X840366Y448250D01*
X840366Y402650D01*
X840377Y402585D01*
X840379Y402519D01*
X840397Y402476D01*
X840405Y402429D01*
X840439Y402372D01*
X840464Y402312D01*
X840495Y402277D01*
X840520Y402236D01*
X840571Y402195D01*
X840615Y402146D01*
X840657Y402124D01*
X840694Y402095D01*
X840756Y402074D01*
X840815Y402043D01*
X840869Y402035D01*
X840906Y402023D01*
X840946Y402024D01*
X841000Y402016D01*
X892000Y402016D01*
X892065Y402027D01*
G37*
G36*
X495940Y228152D02*
X495940Y228152D01*
X496006Y228154D01*
X496049Y228172D01*
X496096Y228180D01*
X496153Y228214D01*
X496213Y228239D01*
X496248Y228270D01*
X496289Y228295D01*
X496331Y228346D01*
X496379Y228390D01*
X496401Y228432D01*
X496430Y228469D01*
X496451Y228531D01*
X496482Y228590D01*
X496490Y228644D01*
X496502Y228681D01*
X496501Y228721D01*
X496509Y228775D01*
X496509Y241141D01*
X500441Y241141D01*
X500441Y228775D01*
X500452Y228710D01*
X500454Y228644D01*
X500472Y228601D01*
X500480Y228554D01*
X500514Y228497D01*
X500539Y228437D01*
X500570Y228402D01*
X500595Y228361D01*
X500646Y228320D01*
X500690Y228271D01*
X500732Y228249D01*
X500769Y228220D01*
X500831Y228199D01*
X500890Y228168D01*
X500944Y228160D01*
X500981Y228148D01*
X501021Y228149D01*
X501075Y228141D01*
X508575Y228141D01*
X508640Y228152D01*
X508706Y228154D01*
X508749Y228172D01*
X508796Y228180D01*
X508853Y228214D01*
X508913Y228239D01*
X508948Y228270D01*
X508989Y228295D01*
X509031Y228346D01*
X509079Y228390D01*
X509101Y228432D01*
X509130Y228469D01*
X509151Y228531D01*
X509182Y228590D01*
X509190Y228644D01*
X509202Y228681D01*
X509201Y228721D01*
X509209Y228775D01*
X509209Y241141D01*
X520641Y241141D01*
X520641Y228775D01*
X520680Y228554D01*
X520795Y228361D01*
X520969Y228220D01*
X521181Y228148D01*
X521406Y228154D01*
X521613Y228239D01*
X521779Y228390D01*
X521882Y228590D01*
X521909Y228775D01*
X521909Y241141D01*
X525841Y241141D01*
X525841Y228775D01*
X525852Y228710D01*
X525854Y228644D01*
X525872Y228601D01*
X525880Y228554D01*
X525914Y228497D01*
X525939Y228437D01*
X525970Y228402D01*
X525995Y228361D01*
X526046Y228320D01*
X526090Y228271D01*
X526132Y228249D01*
X526169Y228220D01*
X526231Y228199D01*
X526290Y228168D01*
X526344Y228160D01*
X526381Y228148D01*
X526421Y228149D01*
X526475Y228141D01*
X533975Y228141D01*
X534040Y228152D01*
X534106Y228154D01*
X534149Y228172D01*
X534196Y228180D01*
X534253Y228214D01*
X534313Y228239D01*
X534348Y228270D01*
X534389Y228295D01*
X534431Y228346D01*
X534479Y228390D01*
X534501Y228432D01*
X534530Y228469D01*
X534551Y228531D01*
X534582Y228590D01*
X534590Y228644D01*
X534602Y228681D01*
X534601Y228721D01*
X534609Y228775D01*
X534609Y279775D01*
X534598Y279840D01*
X534596Y279906D01*
X534578Y279949D01*
X534570Y279996D01*
X534536Y280053D01*
X534511Y280113D01*
X534480Y280148D01*
X534455Y280189D01*
X534404Y280231D01*
X534360Y280279D01*
X534318Y280301D01*
X534281Y280330D01*
X534219Y280351D01*
X534160Y280382D01*
X534106Y280390D01*
X534069Y280402D01*
X534029Y280401D01*
X533975Y280409D01*
X488375Y280409D01*
X488310Y280398D01*
X488244Y280396D01*
X488201Y280378D01*
X488154Y280370D01*
X488097Y280336D01*
X488037Y280311D01*
X488002Y280280D01*
X487961Y280255D01*
X487920Y280204D01*
X487871Y280160D01*
X487849Y280118D01*
X487820Y280081D01*
X487799Y280019D01*
X487768Y279960D01*
X487760Y279906D01*
X487748Y279869D01*
X487749Y279829D01*
X487741Y279775D01*
X487741Y228775D01*
X487752Y228710D01*
X487754Y228644D01*
X487772Y228601D01*
X487780Y228554D01*
X487814Y228497D01*
X487839Y228437D01*
X487870Y228402D01*
X487895Y228361D01*
X487946Y228320D01*
X487990Y228271D01*
X488032Y228249D01*
X488069Y228220D01*
X488131Y228199D01*
X488190Y228168D01*
X488244Y228160D01*
X488281Y228148D01*
X488321Y228149D01*
X488375Y228141D01*
X495875Y228141D01*
X495940Y228152D01*
G37*
G36*
X229240Y228152D02*
X229240Y228152D01*
X229306Y228154D01*
X229349Y228172D01*
X229396Y228180D01*
X229453Y228214D01*
X229513Y228239D01*
X229548Y228270D01*
X229589Y228295D01*
X229631Y228346D01*
X229679Y228390D01*
X229701Y228432D01*
X229730Y228469D01*
X229751Y228531D01*
X229782Y228590D01*
X229790Y228644D01*
X229802Y228681D01*
X229801Y228721D01*
X229809Y228775D01*
X229809Y241141D01*
X233741Y241141D01*
X233741Y228775D01*
X233752Y228710D01*
X233754Y228644D01*
X233772Y228601D01*
X233780Y228554D01*
X233814Y228497D01*
X233839Y228437D01*
X233870Y228402D01*
X233895Y228361D01*
X233946Y228320D01*
X233990Y228271D01*
X234032Y228249D01*
X234069Y228220D01*
X234131Y228199D01*
X234190Y228168D01*
X234244Y228160D01*
X234281Y228148D01*
X234321Y228149D01*
X234375Y228141D01*
X241875Y228141D01*
X241940Y228152D01*
X242006Y228154D01*
X242049Y228172D01*
X242096Y228180D01*
X242153Y228214D01*
X242213Y228239D01*
X242248Y228270D01*
X242289Y228295D01*
X242331Y228346D01*
X242379Y228390D01*
X242401Y228432D01*
X242430Y228469D01*
X242451Y228531D01*
X242482Y228590D01*
X242490Y228644D01*
X242502Y228681D01*
X242501Y228721D01*
X242509Y228775D01*
X242509Y241141D01*
X253941Y241141D01*
X253941Y228775D01*
X253980Y228554D01*
X254095Y228361D01*
X254269Y228220D01*
X254481Y228148D01*
X254706Y228154D01*
X254913Y228239D01*
X255079Y228390D01*
X255182Y228590D01*
X255209Y228775D01*
X255209Y241141D01*
X259141Y241141D01*
X259141Y228775D01*
X259152Y228710D01*
X259154Y228644D01*
X259172Y228601D01*
X259180Y228554D01*
X259214Y228497D01*
X259239Y228437D01*
X259270Y228402D01*
X259295Y228361D01*
X259346Y228320D01*
X259390Y228271D01*
X259432Y228249D01*
X259469Y228220D01*
X259531Y228199D01*
X259590Y228168D01*
X259644Y228160D01*
X259681Y228148D01*
X259721Y228149D01*
X259775Y228141D01*
X267275Y228141D01*
X267340Y228152D01*
X267406Y228154D01*
X267449Y228172D01*
X267496Y228180D01*
X267553Y228214D01*
X267613Y228239D01*
X267648Y228270D01*
X267689Y228295D01*
X267731Y228346D01*
X267779Y228390D01*
X267801Y228432D01*
X267830Y228469D01*
X267851Y228531D01*
X267882Y228590D01*
X267890Y228644D01*
X267902Y228681D01*
X267901Y228721D01*
X267909Y228775D01*
X267909Y279775D01*
X267898Y279840D01*
X267896Y279906D01*
X267878Y279949D01*
X267870Y279996D01*
X267836Y280053D01*
X267811Y280113D01*
X267780Y280148D01*
X267755Y280189D01*
X267704Y280231D01*
X267660Y280279D01*
X267618Y280301D01*
X267581Y280330D01*
X267519Y280351D01*
X267460Y280382D01*
X267406Y280390D01*
X267369Y280402D01*
X267329Y280401D01*
X267275Y280409D01*
X221675Y280409D01*
X221610Y280398D01*
X221544Y280396D01*
X221501Y280378D01*
X221454Y280370D01*
X221397Y280336D01*
X221337Y280311D01*
X221302Y280280D01*
X221261Y280255D01*
X221220Y280204D01*
X221171Y280160D01*
X221149Y280118D01*
X221120Y280081D01*
X221099Y280019D01*
X221068Y279960D01*
X221060Y279906D01*
X221048Y279869D01*
X221049Y279829D01*
X221041Y279775D01*
X221041Y228775D01*
X221052Y228710D01*
X221054Y228644D01*
X221072Y228601D01*
X221080Y228554D01*
X221114Y228497D01*
X221139Y228437D01*
X221170Y228402D01*
X221195Y228361D01*
X221246Y228320D01*
X221290Y228271D01*
X221332Y228249D01*
X221369Y228220D01*
X221431Y228199D01*
X221490Y228168D01*
X221544Y228160D01*
X221581Y228148D01*
X221621Y228149D01*
X221675Y228141D01*
X229175Y228141D01*
X229240Y228152D01*
G37*
G36*
X495940Y107502D02*
X495940Y107502D01*
X496006Y107504D01*
X496049Y107522D01*
X496096Y107530D01*
X496153Y107564D01*
X496213Y107589D01*
X496248Y107620D01*
X496289Y107645D01*
X496331Y107696D01*
X496379Y107740D01*
X496401Y107782D01*
X496430Y107819D01*
X496451Y107881D01*
X496482Y107940D01*
X496490Y107994D01*
X496502Y108031D01*
X496501Y108071D01*
X496509Y108125D01*
X496509Y120491D01*
X500441Y120491D01*
X500441Y108125D01*
X500452Y108060D01*
X500454Y107994D01*
X500472Y107951D01*
X500480Y107904D01*
X500514Y107847D01*
X500539Y107787D01*
X500570Y107752D01*
X500595Y107711D01*
X500646Y107670D01*
X500690Y107621D01*
X500732Y107599D01*
X500769Y107570D01*
X500831Y107549D01*
X500890Y107518D01*
X500944Y107510D01*
X500981Y107498D01*
X501021Y107499D01*
X501075Y107491D01*
X508575Y107491D01*
X508640Y107502D01*
X508706Y107504D01*
X508749Y107522D01*
X508796Y107530D01*
X508853Y107564D01*
X508913Y107589D01*
X508948Y107620D01*
X508989Y107645D01*
X509031Y107696D01*
X509079Y107740D01*
X509101Y107782D01*
X509130Y107819D01*
X509151Y107881D01*
X509182Y107940D01*
X509190Y107994D01*
X509202Y108031D01*
X509201Y108071D01*
X509209Y108125D01*
X509209Y120491D01*
X520641Y120491D01*
X520641Y108125D01*
X520680Y107904D01*
X520795Y107711D01*
X520969Y107570D01*
X521181Y107498D01*
X521406Y107504D01*
X521613Y107589D01*
X521779Y107740D01*
X521882Y107940D01*
X521909Y108125D01*
X521909Y120491D01*
X525841Y120491D01*
X525841Y108125D01*
X525852Y108060D01*
X525854Y107994D01*
X525872Y107951D01*
X525880Y107904D01*
X525914Y107847D01*
X525939Y107787D01*
X525970Y107752D01*
X525995Y107711D01*
X526046Y107670D01*
X526090Y107621D01*
X526132Y107599D01*
X526169Y107570D01*
X526231Y107549D01*
X526290Y107518D01*
X526344Y107510D01*
X526381Y107498D01*
X526421Y107499D01*
X526475Y107491D01*
X533975Y107491D01*
X534040Y107502D01*
X534106Y107504D01*
X534149Y107522D01*
X534196Y107530D01*
X534253Y107564D01*
X534313Y107589D01*
X534348Y107620D01*
X534389Y107645D01*
X534431Y107696D01*
X534479Y107740D01*
X534501Y107782D01*
X534530Y107819D01*
X534551Y107881D01*
X534582Y107940D01*
X534590Y107994D01*
X534602Y108031D01*
X534601Y108071D01*
X534609Y108125D01*
X534609Y159125D01*
X534598Y159190D01*
X534596Y159256D01*
X534578Y159299D01*
X534570Y159346D01*
X534536Y159403D01*
X534511Y159463D01*
X534480Y159498D01*
X534455Y159539D01*
X534404Y159581D01*
X534360Y159629D01*
X534318Y159651D01*
X534281Y159680D01*
X534219Y159701D01*
X534160Y159732D01*
X534106Y159740D01*
X534069Y159752D01*
X534029Y159751D01*
X533975Y159759D01*
X488375Y159759D01*
X488310Y159748D01*
X488244Y159746D01*
X488201Y159728D01*
X488154Y159720D01*
X488097Y159686D01*
X488037Y159661D01*
X488002Y159630D01*
X487961Y159605D01*
X487920Y159554D01*
X487871Y159510D01*
X487849Y159468D01*
X487820Y159431D01*
X487799Y159369D01*
X487768Y159310D01*
X487760Y159256D01*
X487748Y159219D01*
X487749Y159179D01*
X487741Y159125D01*
X487741Y108125D01*
X487752Y108060D01*
X487754Y107994D01*
X487772Y107951D01*
X487780Y107904D01*
X487814Y107847D01*
X487839Y107787D01*
X487870Y107752D01*
X487895Y107711D01*
X487946Y107670D01*
X487990Y107621D01*
X488032Y107599D01*
X488069Y107570D01*
X488131Y107549D01*
X488190Y107518D01*
X488244Y107510D01*
X488281Y107498D01*
X488321Y107499D01*
X488375Y107491D01*
X495875Y107491D01*
X495940Y107502D01*
G37*
G36*
X229240Y107502D02*
X229240Y107502D01*
X229306Y107504D01*
X229349Y107522D01*
X229396Y107530D01*
X229453Y107564D01*
X229513Y107589D01*
X229548Y107620D01*
X229589Y107645D01*
X229631Y107696D01*
X229679Y107740D01*
X229701Y107782D01*
X229730Y107819D01*
X229751Y107881D01*
X229782Y107940D01*
X229790Y107994D01*
X229802Y108031D01*
X229801Y108071D01*
X229809Y108125D01*
X229809Y120491D01*
X233741Y120491D01*
X233741Y108125D01*
X233752Y108060D01*
X233754Y107994D01*
X233772Y107951D01*
X233780Y107904D01*
X233814Y107847D01*
X233839Y107787D01*
X233870Y107752D01*
X233895Y107711D01*
X233946Y107670D01*
X233990Y107621D01*
X234032Y107599D01*
X234069Y107570D01*
X234131Y107549D01*
X234190Y107518D01*
X234244Y107510D01*
X234281Y107498D01*
X234321Y107499D01*
X234375Y107491D01*
X241875Y107491D01*
X241940Y107502D01*
X242006Y107504D01*
X242049Y107522D01*
X242096Y107530D01*
X242153Y107564D01*
X242213Y107589D01*
X242248Y107620D01*
X242289Y107645D01*
X242331Y107696D01*
X242379Y107740D01*
X242401Y107782D01*
X242430Y107819D01*
X242451Y107881D01*
X242482Y107940D01*
X242490Y107994D01*
X242502Y108031D01*
X242501Y108071D01*
X242509Y108125D01*
X242509Y120491D01*
X253941Y120491D01*
X253941Y108125D01*
X253980Y107904D01*
X254095Y107711D01*
X254269Y107570D01*
X254481Y107498D01*
X254706Y107504D01*
X254913Y107589D01*
X255079Y107740D01*
X255182Y107940D01*
X255209Y108125D01*
X255209Y120491D01*
X259141Y120491D01*
X259141Y108125D01*
X259152Y108060D01*
X259154Y107994D01*
X259172Y107951D01*
X259180Y107904D01*
X259214Y107847D01*
X259239Y107787D01*
X259270Y107752D01*
X259295Y107711D01*
X259346Y107670D01*
X259390Y107621D01*
X259432Y107599D01*
X259469Y107570D01*
X259531Y107549D01*
X259590Y107518D01*
X259644Y107510D01*
X259681Y107498D01*
X259721Y107499D01*
X259775Y107491D01*
X267275Y107491D01*
X267340Y107502D01*
X267406Y107504D01*
X267449Y107522D01*
X267496Y107530D01*
X267553Y107564D01*
X267613Y107589D01*
X267648Y107620D01*
X267689Y107645D01*
X267731Y107696D01*
X267779Y107740D01*
X267801Y107782D01*
X267830Y107819D01*
X267851Y107881D01*
X267882Y107940D01*
X267890Y107994D01*
X267902Y108031D01*
X267901Y108071D01*
X267909Y108125D01*
X267909Y159125D01*
X267898Y159190D01*
X267896Y159256D01*
X267878Y159299D01*
X267870Y159346D01*
X267836Y159403D01*
X267811Y159463D01*
X267780Y159498D01*
X267755Y159539D01*
X267704Y159581D01*
X267660Y159629D01*
X267618Y159651D01*
X267581Y159680D01*
X267519Y159701D01*
X267460Y159732D01*
X267406Y159740D01*
X267369Y159752D01*
X267329Y159751D01*
X267275Y159759D01*
X221675Y159759D01*
X221610Y159748D01*
X221544Y159746D01*
X221501Y159728D01*
X221454Y159720D01*
X221397Y159686D01*
X221337Y159661D01*
X221302Y159630D01*
X221261Y159605D01*
X221220Y159554D01*
X221171Y159510D01*
X221149Y159468D01*
X221120Y159431D01*
X221099Y159369D01*
X221068Y159310D01*
X221060Y159256D01*
X221048Y159219D01*
X221049Y159179D01*
X221041Y159125D01*
X221041Y108125D01*
X221052Y108060D01*
X221054Y107994D01*
X221072Y107951D01*
X221080Y107904D01*
X221114Y107847D01*
X221139Y107787D01*
X221170Y107752D01*
X221195Y107711D01*
X221246Y107670D01*
X221290Y107621D01*
X221332Y107599D01*
X221369Y107570D01*
X221431Y107549D01*
X221490Y107518D01*
X221544Y107510D01*
X221581Y107498D01*
X221621Y107499D01*
X221675Y107491D01*
X229175Y107491D01*
X229240Y107502D01*
G37*
G36*
X785682Y317050D02*
X785682Y317050D01*
X785685Y317050D01*
X785685Y317052D01*
X785687Y317053D01*
X785687Y319175D01*
X785685Y319177D01*
X785685Y319178D01*
X784625Y320239D01*
X784618Y320239D01*
X783557Y319178D01*
X783557Y319177D01*
X783556Y319176D01*
X783557Y319175D01*
X783556Y319172D01*
X783557Y319172D01*
X783557Y319171D01*
X785678Y317050D01*
X785680Y317050D01*
X785681Y317049D01*
X785682Y317050D01*
G37*
G36*
X784624Y362658D02*
X784624Y362658D01*
X784625Y362658D01*
X785685Y363719D01*
X785685Y363721D01*
X785687Y363723D01*
X785687Y365844D01*
X785686Y365845D01*
X785686Y365847D01*
X785684Y365847D01*
X785682Y365849D01*
X785681Y365847D01*
X785678Y365847D01*
X783557Y363726D01*
X783556Y363719D01*
X783557Y363719D01*
X784618Y362658D01*
X784624Y362658D01*
X784624Y362658D01*
G37*
G36*
X764472Y338263D02*
X764472Y338263D01*
X765533Y339324D01*
X765533Y339330D01*
X765533Y339331D01*
X764472Y340392D01*
X764470Y340392D01*
X764469Y340393D01*
X762347Y340393D01*
X762346Y340392D01*
X762344Y340392D01*
X762344Y340390D01*
X762342Y340389D01*
X762344Y340387D01*
X762344Y340384D01*
X764465Y338263D01*
X764472Y338263D01*
X764472Y338263D01*
G37*
G36*
X809019Y338263D02*
X809019Y338263D01*
X809020Y338263D01*
X811141Y340384D01*
X811141Y340386D01*
X811143Y340387D01*
X811141Y340389D01*
X811142Y340391D01*
X811139Y340391D01*
X811138Y340393D01*
X809016Y340393D01*
X809014Y340391D01*
X809013Y340392D01*
X807952Y339331D01*
X807952Y339324D01*
X809013Y338263D01*
X809019Y338263D01*
X809019Y338263D01*
G37*
G36*
X787804Y317050D02*
X787804Y317050D01*
X787807Y317050D01*
X789928Y319171D01*
X789928Y319174D01*
X789929Y319174D01*
X789928Y319175D01*
X789928Y319178D01*
X788867Y320239D01*
X788861Y320239D01*
X788860Y320239D01*
X787800Y319178D01*
X787799Y319177D01*
X787798Y319176D01*
X787799Y319175D01*
X787798Y319175D01*
X787798Y317053D01*
X787799Y317052D01*
X787799Y317050D01*
X787801Y317050D01*
X787802Y317049D01*
X787804Y317050D01*
G37*
G36*
X811139Y342505D02*
X811139Y342505D01*
X811141Y342505D01*
X811141Y342507D01*
X811143Y342509D01*
X811141Y342510D01*
X811141Y342513D01*
X809020Y344634D01*
X809013Y344635D01*
X809013Y344634D01*
X807952Y343574D01*
X807952Y343567D01*
X807952Y343566D01*
X809013Y342506D01*
X809015Y342506D01*
X809016Y342504D01*
X811138Y342504D01*
X811139Y342505D01*
G37*
G36*
X788867Y362658D02*
X788867Y362658D01*
X789928Y363719D01*
X789928Y363726D01*
X787807Y365847D01*
X787805Y365847D01*
X787804Y365849D01*
X787802Y365848D01*
X787800Y365848D01*
X787800Y365845D01*
X787798Y365844D01*
X787798Y363723D01*
X787800Y363721D01*
X787800Y363719D01*
X788860Y362658D01*
X788867Y362658D01*
X788867Y362658D01*
G37*
G36*
X764470Y342506D02*
X764470Y342506D01*
X764472Y342506D01*
X765533Y343566D01*
X765533Y343573D01*
X765533Y343574D01*
X764472Y344634D01*
X764465Y344635D01*
X764465Y344634D01*
X762344Y342513D01*
X762344Y342511D01*
X762342Y342510D01*
X762343Y342509D01*
X762343Y342506D01*
X762346Y342506D01*
X762347Y342504D01*
X764469Y342504D01*
X764470Y342506D01*
G37*
D10*
X46038Y695563D03*
X46038Y685563D03*
D11*
X22000Y705267D02*
X22000Y710667D01*
X28500Y710667D02*
X28500Y705267D01*
X35000Y705267D02*
X35000Y710667D01*
X41500Y710667D02*
X41500Y705267D01*
X41500Y733959D02*
X41500Y739359D01*
X35000Y739359D02*
X35000Y733959D01*
X28500Y733959D02*
X28500Y739359D01*
X22000Y739359D02*
X22000Y733959D01*
D12*
X31750Y722313D03*
D10*
X17463Y685563D03*
X17463Y695563D03*
X26988Y685563D03*
X26988Y695563D03*
X36513Y695563D03*
X36513Y685563D03*
D13*
X375950Y352425D03*
X347950Y352425D03*
D14*
X360600Y285750D03*
X350600Y285750D03*
D15*
X375450Y306150D03*
X375450Y316150D03*
D16*
X348450Y308650D03*
X348450Y313650D03*
X348450Y318650D03*
X348450Y303650D03*
D17*
X355450Y325650D03*
X360450Y296650D03*
X355450Y296650D03*
X360450Y325650D03*
D18*
X296950Y203200D03*
X426950Y203200D03*
D19*
X238125Y171125D03*
X250825Y171125D03*
X263525Y171125D03*
X225425Y171125D03*
X238125Y114625D03*
X250825Y114625D03*
X263525Y114625D03*
X225425Y114625D03*
X238125Y291775D03*
X250825Y291775D03*
X263525Y291775D03*
X225425Y291775D03*
X238125Y235275D03*
X250825Y235275D03*
X263525Y235275D03*
X225425Y235275D03*
D10*
X279400Y115650D03*
X279400Y125650D03*
D13*
X642650Y352425D03*
X614650Y352425D03*
D14*
X627300Y285750D03*
X617300Y285750D03*
D15*
X642150Y306150D03*
X642150Y316150D03*
D16*
X615150Y308650D03*
X615150Y313650D03*
X615150Y318650D03*
X615150Y303650D03*
D17*
X622150Y325650D03*
X627150Y296650D03*
X622150Y296650D03*
X627150Y325650D03*
D18*
X563650Y203200D03*
X693650Y203200D03*
D19*
X504825Y171125D03*
X517525Y171125D03*
X530225Y171125D03*
X492125Y171125D03*
X504825Y114625D03*
X517525Y114625D03*
X530225Y114625D03*
X492125Y114625D03*
X504825Y291775D03*
X517525Y291775D03*
X530225Y291775D03*
X492125Y291775D03*
X504825Y235275D03*
X517525Y235275D03*
X530225Y235275D03*
X492125Y235275D03*
D10*
X546100Y115650D03*
X546100Y125650D03*
D13*
X303500Y727075D03*
X331500Y727075D03*
D14*
X318850Y793750D03*
X328850Y793750D03*
D15*
X304000Y773350D03*
X304000Y763350D03*
D16*
X331000Y770850D03*
X331000Y765850D03*
X331000Y760850D03*
X331000Y775850D03*
D17*
X324000Y753850D03*
X319000Y782850D03*
X324000Y782850D03*
X319000Y753850D03*
D18*
X382500Y876300D03*
X252500Y876300D03*
D19*
X441325Y908375D03*
X428625Y908375D03*
X415925Y908375D03*
X454025Y908375D03*
X441325Y964875D03*
X428625Y964875D03*
X415925Y964875D03*
X454025Y964875D03*
X441325Y787725D03*
X428625Y787725D03*
X415925Y787725D03*
X454025Y787725D03*
X441325Y844225D03*
X428625Y844225D03*
X415925Y844225D03*
X454025Y844225D03*
D10*
X400050Y963850D03*
X400050Y953850D03*
D13*
X570200Y727075D03*
X598200Y727075D03*
D14*
X585550Y793750D03*
X595550Y793750D03*
D15*
X570700Y773350D03*
X570700Y763350D03*
D16*
X597700Y770850D03*
X597700Y765850D03*
X597700Y760850D03*
X597700Y775850D03*
D17*
X590700Y753850D03*
X585700Y782850D03*
X590700Y782850D03*
X585700Y753850D03*
D18*
X649200Y876300D03*
X519200Y876300D03*
D19*
X708025Y908375D03*
X695325Y908375D03*
X682625Y908375D03*
X720725Y908375D03*
X708025Y964875D03*
X695325Y964875D03*
X682625Y964875D03*
X720725Y964875D03*
X708025Y787725D03*
X695325Y787725D03*
X682625Y787725D03*
X720725Y787725D03*
X708025Y844225D03*
X695325Y844225D03*
X682625Y844225D03*
X720725Y844225D03*
D10*
X666750Y963850D03*
X666750Y953850D03*
D14*
X963850Y692150D03*
X953850Y692150D03*
D10*
X946150Y500300D03*
X946150Y490300D03*
D13*
X709900Y539750D03*
X737900Y539750D03*
X709900Y514350D03*
X737900Y514350D03*
D10*
X977900Y568088D03*
X977900Y578088D03*
D14*
X950675Y590550D03*
X960675Y590550D03*
X995600Y714375D03*
X985600Y714375D03*
D10*
X1003300Y680800D03*
X1003300Y690800D03*
D13*
X709900Y666750D03*
X737900Y666750D03*
X709900Y641350D03*
X737900Y641350D03*
D14*
X985600Y488950D03*
X995600Y488950D03*
D10*
X977900Y613013D03*
X977900Y603013D03*
D14*
X995600Y467519D03*
X985600Y467519D03*
D20*
X961268Y664050D02*
X955840Y664050D01*
X955840Y659050D02*
X961268Y659050D01*
X961268Y654050D02*
X955840Y654050D01*
X955840Y649050D02*
X961268Y649050D01*
X961268Y644050D02*
X955840Y644050D01*
X967900Y637418D02*
X967900Y631990D01*
X972900Y631990D02*
X972900Y637418D01*
X977900Y637418D02*
X977900Y631990D01*
X982900Y631990D02*
X982900Y637418D01*
X987900Y637418D02*
X987900Y631990D01*
X994532Y644050D02*
X999960Y644050D01*
X999960Y649050D02*
X994532Y649050D01*
X994532Y654050D02*
X999960Y654050D01*
X999960Y659050D02*
X994532Y659050D01*
X994532Y664050D02*
X999960Y664050D01*
X987900Y670682D02*
X987900Y676110D01*
X982900Y676110D02*
X982900Y670682D01*
X977900Y670682D02*
X977900Y676110D01*
X972900Y676110D02*
X972900Y670682D01*
X967900Y670682D02*
X967900Y676110D01*
D21*
X977900Y654050D03*
D20*
X994532Y517050D02*
X999960Y517050D01*
X999960Y522050D02*
X994532Y522050D01*
X994532Y527050D02*
X999960Y527050D01*
X999960Y532050D02*
X994532Y532050D01*
X994532Y537050D02*
X999960Y537050D01*
X987900Y543682D02*
X987900Y549110D01*
X982900Y549110D02*
X982900Y543682D01*
X977900Y543682D02*
X977900Y549110D01*
X972900Y549110D02*
X972900Y543682D01*
X967900Y543682D02*
X967900Y549110D01*
X961268Y537050D02*
X955840Y537050D01*
X955840Y532050D02*
X961268Y532050D01*
X961268Y527050D02*
X955840Y527050D01*
X955840Y522050D02*
X961268Y522050D01*
X961268Y517050D02*
X955840Y517050D01*
X967900Y510418D02*
X967900Y504990D01*
X972900Y504990D02*
X972900Y510418D01*
X977900Y510418D02*
X977900Y504990D01*
X982900Y504990D02*
X982900Y510418D01*
X987900Y510418D02*
X987900Y504990D01*
D21*
X977900Y527050D03*
D22*
X816100Y654050D03*
X911100Y654050D03*
X816100Y527050D03*
X911100Y527050D03*
D23*
X829000Y749300D03*
X829000Y762000D03*
X829000Y774700D03*
X829000Y736600D03*
X885500Y749300D03*
X885500Y762000D03*
X885500Y774700D03*
X885500Y736600D03*
X936950Y749300D03*
X936950Y762000D03*
X936950Y774700D03*
X936950Y736600D03*
X993450Y749300D03*
X993450Y762000D03*
X993450Y774700D03*
X993450Y736600D03*
X829000Y419100D03*
X829000Y431800D03*
X829000Y444500D03*
X829000Y406400D03*
X885500Y419100D03*
X885500Y431800D03*
X885500Y444500D03*
X885500Y406400D03*
X936950Y419100D03*
X936950Y431800D03*
X936950Y444500D03*
X936950Y406400D03*
X993450Y419100D03*
X993450Y431800D03*
X993450Y444500D03*
X993450Y406400D03*
D14*
X995600Y704850D03*
X985600Y704850D03*
X985600Y692150D03*
X995600Y692150D03*
D10*
X958850Y613013D03*
X958850Y603013D03*
X939800Y658575D03*
X939800Y668575D03*
X939800Y639525D03*
X939800Y649525D03*
D14*
X995600Y476250D03*
X985600Y476250D03*
X963850Y488950D03*
X953850Y488950D03*
D10*
X958850Y568088D03*
X958850Y578088D03*
D24*
X850825Y80088D03*
X857325Y80088D03*
X863825Y80088D03*
X844325Y80088D03*
X850825Y50088D03*
X857325Y50088D03*
X863825Y50088D03*
X844325Y50088D03*
D10*
X828675Y80406D03*
X828675Y70406D03*
D14*
X29925Y750888D03*
X39925Y750888D03*
D25*
G36*
X725975Y218470D02*
X717429Y209924D01*
X712619Y214734D01*
X721165Y223280D01*
X725975Y218470D01*
G37*
G36*
X732692Y211752D02*
X724146Y203206D01*
X719336Y208016D01*
X727882Y216562D01*
X732692Y211752D01*
G37*
G36*
X739410Y205035D02*
X730864Y196489D01*
X726054Y201299D01*
X734600Y209845D01*
X739410Y205035D01*
G37*
G36*
X757134Y222759D02*
X748588Y214213D01*
X743778Y219023D01*
X752324Y227569D01*
X757134Y222759D01*
G37*
G36*
X743699Y236194D02*
X735153Y227648D01*
X730343Y232458D01*
X738889Y241004D01*
X743699Y236194D01*
G37*
X719305Y388119D03*
X719305Y378619D03*
X719305Y369119D03*
X744371Y369119D03*
X744371Y388119D03*
D14*
X728900Y355600D03*
X718900Y355600D03*
D10*
X759619Y397906D03*
X759619Y387906D03*
D14*
G36*
X730358Y240258D02*
X726739Y236639D01*
X722414Y240964D01*
X726033Y244583D01*
X730358Y240258D01*
G37*
G36*
X737429Y247329D02*
X733810Y243710D01*
X729485Y248035D01*
X733104Y251654D01*
X737429Y247329D01*
G37*
G36*
X717975Y236389D02*
X721594Y240008D01*
X725919Y235683D01*
X722300Y232064D01*
X717975Y236389D01*
G37*
G36*
X710904Y229318D02*
X714523Y232937D01*
X718848Y228612D01*
X715229Y224993D01*
X710904Y229318D01*
G37*
G36*
X759744Y324002D02*
X763363Y327621D01*
X767688Y323296D01*
X764069Y319677D01*
X759744Y324002D01*
G37*
G36*
X752672Y316931D02*
X756291Y320550D01*
X760616Y316225D01*
X756997Y312606D01*
X752672Y316931D01*
G37*
G36*
X741652Y299095D02*
X745271Y302714D01*
X749596Y298389D01*
X745977Y294770D01*
X741652Y299095D01*
G37*
G36*
X734581Y292024D02*
X738200Y295643D01*
X742525Y291318D01*
X738906Y287699D01*
X734581Y292024D01*
G37*
G36*
X729660Y278919D02*
X726041Y275300D01*
X721716Y279625D01*
X725335Y283244D01*
X729660Y278919D01*
G37*
G36*
X736731Y285990D02*
X733112Y282371D01*
X728787Y286696D01*
X732406Y290315D01*
X736731Y285990D01*
G37*
G36*
X813004Y363056D02*
X809385Y359437D01*
X805060Y363762D01*
X808679Y367381D01*
X813004Y363056D01*
G37*
G36*
X820075Y370128D02*
X816456Y366509D01*
X812131Y370834D01*
X815750Y374453D01*
X820075Y370128D01*
G37*
D11*
X769348Y279967D02*
X765880Y276499D01*
X761284Y281095D02*
X764752Y284563D01*
X760156Y289159D02*
X756688Y285691D01*
X752091Y290288D02*
X755559Y293756D01*
X735045Y273241D02*
X731577Y269773D01*
X736173Y265177D02*
X739641Y268645D01*
X744237Y264049D02*
X740769Y260581D01*
X745365Y255984D02*
X748833Y259452D01*
D26*
G36*
X735613Y277698D02*
X747634Y289719D01*
X765311Y272042D01*
X753290Y260021D01*
X735613Y277698D01*
G37*
D27*
G36*
X774367Y351702D02*
X770479Y355590D01*
X772601Y357712D01*
X776489Y353824D01*
X774367Y351702D01*
G37*
G36*
X777903Y355237D02*
X774015Y359125D01*
X776137Y361247D01*
X780025Y357359D01*
X777903Y355237D01*
G37*
G36*
X781438Y358773D02*
X777550Y362661D01*
X779672Y364783D01*
X783560Y360895D01*
X781438Y358773D01*
G37*
G36*
X770832Y348166D02*
X766944Y352054D01*
X769066Y354176D01*
X772954Y350288D01*
X770832Y348166D01*
G37*
G36*
X767296Y344631D02*
X763408Y348519D01*
X765530Y350641D01*
X769418Y346753D01*
X767296Y344631D01*
G37*
D28*
G36*
X783560Y363723D02*
X781086Y366197D01*
X783208Y368319D01*
X785682Y365845D01*
X783560Y363723D01*
G37*
G36*
X762346Y342509D02*
X759872Y344983D01*
X761994Y347105D01*
X764468Y344631D01*
X762346Y342509D01*
G37*
G36*
X787803Y365845D02*
X790277Y368319D01*
X792399Y366197D01*
X789925Y363723D01*
X787803Y365845D01*
G37*
D27*
G36*
X789925Y360895D02*
X793813Y364783D01*
X795935Y362661D01*
X792047Y358773D01*
X789925Y360895D01*
G37*
G36*
X793460Y357359D02*
X797348Y361247D01*
X799470Y359125D01*
X795582Y355237D01*
X793460Y357359D01*
G37*
G36*
X796996Y353824D02*
X800884Y357712D01*
X803006Y355590D01*
X799118Y351702D01*
X796996Y353824D01*
G37*
G36*
X800531Y350288D02*
X804419Y354176D01*
X806541Y352054D01*
X802653Y348166D01*
X800531Y350288D01*
G37*
G36*
X804067Y346753D02*
X807955Y350641D01*
X810077Y348519D01*
X806189Y344631D01*
X804067Y346753D01*
G37*
D28*
G36*
X809016Y344631D02*
X811490Y347105D01*
X813612Y344983D01*
X811138Y342509D01*
X809016Y344631D01*
G37*
G36*
X811490Y335792D02*
X809016Y338266D01*
X811138Y340388D01*
X813612Y337914D01*
X811490Y335792D01*
G37*
D27*
G36*
X807955Y332256D02*
X804067Y336144D01*
X806189Y338266D01*
X810077Y334378D01*
X807955Y332256D01*
G37*
G36*
X804419Y328721D02*
X800531Y332609D01*
X802653Y334731D01*
X806541Y330843D01*
X804419Y328721D01*
G37*
G36*
X800884Y325185D02*
X796996Y329073D01*
X799118Y331195D01*
X803006Y327307D01*
X800884Y325185D01*
G37*
G36*
X797348Y321650D02*
X793460Y325538D01*
X795582Y327660D01*
X799470Y323772D01*
X797348Y321650D01*
G37*
G36*
X793813Y318114D02*
X789925Y322002D01*
X792047Y324124D01*
X795935Y320236D01*
X793813Y318114D01*
G37*
D28*
G36*
X790277Y314579D02*
X787803Y317053D01*
X789925Y319175D01*
X792399Y316701D01*
X790277Y314579D01*
G37*
G36*
X785682Y317053D02*
X783208Y314579D01*
X781086Y316701D01*
X783560Y319175D01*
X785682Y317053D01*
G37*
D27*
G36*
X783560Y322002D02*
X779672Y318114D01*
X777550Y320236D01*
X781438Y324124D01*
X783560Y322002D01*
G37*
G36*
X780025Y325538D02*
X776137Y321650D01*
X774015Y323772D01*
X777903Y327660D01*
X780025Y325538D01*
G37*
G36*
X776489Y329073D02*
X772601Y325185D01*
X770479Y327307D01*
X774367Y331195D01*
X776489Y329073D01*
G37*
G36*
X772954Y332609D02*
X769066Y328721D01*
X766944Y330843D01*
X770832Y334731D01*
X772954Y332609D01*
G37*
G36*
X769418Y336144D02*
X765530Y332256D01*
X763408Y334378D01*
X767296Y338266D01*
X769418Y336144D01*
G37*
D28*
G36*
X764468Y338266D02*
X761994Y335792D01*
X759872Y337914D01*
X762346Y340388D01*
X764468Y338266D01*
G37*
D29*
X930275Y25400D03*
X854075Y25400D03*
D30*
X901700Y25400D03*
X882650Y25400D03*
D24*
X165175Y810500D03*
X158675Y810500D03*
X152175Y810500D03*
X171675Y810500D03*
X165175Y840500D03*
X158675Y840500D03*
X152175Y840500D03*
X171675Y840500D03*
D14*
X182800Y801688D03*
X172800Y801688D03*
D31*
X210808Y807269D03*
X210808Y826269D03*
X189242Y816769D03*
D10*
X226219Y807006D03*
X226219Y817006D03*
D32*
X25400Y533400D03*
D33*
X25400Y508000D03*
X25400Y558800D03*
D29*
X931069Y83741D03*
X892969Y83741D03*
M02*
