G04 EAGLE Gerber RS-274X export*
G75*
%MOMM*%
%FSLAX34Y34*%
%LPD*%
%INMilling*%
%IPPOS*%
%AMOC8*
5,1,8,0,0,1.08239X$1,22.5*%
G01*
%ADD10C,0.200000*%


D10*
X474088Y481350D02*
X474088Y451350D01*
X474088Y481350D02*
X474091Y481594D01*
X474100Y481837D01*
X474115Y482080D01*
X474135Y482323D01*
X474162Y482565D01*
X474195Y482806D01*
X474233Y483046D01*
X474277Y483286D01*
X474327Y483524D01*
X474383Y483761D01*
X474445Y483997D01*
X474512Y484231D01*
X474585Y484463D01*
X474664Y484694D01*
X474748Y484922D01*
X474838Y485149D01*
X474933Y485373D01*
X475034Y485595D01*
X475140Y485814D01*
X475251Y486030D01*
X475368Y486244D01*
X475489Y486455D01*
X475616Y486663D01*
X475748Y486868D01*
X475885Y487069D01*
X476027Y487267D01*
X476173Y487462D01*
X476324Y487653D01*
X476480Y487840D01*
X476640Y488023D01*
X476805Y488203D01*
X476974Y488378D01*
X477147Y488549D01*
X477325Y488716D01*
X477506Y488878D01*
X477691Y489036D01*
X477880Y489190D01*
X478073Y489339D01*
X478269Y489483D01*
X478469Y489622D01*
X478672Y489757D01*
X478879Y489886D01*
X479088Y490010D01*
X479300Y490129D01*
X479516Y490243D01*
X479733Y490352D01*
X479954Y490455D01*
X480177Y490553D01*
X480402Y490646D01*
X480630Y490733D01*
X480859Y490814D01*
X481091Y490890D01*
X481324Y490960D01*
X481559Y491025D01*
X481795Y491084D01*
X482033Y491137D01*
X482272Y491184D01*
X482512Y491225D01*
X482753Y491260D01*
X482994Y491290D01*
X483237Y491314D01*
X483480Y491331D01*
X483723Y491343D01*
X483966Y491349D01*
X484210Y491349D01*
X484453Y491343D01*
X484696Y491331D01*
X484939Y491314D01*
X485182Y491290D01*
X485423Y491260D01*
X485664Y491225D01*
X485904Y491184D01*
X486143Y491137D01*
X486381Y491084D01*
X486617Y491025D01*
X486852Y490960D01*
X487085Y490890D01*
X487317Y490814D01*
X487546Y490733D01*
X487774Y490646D01*
X487999Y490553D01*
X488222Y490455D01*
X488443Y490352D01*
X488660Y490243D01*
X488876Y490129D01*
X489088Y490010D01*
X489297Y489886D01*
X489504Y489757D01*
X489707Y489622D01*
X489907Y489483D01*
X490103Y489339D01*
X490296Y489190D01*
X490485Y489036D01*
X490670Y488878D01*
X490851Y488716D01*
X491029Y488549D01*
X491202Y488378D01*
X491371Y488203D01*
X491536Y488023D01*
X491696Y487840D01*
X491852Y487653D01*
X492003Y487462D01*
X492149Y487267D01*
X492291Y487069D01*
X492428Y486868D01*
X492560Y486663D01*
X492687Y486455D01*
X492808Y486244D01*
X492925Y486030D01*
X493036Y485814D01*
X493142Y485595D01*
X493243Y485373D01*
X493338Y485149D01*
X493428Y484922D01*
X493512Y484694D01*
X493591Y484463D01*
X493664Y484231D01*
X493731Y483997D01*
X493793Y483761D01*
X493849Y483524D01*
X493899Y483286D01*
X493943Y483046D01*
X493981Y482806D01*
X494014Y482565D01*
X494041Y482323D01*
X494061Y482080D01*
X494076Y481837D01*
X494085Y481594D01*
X494088Y481350D01*
X494088Y451350D01*
X494085Y451106D01*
X494076Y450863D01*
X494061Y450620D01*
X494041Y450377D01*
X494014Y450135D01*
X493981Y449894D01*
X493943Y449654D01*
X493899Y449414D01*
X493849Y449176D01*
X493793Y448939D01*
X493731Y448703D01*
X493664Y448469D01*
X493591Y448237D01*
X493512Y448006D01*
X493428Y447778D01*
X493338Y447551D01*
X493243Y447327D01*
X493142Y447105D01*
X493036Y446886D01*
X492925Y446670D01*
X492808Y446456D01*
X492687Y446245D01*
X492560Y446037D01*
X492428Y445832D01*
X492291Y445631D01*
X492149Y445433D01*
X492003Y445238D01*
X491852Y445047D01*
X491696Y444860D01*
X491536Y444677D01*
X491371Y444497D01*
X491202Y444322D01*
X491029Y444151D01*
X490851Y443984D01*
X490670Y443822D01*
X490485Y443664D01*
X490296Y443510D01*
X490103Y443361D01*
X489907Y443217D01*
X489707Y443078D01*
X489504Y442943D01*
X489297Y442814D01*
X489088Y442690D01*
X488876Y442571D01*
X488660Y442457D01*
X488443Y442348D01*
X488222Y442245D01*
X487999Y442147D01*
X487774Y442054D01*
X487546Y441967D01*
X487317Y441886D01*
X487085Y441810D01*
X486852Y441740D01*
X486617Y441675D01*
X486381Y441616D01*
X486143Y441563D01*
X485904Y441516D01*
X485664Y441475D01*
X485423Y441440D01*
X485182Y441410D01*
X484939Y441386D01*
X484696Y441369D01*
X484453Y441357D01*
X484210Y441351D01*
X483966Y441351D01*
X483723Y441357D01*
X483480Y441369D01*
X483237Y441386D01*
X482994Y441410D01*
X482753Y441440D01*
X482512Y441475D01*
X482272Y441516D01*
X482033Y441563D01*
X481795Y441616D01*
X481559Y441675D01*
X481324Y441740D01*
X481091Y441810D01*
X480859Y441886D01*
X480630Y441967D01*
X480402Y442054D01*
X480177Y442147D01*
X479954Y442245D01*
X479733Y442348D01*
X479516Y442457D01*
X479300Y442571D01*
X479088Y442690D01*
X478879Y442814D01*
X478672Y442943D01*
X478469Y443078D01*
X478269Y443217D01*
X478073Y443361D01*
X477880Y443510D01*
X477691Y443664D01*
X477506Y443822D01*
X477325Y443984D01*
X477147Y444151D01*
X476974Y444322D01*
X476805Y444497D01*
X476640Y444677D01*
X476480Y444860D01*
X476324Y445047D01*
X476173Y445238D01*
X476027Y445433D01*
X475885Y445631D01*
X475748Y445832D01*
X475616Y446037D01*
X475489Y446245D01*
X475368Y446456D01*
X475251Y446670D01*
X475140Y446886D01*
X475034Y447105D01*
X474933Y447327D01*
X474838Y447551D01*
X474748Y447778D01*
X474664Y448006D01*
X474585Y448237D01*
X474512Y448469D01*
X474445Y448703D01*
X474383Y448939D01*
X474327Y449176D01*
X474277Y449414D01*
X474233Y449654D01*
X474195Y449894D01*
X474162Y450135D01*
X474135Y450377D01*
X474115Y450620D01*
X474100Y450863D01*
X474091Y451106D01*
X474088Y451350D01*
X636588Y451350D02*
X636588Y481350D01*
X636591Y481594D01*
X636600Y481837D01*
X636615Y482080D01*
X636635Y482323D01*
X636662Y482565D01*
X636695Y482806D01*
X636733Y483046D01*
X636777Y483286D01*
X636827Y483524D01*
X636883Y483761D01*
X636945Y483997D01*
X637012Y484231D01*
X637085Y484463D01*
X637164Y484694D01*
X637248Y484922D01*
X637338Y485149D01*
X637433Y485373D01*
X637534Y485595D01*
X637640Y485814D01*
X637751Y486030D01*
X637868Y486244D01*
X637989Y486455D01*
X638116Y486663D01*
X638248Y486868D01*
X638385Y487069D01*
X638527Y487267D01*
X638673Y487462D01*
X638824Y487653D01*
X638980Y487840D01*
X639140Y488023D01*
X639305Y488203D01*
X639474Y488378D01*
X639647Y488549D01*
X639825Y488716D01*
X640006Y488878D01*
X640191Y489036D01*
X640380Y489190D01*
X640573Y489339D01*
X640769Y489483D01*
X640969Y489622D01*
X641172Y489757D01*
X641379Y489886D01*
X641588Y490010D01*
X641800Y490129D01*
X642016Y490243D01*
X642233Y490352D01*
X642454Y490455D01*
X642677Y490553D01*
X642902Y490646D01*
X643130Y490733D01*
X643359Y490814D01*
X643591Y490890D01*
X643824Y490960D01*
X644059Y491025D01*
X644295Y491084D01*
X644533Y491137D01*
X644772Y491184D01*
X645012Y491225D01*
X645253Y491260D01*
X645494Y491290D01*
X645737Y491314D01*
X645980Y491331D01*
X646223Y491343D01*
X646466Y491349D01*
X646710Y491349D01*
X646953Y491343D01*
X647196Y491331D01*
X647439Y491314D01*
X647682Y491290D01*
X647923Y491260D01*
X648164Y491225D01*
X648404Y491184D01*
X648643Y491137D01*
X648881Y491084D01*
X649117Y491025D01*
X649352Y490960D01*
X649585Y490890D01*
X649817Y490814D01*
X650046Y490733D01*
X650274Y490646D01*
X650499Y490553D01*
X650722Y490455D01*
X650943Y490352D01*
X651160Y490243D01*
X651376Y490129D01*
X651588Y490010D01*
X651797Y489886D01*
X652004Y489757D01*
X652207Y489622D01*
X652407Y489483D01*
X652603Y489339D01*
X652796Y489190D01*
X652985Y489036D01*
X653170Y488878D01*
X653351Y488716D01*
X653529Y488549D01*
X653702Y488378D01*
X653871Y488203D01*
X654036Y488023D01*
X654196Y487840D01*
X654352Y487653D01*
X654503Y487462D01*
X654649Y487267D01*
X654791Y487069D01*
X654928Y486868D01*
X655060Y486663D01*
X655187Y486455D01*
X655308Y486244D01*
X655425Y486030D01*
X655536Y485814D01*
X655642Y485595D01*
X655743Y485373D01*
X655838Y485149D01*
X655928Y484922D01*
X656012Y484694D01*
X656091Y484463D01*
X656164Y484231D01*
X656231Y483997D01*
X656293Y483761D01*
X656349Y483524D01*
X656399Y483286D01*
X656443Y483046D01*
X656481Y482806D01*
X656514Y482565D01*
X656541Y482323D01*
X656561Y482080D01*
X656576Y481837D01*
X656585Y481594D01*
X656588Y481350D01*
X656588Y451350D01*
X656585Y451106D01*
X656576Y450863D01*
X656561Y450620D01*
X656541Y450377D01*
X656514Y450135D01*
X656481Y449894D01*
X656443Y449654D01*
X656399Y449414D01*
X656349Y449176D01*
X656293Y448939D01*
X656231Y448703D01*
X656164Y448469D01*
X656091Y448237D01*
X656012Y448006D01*
X655928Y447778D01*
X655838Y447551D01*
X655743Y447327D01*
X655642Y447105D01*
X655536Y446886D01*
X655425Y446670D01*
X655308Y446456D01*
X655187Y446245D01*
X655060Y446037D01*
X654928Y445832D01*
X654791Y445631D01*
X654649Y445433D01*
X654503Y445238D01*
X654352Y445047D01*
X654196Y444860D01*
X654036Y444677D01*
X653871Y444497D01*
X653702Y444322D01*
X653529Y444151D01*
X653351Y443984D01*
X653170Y443822D01*
X652985Y443664D01*
X652796Y443510D01*
X652603Y443361D01*
X652407Y443217D01*
X652207Y443078D01*
X652004Y442943D01*
X651797Y442814D01*
X651588Y442690D01*
X651376Y442571D01*
X651160Y442457D01*
X650943Y442348D01*
X650722Y442245D01*
X650499Y442147D01*
X650274Y442054D01*
X650046Y441967D01*
X649817Y441886D01*
X649585Y441810D01*
X649352Y441740D01*
X649117Y441675D01*
X648881Y441616D01*
X648643Y441563D01*
X648404Y441516D01*
X648164Y441475D01*
X647923Y441440D01*
X647682Y441410D01*
X647439Y441386D01*
X647196Y441369D01*
X646953Y441357D01*
X646710Y441351D01*
X646466Y441351D01*
X646223Y441357D01*
X645980Y441369D01*
X645737Y441386D01*
X645494Y441410D01*
X645253Y441440D01*
X645012Y441475D01*
X644772Y441516D01*
X644533Y441563D01*
X644295Y441616D01*
X644059Y441675D01*
X643824Y441740D01*
X643591Y441810D01*
X643359Y441886D01*
X643130Y441967D01*
X642902Y442054D01*
X642677Y442147D01*
X642454Y442245D01*
X642233Y442348D01*
X642016Y442457D01*
X641800Y442571D01*
X641588Y442690D01*
X641379Y442814D01*
X641172Y442943D01*
X640969Y443078D01*
X640769Y443217D01*
X640573Y443361D01*
X640380Y443510D01*
X640191Y443664D01*
X640006Y443822D01*
X639825Y443984D01*
X639647Y444151D01*
X639474Y444322D01*
X639305Y444497D01*
X639140Y444677D01*
X638980Y444860D01*
X638824Y445047D01*
X638673Y445238D01*
X638527Y445433D01*
X638385Y445631D01*
X638248Y445832D01*
X638116Y446037D01*
X637989Y446245D01*
X637868Y446456D01*
X637751Y446670D01*
X637640Y446886D01*
X637534Y447105D01*
X637433Y447327D01*
X637338Y447551D01*
X637248Y447778D01*
X637164Y448006D01*
X637085Y448237D01*
X637012Y448469D01*
X636945Y448703D01*
X636883Y448939D01*
X636827Y449176D01*
X636777Y449414D01*
X636733Y449654D01*
X636695Y449894D01*
X636662Y450135D01*
X636635Y450377D01*
X636615Y450620D01*
X636600Y450863D01*
X636591Y451106D01*
X636588Y451350D01*
X29588Y705350D02*
X29588Y735350D01*
X29591Y735594D01*
X29600Y735837D01*
X29615Y736080D01*
X29635Y736323D01*
X29662Y736565D01*
X29695Y736806D01*
X29733Y737046D01*
X29777Y737286D01*
X29827Y737524D01*
X29883Y737761D01*
X29945Y737997D01*
X30012Y738231D01*
X30085Y738463D01*
X30164Y738694D01*
X30248Y738922D01*
X30338Y739149D01*
X30433Y739373D01*
X30534Y739595D01*
X30640Y739814D01*
X30751Y740030D01*
X30868Y740244D01*
X30989Y740455D01*
X31116Y740663D01*
X31248Y740868D01*
X31385Y741069D01*
X31527Y741267D01*
X31673Y741462D01*
X31824Y741653D01*
X31980Y741840D01*
X32140Y742023D01*
X32305Y742203D01*
X32474Y742378D01*
X32647Y742549D01*
X32825Y742716D01*
X33006Y742878D01*
X33191Y743036D01*
X33380Y743190D01*
X33573Y743339D01*
X33769Y743483D01*
X33969Y743622D01*
X34172Y743757D01*
X34379Y743886D01*
X34588Y744010D01*
X34800Y744129D01*
X35016Y744243D01*
X35233Y744352D01*
X35454Y744455D01*
X35677Y744553D01*
X35902Y744646D01*
X36130Y744733D01*
X36359Y744814D01*
X36591Y744890D01*
X36824Y744960D01*
X37059Y745025D01*
X37295Y745084D01*
X37533Y745137D01*
X37772Y745184D01*
X38012Y745225D01*
X38253Y745260D01*
X38494Y745290D01*
X38737Y745314D01*
X38980Y745331D01*
X39223Y745343D01*
X39466Y745349D01*
X39710Y745349D01*
X39953Y745343D01*
X40196Y745331D01*
X40439Y745314D01*
X40682Y745290D01*
X40923Y745260D01*
X41164Y745225D01*
X41404Y745184D01*
X41643Y745137D01*
X41881Y745084D01*
X42117Y745025D01*
X42352Y744960D01*
X42585Y744890D01*
X42817Y744814D01*
X43046Y744733D01*
X43274Y744646D01*
X43499Y744553D01*
X43722Y744455D01*
X43943Y744352D01*
X44160Y744243D01*
X44376Y744129D01*
X44588Y744010D01*
X44797Y743886D01*
X45004Y743757D01*
X45207Y743622D01*
X45407Y743483D01*
X45603Y743339D01*
X45796Y743190D01*
X45985Y743036D01*
X46170Y742878D01*
X46351Y742716D01*
X46529Y742549D01*
X46702Y742378D01*
X46871Y742203D01*
X47036Y742023D01*
X47196Y741840D01*
X47352Y741653D01*
X47503Y741462D01*
X47649Y741267D01*
X47791Y741069D01*
X47928Y740868D01*
X48060Y740663D01*
X48187Y740455D01*
X48308Y740244D01*
X48425Y740030D01*
X48536Y739814D01*
X48642Y739595D01*
X48743Y739373D01*
X48838Y739149D01*
X48928Y738922D01*
X49012Y738694D01*
X49091Y738463D01*
X49164Y738231D01*
X49231Y737997D01*
X49293Y737761D01*
X49349Y737524D01*
X49399Y737286D01*
X49443Y737046D01*
X49481Y736806D01*
X49514Y736565D01*
X49541Y736323D01*
X49561Y736080D01*
X49576Y735837D01*
X49585Y735594D01*
X49588Y735350D01*
X49588Y705350D01*
X49585Y705106D01*
X49576Y704863D01*
X49561Y704620D01*
X49541Y704377D01*
X49514Y704135D01*
X49481Y703894D01*
X49443Y703654D01*
X49399Y703414D01*
X49349Y703176D01*
X49293Y702939D01*
X49231Y702703D01*
X49164Y702469D01*
X49091Y702237D01*
X49012Y702006D01*
X48928Y701778D01*
X48838Y701551D01*
X48743Y701327D01*
X48642Y701105D01*
X48536Y700886D01*
X48425Y700670D01*
X48308Y700456D01*
X48187Y700245D01*
X48060Y700037D01*
X47928Y699832D01*
X47791Y699631D01*
X47649Y699433D01*
X47503Y699238D01*
X47352Y699047D01*
X47196Y698860D01*
X47036Y698677D01*
X46871Y698497D01*
X46702Y698322D01*
X46529Y698151D01*
X46351Y697984D01*
X46170Y697822D01*
X45985Y697664D01*
X45796Y697510D01*
X45603Y697361D01*
X45407Y697217D01*
X45207Y697078D01*
X45004Y696943D01*
X44797Y696814D01*
X44588Y696690D01*
X44376Y696571D01*
X44160Y696457D01*
X43943Y696348D01*
X43722Y696245D01*
X43499Y696147D01*
X43274Y696054D01*
X43046Y695967D01*
X42817Y695886D01*
X42585Y695810D01*
X42352Y695740D01*
X42117Y695675D01*
X41881Y695616D01*
X41643Y695563D01*
X41404Y695516D01*
X41164Y695475D01*
X40923Y695440D01*
X40682Y695410D01*
X40439Y695386D01*
X40196Y695369D01*
X39953Y695357D01*
X39710Y695351D01*
X39466Y695351D01*
X39223Y695357D01*
X38980Y695369D01*
X38737Y695386D01*
X38494Y695410D01*
X38253Y695440D01*
X38012Y695475D01*
X37772Y695516D01*
X37533Y695563D01*
X37295Y695616D01*
X37059Y695675D01*
X36824Y695740D01*
X36591Y695810D01*
X36359Y695886D01*
X36130Y695967D01*
X35902Y696054D01*
X35677Y696147D01*
X35454Y696245D01*
X35233Y696348D01*
X35016Y696457D01*
X34800Y696571D01*
X34588Y696690D01*
X34379Y696814D01*
X34172Y696943D01*
X33969Y697078D01*
X33769Y697217D01*
X33573Y697361D01*
X33380Y697510D01*
X33191Y697664D01*
X33006Y697822D01*
X32825Y697984D01*
X32647Y698151D01*
X32474Y698322D01*
X32305Y698497D01*
X32140Y698677D01*
X31980Y698860D01*
X31824Y699047D01*
X31673Y699238D01*
X31527Y699433D01*
X31385Y699631D01*
X31248Y699832D01*
X31116Y700037D01*
X30989Y700245D01*
X30868Y700456D01*
X30751Y700670D01*
X30640Y700886D01*
X30534Y701105D01*
X30433Y701327D01*
X30338Y701551D01*
X30248Y701778D01*
X30164Y702006D01*
X30085Y702237D01*
X30012Y702469D01*
X29945Y702703D01*
X29883Y702939D01*
X29827Y703176D01*
X29777Y703414D01*
X29733Y703654D01*
X29695Y703894D01*
X29662Y704135D01*
X29635Y704377D01*
X29615Y704620D01*
X29600Y704863D01*
X29591Y705106D01*
X29588Y705350D01*
X192088Y705350D02*
X192088Y735350D01*
X192091Y735594D01*
X192100Y735837D01*
X192115Y736080D01*
X192135Y736323D01*
X192162Y736565D01*
X192195Y736806D01*
X192233Y737046D01*
X192277Y737286D01*
X192327Y737524D01*
X192383Y737761D01*
X192445Y737997D01*
X192512Y738231D01*
X192585Y738463D01*
X192664Y738694D01*
X192748Y738922D01*
X192838Y739149D01*
X192933Y739373D01*
X193034Y739595D01*
X193140Y739814D01*
X193251Y740030D01*
X193368Y740244D01*
X193489Y740455D01*
X193616Y740663D01*
X193748Y740868D01*
X193885Y741069D01*
X194027Y741267D01*
X194173Y741462D01*
X194324Y741653D01*
X194480Y741840D01*
X194640Y742023D01*
X194805Y742203D01*
X194974Y742378D01*
X195147Y742549D01*
X195325Y742716D01*
X195506Y742878D01*
X195691Y743036D01*
X195880Y743190D01*
X196073Y743339D01*
X196269Y743483D01*
X196469Y743622D01*
X196672Y743757D01*
X196879Y743886D01*
X197088Y744010D01*
X197300Y744129D01*
X197516Y744243D01*
X197733Y744352D01*
X197954Y744455D01*
X198177Y744553D01*
X198402Y744646D01*
X198630Y744733D01*
X198859Y744814D01*
X199091Y744890D01*
X199324Y744960D01*
X199559Y745025D01*
X199795Y745084D01*
X200033Y745137D01*
X200272Y745184D01*
X200512Y745225D01*
X200753Y745260D01*
X200994Y745290D01*
X201237Y745314D01*
X201480Y745331D01*
X201723Y745343D01*
X201966Y745349D01*
X202210Y745349D01*
X202453Y745343D01*
X202696Y745331D01*
X202939Y745314D01*
X203182Y745290D01*
X203423Y745260D01*
X203664Y745225D01*
X203904Y745184D01*
X204143Y745137D01*
X204381Y745084D01*
X204617Y745025D01*
X204852Y744960D01*
X205085Y744890D01*
X205317Y744814D01*
X205546Y744733D01*
X205774Y744646D01*
X205999Y744553D01*
X206222Y744455D01*
X206443Y744352D01*
X206660Y744243D01*
X206876Y744129D01*
X207088Y744010D01*
X207297Y743886D01*
X207504Y743757D01*
X207707Y743622D01*
X207907Y743483D01*
X208103Y743339D01*
X208296Y743190D01*
X208485Y743036D01*
X208670Y742878D01*
X208851Y742716D01*
X209029Y742549D01*
X209202Y742378D01*
X209371Y742203D01*
X209536Y742023D01*
X209696Y741840D01*
X209852Y741653D01*
X210003Y741462D01*
X210149Y741267D01*
X210291Y741069D01*
X210428Y740868D01*
X210560Y740663D01*
X210687Y740455D01*
X210808Y740244D01*
X210925Y740030D01*
X211036Y739814D01*
X211142Y739595D01*
X211243Y739373D01*
X211338Y739149D01*
X211428Y738922D01*
X211512Y738694D01*
X211591Y738463D01*
X211664Y738231D01*
X211731Y737997D01*
X211793Y737761D01*
X211849Y737524D01*
X211899Y737286D01*
X211943Y737046D01*
X211981Y736806D01*
X212014Y736565D01*
X212041Y736323D01*
X212061Y736080D01*
X212076Y735837D01*
X212085Y735594D01*
X212088Y735350D01*
X212088Y705350D01*
X212085Y705106D01*
X212076Y704863D01*
X212061Y704620D01*
X212041Y704377D01*
X212014Y704135D01*
X211981Y703894D01*
X211943Y703654D01*
X211899Y703414D01*
X211849Y703176D01*
X211793Y702939D01*
X211731Y702703D01*
X211664Y702469D01*
X211591Y702237D01*
X211512Y702006D01*
X211428Y701778D01*
X211338Y701551D01*
X211243Y701327D01*
X211142Y701105D01*
X211036Y700886D01*
X210925Y700670D01*
X210808Y700456D01*
X210687Y700245D01*
X210560Y700037D01*
X210428Y699832D01*
X210291Y699631D01*
X210149Y699433D01*
X210003Y699238D01*
X209852Y699047D01*
X209696Y698860D01*
X209536Y698677D01*
X209371Y698497D01*
X209202Y698322D01*
X209029Y698151D01*
X208851Y697984D01*
X208670Y697822D01*
X208485Y697664D01*
X208296Y697510D01*
X208103Y697361D01*
X207907Y697217D01*
X207707Y697078D01*
X207504Y696943D01*
X207297Y696814D01*
X207088Y696690D01*
X206876Y696571D01*
X206660Y696457D01*
X206443Y696348D01*
X206222Y696245D01*
X205999Y696147D01*
X205774Y696054D01*
X205546Y695967D01*
X205317Y695886D01*
X205085Y695810D01*
X204852Y695740D01*
X204617Y695675D01*
X204381Y695616D01*
X204143Y695563D01*
X203904Y695516D01*
X203664Y695475D01*
X203423Y695440D01*
X203182Y695410D01*
X202939Y695386D01*
X202696Y695369D01*
X202453Y695357D01*
X202210Y695351D01*
X201966Y695351D01*
X201723Y695357D01*
X201480Y695369D01*
X201237Y695386D01*
X200994Y695410D01*
X200753Y695440D01*
X200512Y695475D01*
X200272Y695516D01*
X200033Y695563D01*
X199795Y695616D01*
X199559Y695675D01*
X199324Y695740D01*
X199091Y695810D01*
X198859Y695886D01*
X198630Y695967D01*
X198402Y696054D01*
X198177Y696147D01*
X197954Y696245D01*
X197733Y696348D01*
X197516Y696457D01*
X197300Y696571D01*
X197088Y696690D01*
X196879Y696814D01*
X196672Y696943D01*
X196469Y697078D01*
X196269Y697217D01*
X196073Y697361D01*
X195880Y697510D01*
X195691Y697664D01*
X195506Y697822D01*
X195325Y697984D01*
X195147Y698151D01*
X194974Y698322D01*
X194805Y698497D01*
X194640Y698677D01*
X194480Y698860D01*
X194324Y699047D01*
X194173Y699238D01*
X194027Y699433D01*
X193885Y699631D01*
X193748Y699832D01*
X193616Y700037D01*
X193489Y700245D01*
X193368Y700456D01*
X193251Y700670D01*
X193140Y700886D01*
X193034Y701105D01*
X192933Y701327D01*
X192838Y701551D01*
X192748Y701778D01*
X192664Y702006D01*
X192585Y702237D01*
X192512Y702469D01*
X192445Y702703D01*
X192383Y702939D01*
X192327Y703176D01*
X192277Y703414D01*
X192233Y703654D01*
X192195Y703894D01*
X192162Y704135D01*
X192135Y704377D01*
X192115Y704620D01*
X192100Y704863D01*
X192091Y705106D01*
X192088Y705350D01*
X382250Y651888D02*
X412250Y651888D01*
X382250Y651888D02*
X382006Y651891D01*
X381763Y651900D01*
X381520Y651915D01*
X381277Y651935D01*
X381035Y651962D01*
X380794Y651995D01*
X380554Y652033D01*
X380314Y652077D01*
X380076Y652127D01*
X379839Y652183D01*
X379603Y652245D01*
X379369Y652312D01*
X379137Y652385D01*
X378906Y652464D01*
X378678Y652548D01*
X378451Y652638D01*
X378227Y652733D01*
X378005Y652834D01*
X377786Y652940D01*
X377570Y653051D01*
X377356Y653168D01*
X377145Y653289D01*
X376937Y653416D01*
X376732Y653548D01*
X376531Y653685D01*
X376333Y653827D01*
X376138Y653973D01*
X375947Y654124D01*
X375760Y654280D01*
X375577Y654440D01*
X375397Y654605D01*
X375222Y654774D01*
X375051Y654947D01*
X374884Y655125D01*
X374722Y655306D01*
X374564Y655491D01*
X374410Y655680D01*
X374261Y655873D01*
X374117Y656069D01*
X373978Y656269D01*
X373843Y656472D01*
X373714Y656679D01*
X373590Y656888D01*
X373471Y657100D01*
X373357Y657316D01*
X373248Y657533D01*
X373145Y657754D01*
X373047Y657977D01*
X372954Y658202D01*
X372867Y658430D01*
X372786Y658659D01*
X372710Y658891D01*
X372640Y659124D01*
X372575Y659359D01*
X372516Y659595D01*
X372463Y659833D01*
X372416Y660072D01*
X372375Y660312D01*
X372340Y660553D01*
X372310Y660794D01*
X372286Y661037D01*
X372269Y661280D01*
X372257Y661523D01*
X372251Y661766D01*
X372251Y662010D01*
X372257Y662253D01*
X372269Y662496D01*
X372286Y662739D01*
X372310Y662982D01*
X372340Y663223D01*
X372375Y663464D01*
X372416Y663704D01*
X372463Y663943D01*
X372516Y664181D01*
X372575Y664417D01*
X372640Y664652D01*
X372710Y664885D01*
X372786Y665117D01*
X372867Y665346D01*
X372954Y665574D01*
X373047Y665799D01*
X373145Y666022D01*
X373248Y666243D01*
X373357Y666460D01*
X373471Y666676D01*
X373590Y666888D01*
X373714Y667097D01*
X373843Y667304D01*
X373978Y667507D01*
X374117Y667707D01*
X374261Y667903D01*
X374410Y668096D01*
X374564Y668285D01*
X374722Y668470D01*
X374884Y668651D01*
X375051Y668829D01*
X375222Y669002D01*
X375397Y669171D01*
X375577Y669336D01*
X375760Y669496D01*
X375947Y669652D01*
X376138Y669803D01*
X376333Y669949D01*
X376531Y670091D01*
X376732Y670228D01*
X376937Y670360D01*
X377145Y670487D01*
X377356Y670608D01*
X377570Y670725D01*
X377786Y670836D01*
X378005Y670942D01*
X378227Y671043D01*
X378451Y671138D01*
X378678Y671228D01*
X378906Y671312D01*
X379137Y671391D01*
X379369Y671464D01*
X379603Y671531D01*
X379839Y671593D01*
X380076Y671649D01*
X380314Y671699D01*
X380554Y671743D01*
X380794Y671781D01*
X381035Y671814D01*
X381277Y671841D01*
X381520Y671861D01*
X381763Y671876D01*
X382006Y671885D01*
X382250Y671888D01*
X412250Y671888D01*
X412494Y671885D01*
X412737Y671876D01*
X412980Y671861D01*
X413223Y671841D01*
X413465Y671814D01*
X413706Y671781D01*
X413946Y671743D01*
X414186Y671699D01*
X414424Y671649D01*
X414661Y671593D01*
X414897Y671531D01*
X415131Y671464D01*
X415363Y671391D01*
X415594Y671312D01*
X415822Y671228D01*
X416049Y671138D01*
X416273Y671043D01*
X416495Y670942D01*
X416714Y670836D01*
X416930Y670725D01*
X417144Y670608D01*
X417355Y670487D01*
X417563Y670360D01*
X417768Y670228D01*
X417969Y670091D01*
X418167Y669949D01*
X418362Y669803D01*
X418553Y669652D01*
X418740Y669496D01*
X418923Y669336D01*
X419103Y669171D01*
X419278Y669002D01*
X419449Y668829D01*
X419616Y668651D01*
X419778Y668470D01*
X419936Y668285D01*
X420090Y668096D01*
X420239Y667903D01*
X420383Y667707D01*
X420522Y667507D01*
X420657Y667304D01*
X420786Y667097D01*
X420910Y666888D01*
X421029Y666676D01*
X421143Y666460D01*
X421252Y666243D01*
X421355Y666022D01*
X421453Y665799D01*
X421546Y665574D01*
X421633Y665346D01*
X421714Y665117D01*
X421790Y664885D01*
X421860Y664652D01*
X421925Y664417D01*
X421984Y664181D01*
X422037Y663943D01*
X422084Y663704D01*
X422125Y663464D01*
X422160Y663223D01*
X422190Y662982D01*
X422214Y662739D01*
X422231Y662496D01*
X422243Y662253D01*
X422249Y662010D01*
X422249Y661766D01*
X422243Y661523D01*
X422231Y661280D01*
X422214Y661037D01*
X422190Y660794D01*
X422160Y660553D01*
X422125Y660312D01*
X422084Y660072D01*
X422037Y659833D01*
X421984Y659595D01*
X421925Y659359D01*
X421860Y659124D01*
X421790Y658891D01*
X421714Y658659D01*
X421633Y658430D01*
X421546Y658202D01*
X421453Y657977D01*
X421355Y657754D01*
X421252Y657533D01*
X421143Y657316D01*
X421029Y657100D01*
X420910Y656888D01*
X420786Y656679D01*
X420657Y656472D01*
X420522Y656269D01*
X420383Y656069D01*
X420239Y655873D01*
X420090Y655680D01*
X419936Y655491D01*
X419778Y655306D01*
X419616Y655125D01*
X419449Y654947D01*
X419278Y654774D01*
X419103Y654605D01*
X418923Y654440D01*
X418740Y654280D01*
X418553Y654124D01*
X418362Y653973D01*
X418167Y653827D01*
X417969Y653685D01*
X417768Y653548D01*
X417563Y653416D01*
X417355Y653289D01*
X417144Y653168D01*
X416930Y653051D01*
X416714Y652940D01*
X416495Y652834D01*
X416273Y652733D01*
X416049Y652638D01*
X415822Y652548D01*
X415594Y652464D01*
X415363Y652385D01*
X415131Y652312D01*
X414897Y652245D01*
X414661Y652183D01*
X414424Y652127D01*
X414186Y652077D01*
X413946Y652033D01*
X413706Y651995D01*
X413465Y651962D01*
X413223Y651935D01*
X412980Y651915D01*
X412737Y651900D01*
X412494Y651891D01*
X412250Y651888D01*
X412250Y814388D02*
X382250Y814388D01*
X382006Y814391D01*
X381763Y814400D01*
X381520Y814415D01*
X381277Y814435D01*
X381035Y814462D01*
X380794Y814495D01*
X380554Y814533D01*
X380314Y814577D01*
X380076Y814627D01*
X379839Y814683D01*
X379603Y814745D01*
X379369Y814812D01*
X379137Y814885D01*
X378906Y814964D01*
X378678Y815048D01*
X378451Y815138D01*
X378227Y815233D01*
X378005Y815334D01*
X377786Y815440D01*
X377570Y815551D01*
X377356Y815668D01*
X377145Y815789D01*
X376937Y815916D01*
X376732Y816048D01*
X376531Y816185D01*
X376333Y816327D01*
X376138Y816473D01*
X375947Y816624D01*
X375760Y816780D01*
X375577Y816940D01*
X375397Y817105D01*
X375222Y817274D01*
X375051Y817447D01*
X374884Y817625D01*
X374722Y817806D01*
X374564Y817991D01*
X374410Y818180D01*
X374261Y818373D01*
X374117Y818569D01*
X373978Y818769D01*
X373843Y818972D01*
X373714Y819179D01*
X373590Y819388D01*
X373471Y819600D01*
X373357Y819816D01*
X373248Y820033D01*
X373145Y820254D01*
X373047Y820477D01*
X372954Y820702D01*
X372867Y820930D01*
X372786Y821159D01*
X372710Y821391D01*
X372640Y821624D01*
X372575Y821859D01*
X372516Y822095D01*
X372463Y822333D01*
X372416Y822572D01*
X372375Y822812D01*
X372340Y823053D01*
X372310Y823294D01*
X372286Y823537D01*
X372269Y823780D01*
X372257Y824023D01*
X372251Y824266D01*
X372251Y824510D01*
X372257Y824753D01*
X372269Y824996D01*
X372286Y825239D01*
X372310Y825482D01*
X372340Y825723D01*
X372375Y825964D01*
X372416Y826204D01*
X372463Y826443D01*
X372516Y826681D01*
X372575Y826917D01*
X372640Y827152D01*
X372710Y827385D01*
X372786Y827617D01*
X372867Y827846D01*
X372954Y828074D01*
X373047Y828299D01*
X373145Y828522D01*
X373248Y828743D01*
X373357Y828960D01*
X373471Y829176D01*
X373590Y829388D01*
X373714Y829597D01*
X373843Y829804D01*
X373978Y830007D01*
X374117Y830207D01*
X374261Y830403D01*
X374410Y830596D01*
X374564Y830785D01*
X374722Y830970D01*
X374884Y831151D01*
X375051Y831329D01*
X375222Y831502D01*
X375397Y831671D01*
X375577Y831836D01*
X375760Y831996D01*
X375947Y832152D01*
X376138Y832303D01*
X376333Y832449D01*
X376531Y832591D01*
X376732Y832728D01*
X376937Y832860D01*
X377145Y832987D01*
X377356Y833108D01*
X377570Y833225D01*
X377786Y833336D01*
X378005Y833442D01*
X378227Y833543D01*
X378451Y833638D01*
X378678Y833728D01*
X378906Y833812D01*
X379137Y833891D01*
X379369Y833964D01*
X379603Y834031D01*
X379839Y834093D01*
X380076Y834149D01*
X380314Y834199D01*
X380554Y834243D01*
X380794Y834281D01*
X381035Y834314D01*
X381277Y834341D01*
X381520Y834361D01*
X381763Y834376D01*
X382006Y834385D01*
X382250Y834388D01*
X412250Y834388D01*
X412494Y834385D01*
X412737Y834376D01*
X412980Y834361D01*
X413223Y834341D01*
X413465Y834314D01*
X413706Y834281D01*
X413946Y834243D01*
X414186Y834199D01*
X414424Y834149D01*
X414661Y834093D01*
X414897Y834031D01*
X415131Y833964D01*
X415363Y833891D01*
X415594Y833812D01*
X415822Y833728D01*
X416049Y833638D01*
X416273Y833543D01*
X416495Y833442D01*
X416714Y833336D01*
X416930Y833225D01*
X417144Y833108D01*
X417355Y832987D01*
X417563Y832860D01*
X417768Y832728D01*
X417969Y832591D01*
X418167Y832449D01*
X418362Y832303D01*
X418553Y832152D01*
X418740Y831996D01*
X418923Y831836D01*
X419103Y831671D01*
X419278Y831502D01*
X419449Y831329D01*
X419616Y831151D01*
X419778Y830970D01*
X419936Y830785D01*
X420090Y830596D01*
X420239Y830403D01*
X420383Y830207D01*
X420522Y830007D01*
X420657Y829804D01*
X420786Y829597D01*
X420910Y829388D01*
X421029Y829176D01*
X421143Y828960D01*
X421252Y828743D01*
X421355Y828522D01*
X421453Y828299D01*
X421546Y828074D01*
X421633Y827846D01*
X421714Y827617D01*
X421790Y827385D01*
X421860Y827152D01*
X421925Y826917D01*
X421984Y826681D01*
X422037Y826443D01*
X422084Y826204D01*
X422125Y825964D01*
X422160Y825723D01*
X422190Y825482D01*
X422214Y825239D01*
X422231Y824996D01*
X422243Y824753D01*
X422249Y824510D01*
X422249Y824266D01*
X422243Y824023D01*
X422231Y823780D01*
X422214Y823537D01*
X422190Y823294D01*
X422160Y823053D01*
X422125Y822812D01*
X422084Y822572D01*
X422037Y822333D01*
X421984Y822095D01*
X421925Y821859D01*
X421860Y821624D01*
X421790Y821391D01*
X421714Y821159D01*
X421633Y820930D01*
X421546Y820702D01*
X421453Y820477D01*
X421355Y820254D01*
X421252Y820033D01*
X421143Y819816D01*
X421029Y819600D01*
X420910Y819388D01*
X420786Y819179D01*
X420657Y818972D01*
X420522Y818769D01*
X420383Y818569D01*
X420239Y818373D01*
X420090Y818180D01*
X419936Y817991D01*
X419778Y817806D01*
X419616Y817625D01*
X419449Y817447D01*
X419278Y817274D01*
X419103Y817105D01*
X418923Y816940D01*
X418740Y816780D01*
X418553Y816624D01*
X418362Y816473D01*
X418167Y816327D01*
X417969Y816185D01*
X417768Y816048D01*
X417563Y815916D01*
X417355Y815789D01*
X417144Y815668D01*
X416930Y815551D01*
X416714Y815440D01*
X416495Y815334D01*
X416273Y815233D01*
X416049Y815138D01*
X415822Y815048D01*
X415594Y814964D01*
X415363Y814885D01*
X415131Y814812D01*
X414897Y814745D01*
X414661Y814683D01*
X414424Y814627D01*
X414186Y814577D01*
X413946Y814533D01*
X413706Y814495D01*
X413465Y814462D01*
X413223Y814435D01*
X412980Y814415D01*
X412737Y814400D01*
X412494Y814391D01*
X412250Y814388D01*
X728088Y481350D02*
X728088Y451350D01*
X728088Y481350D02*
X728091Y481594D01*
X728100Y481837D01*
X728115Y482080D01*
X728135Y482323D01*
X728162Y482565D01*
X728195Y482806D01*
X728233Y483046D01*
X728277Y483286D01*
X728327Y483524D01*
X728383Y483761D01*
X728445Y483997D01*
X728512Y484231D01*
X728585Y484463D01*
X728664Y484694D01*
X728748Y484922D01*
X728838Y485149D01*
X728933Y485373D01*
X729034Y485595D01*
X729140Y485814D01*
X729251Y486030D01*
X729368Y486244D01*
X729489Y486455D01*
X729616Y486663D01*
X729748Y486868D01*
X729885Y487069D01*
X730027Y487267D01*
X730173Y487462D01*
X730324Y487653D01*
X730480Y487840D01*
X730640Y488023D01*
X730805Y488203D01*
X730974Y488378D01*
X731147Y488549D01*
X731325Y488716D01*
X731506Y488878D01*
X731691Y489036D01*
X731880Y489190D01*
X732073Y489339D01*
X732269Y489483D01*
X732469Y489622D01*
X732672Y489757D01*
X732879Y489886D01*
X733088Y490010D01*
X733300Y490129D01*
X733516Y490243D01*
X733733Y490352D01*
X733954Y490455D01*
X734177Y490553D01*
X734402Y490646D01*
X734630Y490733D01*
X734859Y490814D01*
X735091Y490890D01*
X735324Y490960D01*
X735559Y491025D01*
X735795Y491084D01*
X736033Y491137D01*
X736272Y491184D01*
X736512Y491225D01*
X736753Y491260D01*
X736994Y491290D01*
X737237Y491314D01*
X737480Y491331D01*
X737723Y491343D01*
X737966Y491349D01*
X738210Y491349D01*
X738453Y491343D01*
X738696Y491331D01*
X738939Y491314D01*
X739182Y491290D01*
X739423Y491260D01*
X739664Y491225D01*
X739904Y491184D01*
X740143Y491137D01*
X740381Y491084D01*
X740617Y491025D01*
X740852Y490960D01*
X741085Y490890D01*
X741317Y490814D01*
X741546Y490733D01*
X741774Y490646D01*
X741999Y490553D01*
X742222Y490455D01*
X742443Y490352D01*
X742660Y490243D01*
X742876Y490129D01*
X743088Y490010D01*
X743297Y489886D01*
X743504Y489757D01*
X743707Y489622D01*
X743907Y489483D01*
X744103Y489339D01*
X744296Y489190D01*
X744485Y489036D01*
X744670Y488878D01*
X744851Y488716D01*
X745029Y488549D01*
X745202Y488378D01*
X745371Y488203D01*
X745536Y488023D01*
X745696Y487840D01*
X745852Y487653D01*
X746003Y487462D01*
X746149Y487267D01*
X746291Y487069D01*
X746428Y486868D01*
X746560Y486663D01*
X746687Y486455D01*
X746808Y486244D01*
X746925Y486030D01*
X747036Y485814D01*
X747142Y485595D01*
X747243Y485373D01*
X747338Y485149D01*
X747428Y484922D01*
X747512Y484694D01*
X747591Y484463D01*
X747664Y484231D01*
X747731Y483997D01*
X747793Y483761D01*
X747849Y483524D01*
X747899Y483286D01*
X747943Y483046D01*
X747981Y482806D01*
X748014Y482565D01*
X748041Y482323D01*
X748061Y482080D01*
X748076Y481837D01*
X748085Y481594D01*
X748088Y481350D01*
X748088Y451350D01*
X748085Y451106D01*
X748076Y450863D01*
X748061Y450620D01*
X748041Y450377D01*
X748014Y450135D01*
X747981Y449894D01*
X747943Y449654D01*
X747899Y449414D01*
X747849Y449176D01*
X747793Y448939D01*
X747731Y448703D01*
X747664Y448469D01*
X747591Y448237D01*
X747512Y448006D01*
X747428Y447778D01*
X747338Y447551D01*
X747243Y447327D01*
X747142Y447105D01*
X747036Y446886D01*
X746925Y446670D01*
X746808Y446456D01*
X746687Y446245D01*
X746560Y446037D01*
X746428Y445832D01*
X746291Y445631D01*
X746149Y445433D01*
X746003Y445238D01*
X745852Y445047D01*
X745696Y444860D01*
X745536Y444677D01*
X745371Y444497D01*
X745202Y444322D01*
X745029Y444151D01*
X744851Y443984D01*
X744670Y443822D01*
X744485Y443664D01*
X744296Y443510D01*
X744103Y443361D01*
X743907Y443217D01*
X743707Y443078D01*
X743504Y442943D01*
X743297Y442814D01*
X743088Y442690D01*
X742876Y442571D01*
X742660Y442457D01*
X742443Y442348D01*
X742222Y442245D01*
X741999Y442147D01*
X741774Y442054D01*
X741546Y441967D01*
X741317Y441886D01*
X741085Y441810D01*
X740852Y441740D01*
X740617Y441675D01*
X740381Y441616D01*
X740143Y441563D01*
X739904Y441516D01*
X739664Y441475D01*
X739423Y441440D01*
X739182Y441410D01*
X738939Y441386D01*
X738696Y441369D01*
X738453Y441357D01*
X738210Y441351D01*
X737966Y441351D01*
X737723Y441357D01*
X737480Y441369D01*
X737237Y441386D01*
X736994Y441410D01*
X736753Y441440D01*
X736512Y441475D01*
X736272Y441516D01*
X736033Y441563D01*
X735795Y441616D01*
X735559Y441675D01*
X735324Y441740D01*
X735091Y441810D01*
X734859Y441886D01*
X734630Y441967D01*
X734402Y442054D01*
X734177Y442147D01*
X733954Y442245D01*
X733733Y442348D01*
X733516Y442457D01*
X733300Y442571D01*
X733088Y442690D01*
X732879Y442814D01*
X732672Y442943D01*
X732469Y443078D01*
X732269Y443217D01*
X732073Y443361D01*
X731880Y443510D01*
X731691Y443664D01*
X731506Y443822D01*
X731325Y443984D01*
X731147Y444151D01*
X730974Y444322D01*
X730805Y444497D01*
X730640Y444677D01*
X730480Y444860D01*
X730324Y445047D01*
X730173Y445238D01*
X730027Y445433D01*
X729885Y445631D01*
X729748Y445832D01*
X729616Y446037D01*
X729489Y446245D01*
X729368Y446456D01*
X729251Y446670D01*
X729140Y446886D01*
X729034Y447105D01*
X728933Y447327D01*
X728838Y447551D01*
X728748Y447778D01*
X728664Y448006D01*
X728585Y448237D01*
X728512Y448469D01*
X728445Y448703D01*
X728383Y448939D01*
X728327Y449176D01*
X728277Y449414D01*
X728233Y449654D01*
X728195Y449894D01*
X728162Y450135D01*
X728135Y450377D01*
X728115Y450620D01*
X728100Y450863D01*
X728091Y451106D01*
X728088Y451350D01*
X890588Y451350D02*
X890588Y481350D01*
X890591Y481594D01*
X890600Y481837D01*
X890615Y482080D01*
X890635Y482323D01*
X890662Y482565D01*
X890695Y482806D01*
X890733Y483046D01*
X890777Y483286D01*
X890827Y483524D01*
X890883Y483761D01*
X890945Y483997D01*
X891012Y484231D01*
X891085Y484463D01*
X891164Y484694D01*
X891248Y484922D01*
X891338Y485149D01*
X891433Y485373D01*
X891534Y485595D01*
X891640Y485814D01*
X891751Y486030D01*
X891868Y486244D01*
X891989Y486455D01*
X892116Y486663D01*
X892248Y486868D01*
X892385Y487069D01*
X892527Y487267D01*
X892673Y487462D01*
X892824Y487653D01*
X892980Y487840D01*
X893140Y488023D01*
X893305Y488203D01*
X893474Y488378D01*
X893647Y488549D01*
X893825Y488716D01*
X894006Y488878D01*
X894191Y489036D01*
X894380Y489190D01*
X894573Y489339D01*
X894769Y489483D01*
X894969Y489622D01*
X895172Y489757D01*
X895379Y489886D01*
X895588Y490010D01*
X895800Y490129D01*
X896016Y490243D01*
X896233Y490352D01*
X896454Y490455D01*
X896677Y490553D01*
X896902Y490646D01*
X897130Y490733D01*
X897359Y490814D01*
X897591Y490890D01*
X897824Y490960D01*
X898059Y491025D01*
X898295Y491084D01*
X898533Y491137D01*
X898772Y491184D01*
X899012Y491225D01*
X899253Y491260D01*
X899494Y491290D01*
X899737Y491314D01*
X899980Y491331D01*
X900223Y491343D01*
X900466Y491349D01*
X900710Y491349D01*
X900953Y491343D01*
X901196Y491331D01*
X901439Y491314D01*
X901682Y491290D01*
X901923Y491260D01*
X902164Y491225D01*
X902404Y491184D01*
X902643Y491137D01*
X902881Y491084D01*
X903117Y491025D01*
X903352Y490960D01*
X903585Y490890D01*
X903817Y490814D01*
X904046Y490733D01*
X904274Y490646D01*
X904499Y490553D01*
X904722Y490455D01*
X904943Y490352D01*
X905160Y490243D01*
X905376Y490129D01*
X905588Y490010D01*
X905797Y489886D01*
X906004Y489757D01*
X906207Y489622D01*
X906407Y489483D01*
X906603Y489339D01*
X906796Y489190D01*
X906985Y489036D01*
X907170Y488878D01*
X907351Y488716D01*
X907529Y488549D01*
X907702Y488378D01*
X907871Y488203D01*
X908036Y488023D01*
X908196Y487840D01*
X908352Y487653D01*
X908503Y487462D01*
X908649Y487267D01*
X908791Y487069D01*
X908928Y486868D01*
X909060Y486663D01*
X909187Y486455D01*
X909308Y486244D01*
X909425Y486030D01*
X909536Y485814D01*
X909642Y485595D01*
X909743Y485373D01*
X909838Y485149D01*
X909928Y484922D01*
X910012Y484694D01*
X910091Y484463D01*
X910164Y484231D01*
X910231Y483997D01*
X910293Y483761D01*
X910349Y483524D01*
X910399Y483286D01*
X910443Y483046D01*
X910481Y482806D01*
X910514Y482565D01*
X910541Y482323D01*
X910561Y482080D01*
X910576Y481837D01*
X910585Y481594D01*
X910588Y481350D01*
X910588Y451350D01*
X910585Y451106D01*
X910576Y450863D01*
X910561Y450620D01*
X910541Y450377D01*
X910514Y450135D01*
X910481Y449894D01*
X910443Y449654D01*
X910399Y449414D01*
X910349Y449176D01*
X910293Y448939D01*
X910231Y448703D01*
X910164Y448469D01*
X910091Y448237D01*
X910012Y448006D01*
X909928Y447778D01*
X909838Y447551D01*
X909743Y447327D01*
X909642Y447105D01*
X909536Y446886D01*
X909425Y446670D01*
X909308Y446456D01*
X909187Y446245D01*
X909060Y446037D01*
X908928Y445832D01*
X908791Y445631D01*
X908649Y445433D01*
X908503Y445238D01*
X908352Y445047D01*
X908196Y444860D01*
X908036Y444677D01*
X907871Y444497D01*
X907702Y444322D01*
X907529Y444151D01*
X907351Y443984D01*
X907170Y443822D01*
X906985Y443664D01*
X906796Y443510D01*
X906603Y443361D01*
X906407Y443217D01*
X906207Y443078D01*
X906004Y442943D01*
X905797Y442814D01*
X905588Y442690D01*
X905376Y442571D01*
X905160Y442457D01*
X904943Y442348D01*
X904722Y442245D01*
X904499Y442147D01*
X904274Y442054D01*
X904046Y441967D01*
X903817Y441886D01*
X903585Y441810D01*
X903352Y441740D01*
X903117Y441675D01*
X902881Y441616D01*
X902643Y441563D01*
X902404Y441516D01*
X902164Y441475D01*
X901923Y441440D01*
X901682Y441410D01*
X901439Y441386D01*
X901196Y441369D01*
X900953Y441357D01*
X900710Y441351D01*
X900466Y441351D01*
X900223Y441357D01*
X899980Y441369D01*
X899737Y441386D01*
X899494Y441410D01*
X899253Y441440D01*
X899012Y441475D01*
X898772Y441516D01*
X898533Y441563D01*
X898295Y441616D01*
X898059Y441675D01*
X897824Y441740D01*
X897591Y441810D01*
X897359Y441886D01*
X897130Y441967D01*
X896902Y442054D01*
X896677Y442147D01*
X896454Y442245D01*
X896233Y442348D01*
X896016Y442457D01*
X895800Y442571D01*
X895588Y442690D01*
X895379Y442814D01*
X895172Y442943D01*
X894969Y443078D01*
X894769Y443217D01*
X894573Y443361D01*
X894380Y443510D01*
X894191Y443664D01*
X894006Y443822D01*
X893825Y443984D01*
X893647Y444151D01*
X893474Y444322D01*
X893305Y444497D01*
X893140Y444677D01*
X892980Y444860D01*
X892824Y445047D01*
X892673Y445238D01*
X892527Y445433D01*
X892385Y445631D01*
X892248Y445832D01*
X892116Y446037D01*
X891989Y446245D01*
X891868Y446456D01*
X891751Y446670D01*
X891640Y446886D01*
X891534Y447105D01*
X891433Y447327D01*
X891338Y447551D01*
X891248Y447778D01*
X891164Y448006D01*
X891085Y448237D01*
X891012Y448469D01*
X890945Y448703D01*
X890883Y448939D01*
X890827Y449176D01*
X890777Y449414D01*
X890733Y449654D01*
X890695Y449894D01*
X890662Y450135D01*
X890635Y450377D01*
X890615Y450620D01*
X890600Y450863D01*
X890591Y451106D01*
X890588Y451350D01*
M02*
