Value;Designator;Manufacturer Part Number ;Qty;Link
X4THT;ARM_L,ARM_R,FOOT_L,FOOT_R,HEAD;;5;
X3SMDCOM;BAT;;1;
100nF;C1,C6,C7,C8,C17,C35,C50,C54,C72,C90,C95;CM05X5R104M25AH ;11;https://www.mouser.it/ProductDetail/Kyocera-Electronic-Components/CM05X5R104M25AH?qs=sGAEpiMZZMukHu%252BjC5l7YVcK8nR54NRf%252B%2FCwG4ny9h4%3D
1µF;C2,C3,C4,C5,C9,C13,C16,C18,C19,C20,C21,C22,C31,C34,C36,C49,C53,C55,C68,C71,C73,C87,C89,C93,C94,C98,C99;CM05X5R105M16AH ;27;https://www.mouser.it/ProductDetail/Kyocera-Electronic-Components/CM05X5R105M16AH?qs=sGAEpiMZZMsG1k5vdNM%2Fc62HxpYsYx%252BhBV8RL3Hya%252Bk%3D
390pF;C10,C28,C46,C65;;4;
16pF;C11,C29,C47,C66;;4;
10nF;C12,C30,C48,C67,C88;C0402C103J3RACAUTO;5;https://www.mouser.it/ProductDetail/KEMET/C0402C103J3RACAUTO?qs=sGAEpiMZZMve4%2FbfQkoj%252BCWWpKGC3MQ%252BwgfuJpV5gCA%3D
22nF;C14,C32,C51,C69;;4;
100µF;C15,C33,C52,C70,C91,C92,C96,C97;;8;
X2SMD;GND;;1;
ATA6561;IC1;ATA6561-GBQW-N;1;https://www.mouser.it/ProductDetail/Microchip-Technology/ATA6561-GBQW-N?qs=sGAEpiMZZMve4%2FbfQkoj%252BI%2F7t6KV9V5GttbTFJRO2QE%3D
ADP1853;IC3,IC7,IC12,IC16,IC20,IC21;;6;
ACS711;IC4,IC8,IC13,IC17;;4;
BQ29200VSON;IC11;;1;
10µH;L2,L4,L6,L8;;4;
1µH;L11,L12;;2;
DMP2005UFG-7;M1,M2;;2;
BSC010NE2LS;M3,M4,M7,M8,M11,M12,M15,M16,M21,M22,M23,M24;;12;
STM32F042G6;MCU1;STM32F042G6U6 ;1;https://www.mouser.it/ProductDetail/STMicroelectronics/STM32F042G6U6?qs=sGAEpiMZZMuoKKEcg8mMKNc9fYNb0pwdq4rqFaZOONp42qL8qoOBeg%3D%3D
MMBT3904;Q1;;1;
10k;R1,R2,R3,R61,R66;RR0510P-103-D;5;https://www.mouser.it/ProductDetail/Susumu/RR0510P-103-D?qs=sGAEpiMZZMu61qfTUdNhG%2FDhcyQpRg8MB7P%2FfnNlJ9M%3D
1k;R4,R7,R19,R31,R46,R63;;6;
22k;R8,R20,R32,R47,R62,R67;;6;
33k;R9,R21,R33,R48;;4;
8k6;R10,R22,R37,R49;;4;
18k;R11,R23,R38,R50;;4;
820k;R12,R24,R39,R51;;4;
160;R34;;1;
260;R35;;1;
100;R36;;1;
264k;R60,R65;;2;
13k;R64;;1;
SWD;SWD1;;1;
5V;UREG1;TPS76950DBVR;1;https://www.mouser.it/ProductDetail/Texas-Instruments/TPS76950DBVR?qs=sGAEpiMZZMsGz1a6aV8DcAfX9iOHBOeIyQpQEiditR4%3D
3V3;UREG2;MCP1802T-3002I/OT;1;https://www.mouser.it/ProductDetail/Microchip-Technology/MCP1802T-3002I-OT?qs=sGAEpiMZZMsGz1a6aV8DcHtY22241HYI5svncn6gMRE%3D
X4SMD_COM;VIN;;1;
