<?xml version="1.0" encoding="utf-8"?>
<!DOCTYPE eagle SYSTEM "eagle.dtd">
<eagle version="9.5.0">
<drawing>
<settings>
<setting alwaysvectorfont="no"/>
<setting verticaltext="up"/>
</settings>
<grid distance="50" unitdist="mil" unit="mil" style="lines" multiple="1" display="no" altdistance="5" altunitdist="mil" altunit="mil"/>
<layers>
<layer number="1" name="Top" color="4" fill="1" visible="yes" active="yes"/>
<layer number="2" name="Route2" color="16" fill="1" visible="yes" active="yes"/>
<layer number="3" name="Route3" color="17" fill="1" visible="yes" active="yes"/>
<layer number="4" name="Route4" color="18" fill="1" visible="yes" active="yes"/>
<layer number="5" name="Route5" color="19" fill="1" visible="yes" active="yes"/>
<layer number="6" name="Route6" color="25" fill="1" visible="yes" active="yes"/>
<layer number="7" name="Route7" color="26" fill="1" visible="yes" active="yes"/>
<layer number="8" name="Route8" color="27" fill="1" visible="yes" active="yes"/>
<layer number="9" name="Route9" color="28" fill="1" visible="yes" active="yes"/>
<layer number="10" name="Route10" color="29" fill="1" visible="yes" active="yes"/>
<layer number="11" name="Route11" color="30" fill="1" visible="yes" active="yes"/>
<layer number="12" name="Route12" color="20" fill="1" visible="yes" active="yes"/>
<layer number="13" name="Route13" color="21" fill="1" visible="yes" active="yes"/>
<layer number="14" name="Route14" color="22" fill="1" visible="yes" active="yes"/>
<layer number="15" name="Route15" color="23" fill="1" visible="yes" active="yes"/>
<layer number="16" name="Bottom" color="1" fill="1" visible="yes" active="yes"/>
<layer number="17" name="Pads" color="2" fill="1" visible="yes" active="yes"/>
<layer number="18" name="Vias" color="2" fill="1" visible="yes" active="yes"/>
<layer number="19" name="Unrouted" color="6" fill="1" visible="yes" active="yes"/>
<layer number="20" name="Dimension" color="24" fill="1" visible="yes" active="yes"/>
<layer number="21" name="tPlace" color="7" fill="1" visible="yes" active="yes"/>
<layer number="22" name="bPlace" color="7" fill="1" visible="yes" active="yes"/>
<layer number="23" name="tOrigins" color="15" fill="1" visible="yes" active="yes"/>
<layer number="24" name="bOrigins" color="15" fill="1" visible="yes" active="yes"/>
<layer number="25" name="tNames" color="7" fill="1" visible="yes" active="yes"/>
<layer number="26" name="bNames" color="7" fill="1" visible="yes" active="yes"/>
<layer number="27" name="tValues" color="7" fill="1" visible="yes" active="yes"/>
<layer number="28" name="bValues" color="7" fill="1" visible="yes" active="yes"/>
<layer number="29" name="tStop" color="7" fill="3" visible="yes" active="yes"/>
<layer number="30" name="bStop" color="7" fill="6" visible="yes" active="yes"/>
<layer number="31" name="tCream" color="7" fill="4" visible="yes" active="yes"/>
<layer number="32" name="bCream" color="7" fill="5" visible="yes" active="yes"/>
<layer number="33" name="tFinish" color="6" fill="3" visible="yes" active="yes"/>
<layer number="34" name="bFinish" color="6" fill="6" visible="yes" active="yes"/>
<layer number="35" name="tGlue" color="7" fill="4" visible="yes" active="yes"/>
<layer number="36" name="bGlue" color="7" fill="5" visible="yes" active="yes"/>
<layer number="37" name="tTest" color="7" fill="1" visible="yes" active="yes"/>
<layer number="38" name="bTest" color="7" fill="1" visible="yes" active="yes"/>
<layer number="39" name="tKeepout" color="4" fill="11" visible="yes" active="yes"/>
<layer number="40" name="bKeepout" color="1" fill="11" visible="yes" active="yes"/>
<layer number="41" name="tRestrict" color="4" fill="10" visible="yes" active="yes"/>
<layer number="42" name="bRestrict" color="1" fill="10" visible="yes" active="yes"/>
<layer number="43" name="vRestrict" color="2" fill="10" visible="yes" active="yes"/>
<layer number="44" name="Drills" color="7" fill="1" visible="yes" active="yes"/>
<layer number="45" name="Holes" color="7" fill="1" visible="yes" active="yes"/>
<layer number="46" name="Milling" color="3" fill="1" visible="yes" active="yes"/>
<layer number="47" name="Measures" color="7" fill="1" visible="yes" active="yes"/>
<layer number="48" name="Document" color="7" fill="1" visible="yes" active="yes"/>
<layer number="49" name="Reference" color="7" fill="1" visible="yes" active="yes"/>
<layer number="51" name="tDocu" color="7" fill="1" visible="yes" active="yes"/>
<layer number="52" name="bDocu" color="7" fill="1" visible="yes" active="yes"/>
<layer number="88" name="SimResults" color="9" fill="1" visible="yes" active="yes"/>
<layer number="89" name="SimProbes" color="9" fill="1" visible="yes" active="yes"/>
<layer number="90" name="Modules" color="5" fill="1" visible="yes" active="yes"/>
<layer number="91" name="Nets" color="2" fill="1" visible="yes" active="yes"/>
<layer number="92" name="Busses" color="1" fill="1" visible="yes" active="yes"/>
<layer number="93" name="Pins" color="2" fill="1" visible="yes" active="yes"/>
<layer number="94" name="Symbols" color="4" fill="1" visible="yes" active="yes"/>
<layer number="95" name="Names" color="7" fill="1" visible="yes" active="yes"/>
<layer number="96" name="Values" color="7" fill="1" visible="yes" active="yes"/>
<layer number="97" name="Info" color="7" fill="1" visible="yes" active="yes"/>
<layer number="98" name="Guide" color="6" fill="1" visible="yes" active="yes"/>
<layer number="99" name="SpiceOrder" color="5" fill="1" visible="yes" active="yes"/>
</layers>
<library>
<packages>
<package name="PCB_OUTLINE">
<wire x1="3.6" y1="24.08" x2="29.6" y2="24.08" width="0.2" layer="20"/>
<wire x1="36.8" y1="24.08" x2="29.6" y2="24.08" width="0.2" layer="20" curve="-180"/>
<wire x1="3.6" y1="24.08" x2="0" y2="20.58" width="0.2" layer="20" curve="-90.818455"/>
<wire x1="46" y1="24.08" x2="46" y2="0.08" width="0.2" layer="20" curve="-180"/>
<hole x="46" y="12.08" drill="9"/>
<wire x1="45.9" y1="24.08" x2="36.8" y2="24.08" width="0.2" layer="20"/>
<wire x1="3.6" y1="0.08" x2="29.6" y2="0.08" width="0.2" layer="20"/>
<wire x1="36.8" y1="0.08" x2="29.6" y2="0.08" width="0.2" layer="20" curve="180"/>
<wire x1="3.6" y1="0.08" x2="0" y2="3.58" width="0.2" layer="20" curve="90.818455"/>
<wire x1="45.9" y1="0.08" x2="36.8" y2="0.08" width="0.2" layer="20"/>
<wire x1="0" y1="3.58" x2="0" y2="20.58" width="0.2" layer="20"/>
<wire x1="47.5" y1="21.33" x2="44.5" y2="21.33" width="0.2" layer="46"/>
<wire x1="47.5" y1="21.33" x2="47.5" y2="19.33" width="0.2" layer="46" curve="-180"/>
<wire x1="47.5" y1="19.33" x2="44.5" y2="19.33" width="0.2" layer="46"/>
<smd name="P$1" x="46" y="20.33" dx="3" dy="7" layer="1" rot="R90"/>
<wire x1="44.5" y1="19.33" x2="44.5" y2="21.33" width="0.2" layer="46" curve="-180"/>
<wire x1="47.5" y1="5.08" x2="44.5" y2="5.08" width="0.2" layer="46"/>
<wire x1="47.5" y1="5.08" x2="47.5" y2="3.08" width="0.2" layer="46" curve="-180"/>
<wire x1="47.5" y1="3.08" x2="44.5" y2="3.08" width="0.2" layer="46"/>
<smd name="P$2" x="46" y="4.08" dx="3" dy="7" layer="1" rot="R90"/>
<wire x1="44.5" y1="3.08" x2="44.5" y2="5.08" width="0.2" layer="46" curve="-180"/>
<circle x="46" y="12.08" radius="12" width="0.5" layer="21"/>
<text x="36.83" y="12.7" size="0.6096" layer="25">&gt;NAME</text>
<smd name="P$3" x="46" y="20.32" dx="3" dy="7" layer="16" rot="R90"/>
<smd name="P$4" x="46" y="4.08" dx="3" dy="7" layer="16" rot="R90"/>
</package>
</packages>
<symbols>
<symbol name="PCB_OUTLINE">
<pin name="P$1" x="-5.08" y="0" visible="off" length="short"/>
<pin name="P$2" x="5.08" y="0" visible="off" length="short" rot="R180"/>
<text x="0" y="0" size="2.54" layer="94" font="vector" align="center">M</text>
<circle x="0" y="0" radius="2.54" width="0.254" layer="94"/>
<text x="-1.905" y="3.175" size="0.8128" layer="95" font="vector">&gt;NAME</text>
</symbol>
</symbols>
<devicesets>
<deviceset name="PCB_OUTLINE" prefix="M">
<gates>
<gate name="G$1" symbol="PCB_OUTLINE" x="0" y="0"/>
</gates>
<devices>
<device name="" package="PCB_OUTLINE">
<connects>
<connect gate="G$1" pin="P$1" pad="P$1"/>
<connect gate="G$1" pin="P$2" pad="P$2"/>
</connects>
<technologies>
<technology name=""/>
</technologies>
</device>
</devices>
</deviceset>
</devicesets>
</library>
</drawing>
</eagle>
