Value;Parts;MPN;Qty;Link
100;R36;ERJ-U02D1000X ;1;https://www.mouser.it/ProductDetail/Panasonic/ERJ-U02D1000X?qs=sGAEpiMZZMtbBlIeK0eHTatEurIuGwv4
100nF;C1, C6, C7, C8, C17, C35, C50, C54, C72, C90, C95;GRM155R61C104KA88D;11;
100µF;C15, C33, C52, C70, C91, C92, C96, C97;GRM31CR61A107ME05L ;8;https://www.mouser.it/ProductDetail/Murata-Electronics/GRM31CR61A107ME05L?qs=sGAEpiMZZMs7ZEmUmaUL00DUlIL9lB1Ie43AGYCbC%2F9KKl6JW2qMMQ%3D%3D
10k;R1, R2, R3, R61, R66;AC0402FR-0710KL;5;
10nF;C12, C30, C48, C67, C88;GRM155R61A103KA01D;5;
10µH;L2, L4, L6, L8;HCMA1305-100-R ;4;https://www.mouser.it/ProductDetail/Coiltronics-Eaton/HCMA1305-100-R?qs=sGAEpiMZZMsg%252By3WlYCkU3xwg8uRVAx4XYnj3VTn24Q%3D
13k;R64;ERJ-2RKF1302X;1;
160;R34;AC0402FR-07160RL ;1;https://www.mouser.it/ProductDetail/Yageo/AC0402FR-07160RL?qs=sGAEpiMZZMukHu%252BjC5l7YVkZxa21CO%2FyS3OFKPW5rd0%3D
16pF;C11, C29, C47, C66;GCM1555C1H160JA16D;4;https://www.mouser.it/ProductDetail/Murata-Electronics/GCM1555C1H160JA16D?qs=%2Fha2pyFadugcbh64YeyVIpYahMRxatyotEw%252BNoZzXwGDT63k%252BGhXjXJWw%2FWPXuGm
18k;R11, R23, R38, R50;ERJ-2RKF1802X ;4;https://www.mouser.it/ProductDetail/Panasonic/ERJ-2RKF1802X?qs=sGAEpiMZZMvdGkrng054t8AJgcdMkx7xf%2FqSS1%2FnYog%3D
1k;R4, R7, R19, R31, R46, R63;RC0402FR-7W1KL ;6;https://www.mouser.it/ProductDetail/Yageo/RC0402FR-7W1KL?qs=sGAEpiMZZMvdGkrng054t7z4BkURc4LzooUAM1b5MdS2bplM8n7mqw%3D%3D
1µF;C2, C3, C4, C5, C9, C13, C16, C18, C19, C20, C21, C22, C31, C34, C36, C49, C53, C55, C68, C71, C73, C87, C89, C93, C94, C98, C99;CL05A105KP5NNNC;27;
1µH;L11, L12;HA72L-10501R0LFTR ;2;https://www.mouser.it/ProductDetail/BI-Technologies-TT-Electronics/HA72L-10501R0LFTR?qs=sGAEpiMZZMsg%252By3WlYCkUwWVs%252BZAfRN3DsExuInoa8E%3D
22k;R8, R20, R32, R47, R62, R67;AC0402FR-1322KL ;6;https://www.mouser.it/ProductDetail/Yageo/AC0402FR-1322KL?qs=sGAEpiMZZMvdGkrng054t9iIrH0%2FpyhdMONyxN135OUyijJSR0THhg%3D%3D
22nF;C14, C32, C51, C69;885012205052;4;https://www.mouser.it/ProductDetail/Wurth-Elektronik/885012205052?qs=sGAEpiMZZMukHu%252BjC5l7YRTxnIahtzp%252BnV5HWnCJ748%3D
260;R35;RR0510P-2610-D ;1;https://www.mouser.it/ProductDetail/Susumu/RR0510P-2610-D?qs=sGAEpiMZZMu61qfTUdNhG%2FDhcyQpRg8Me%252Bf7f1a0fOY%3D
264k;R60, R65;RN73H1ETTP2643F50 ;2;https://www.mouser.it/ProductDetail/KOA-Speer/RN73H1ETTP2643F50?qs=n6Vcve68kq%252Bedhax%252B8fO9A%3D%3D
33k;R9, R21, R33, R48;CRGP0402F33K ;4;https://www.mouser.it/ProductDetail/TE-Connectivity-Holsworthy/CRGP0402F33K?qs=sGAEpiMZZMvdGkrng054t7z4BkURc4LzwyUi%252B1FMp1CAtTMtCjFDZw%3D%3D
390pF;C10, C28, C46, C65;CGA2B2C0G1H391J050BA ;4;https://www.mouser.it/ProductDetail/TDK/CGA2B2C0G1H391J050BA?qs=sGAEpiMZZMs0AnBnWHyRQFzBYxg9rzNcRm%252Beyh%252BSh3g%3D
3V3;UREG2;MCP1802T-3002I/OT ;1;https://www.mouser.it/ProductDetail/Microchip-Technology/MCP1802T-3002I-OT?qs=sGAEpiMZZMsGz1a6aV8DcHtY22241HYI5svncn6gMRE%3D
5V;UREG1;TPS76950DBVR;1;https://www.mouser.it/ProductDetail/Texas-Instruments/TPS76950DBVR?qs=sGAEpiMZZMsGz1a6aV8DcAfX9iOHBOeIyQpQEiditR4%3D
820k;R12, R24, R39, R51;ERJ-U02F8203X ;4;https://www.mouser.it/ProductDetail/Panasonic/ERJ-U02F8203X?qs=sGAEpiMZZMvdGkrng054t112T3y8TVsSpHTUhzaYgG8%3D
8k6;R10, R22, R37, R49;ERJ-2RKF8661X;4;https://www.mouser.it/ProductDetail/Panasonic/ERJ-2RKF8661X?qs=sGAEpiMZZMvdGkrng054t8ugkoYZivkgZR0TsIJTQoI%3D
ACS711;IC4, IC8, IC13, IC17;ACS711KEXLT-15AB-T ;4;https://www.digikey.it/product-detail/en/allegro-microsystems-llc/ACS711KEXLT-15AB-T/620-1483-1-ND/3868192
ADP1853;IC3, IC7, IC12, IC16, IC20, IC21;ADP1853ACPZ-R7 ;6;https://eu.mouser.com/ProductDetail/Analog-Devices-Linear-Technology/ADP1853ACPZ-R7?qs=%2Fha2pyFadugreyo%252B99LfbiOqRnuf4X4Aeb%252BJIfnFqbQ%3D
ATA6561;IC1;ATA6561-GBQW-N ;1;https://eu.mouser.com/ProductDetail/Microchip-Technology/ATA6561-GBQW-N?qs=sGAEpiMZZMsGqoCZrYwANhlyDFeKuno99i4xb5nPzsM%3D
BQ29200VSON;IC11;BQ29200DRBR ;1;https://eu.mouser.com/ProductDetail/Texas-Instruments/BQ29200DRBR?qs=sGAEpiMZZMsfD%252BbMpEGFJXyxLeu%252BlsXptvBOQHUKnBY%3D
BSC010NE2LS;M3, M4, M7, M8, M11, M12, M15, M16, M21, M22, M23, M24;BSC010NE2LS ;12;https://www.mouser.it/ProductDetail/Infineon-Technologies/BSC010NE2LS?qs=sGAEpiMZZMshyDBzk1%2FWix%252B58Z2w8IaJvrIiM4QhUSI%3D
DMP2005UFG-7;M1, M2;DMP2005UFG-7 ;2;https://www.mouser.it/ProductDetail/Diodes-Incorporated/DMP2005UFG-7?qs=sGAEpiMZZMshyDBzk1%2FWi%2FD7Em5shE8qnow05oSqfwaU0qtx3JMalw%3D%3D
MMBT3904;Q1;MMBT3904,215 ;1;https://www.mouser.it/ProductDetail/Nexperia/MMBT3904215?qs=sGAEpiMZZMshyDBzk1%2FWi7dklbCN21lXSsvwEA6m%2F3M%3D
STM32F042G6;MCU1;STM32F042G6U6 ;1;https://eu.mouser.com/ProductDetail/STMicroelectronics/STM32F042G6U6?qs=sGAEpiMZZMuoKKEcg8mMKNc9fYNb0pwdq4rqFaZOONp42qL8qoOBeg%3D%3D
